atividade_2_2/exercicio/simulation/qsim/exercicio.msim.vcd
$comment
	File created using the following command:
		vcd file exercicio.msim.vcd -direction
$end
$date
	Tue May 24 12:08:59 2022
$end
$version
	ModelSim Version 2020.1
$end
$timescale
	1ps
$end

$scope module exercicio_vhd_vec_tst $end
$var wire 1 ! a [7] $end
$var wire 1 " a [6] $end
$var wire 1 # a [5] $end
$var wire 1 $ a [4] $end
$var wire 1 % a [3] $end
$var wire 1 & a [2] $end
$var wire 1 ' a [1] $end
$var wire 1 ( a [0] $end
$var wire 1 ) b [7] $end
$var wire 1 * b [6] $end
$var wire 1 + b [5] $end
$var wire 1 , b [4] $end
$var wire 1 - b [3] $end
$var wire 1 . b [2] $end
$var wire 1 / b [1] $end
$var wire 1 0 b [0] $end
$var wire 1 1 c_in $end
$var wire 1 2 c_out $end
$var wire 1 3 f [7] $end
$var wire 1 4 f [6] $end
$var wire 1 5 f [5] $end
$var wire 1 6 f [4] $end
$var wire 1 7 f [3] $end
$var wire 1 8 f [2] $end
$var wire 1 9 f [1] $end
$var wire 1 : f [0] $end

$scope module i1 $end
$var wire 1 ; gnd $end
$var wire 1 < vcc $end
$var wire 1 = unknown $end
$var wire 1 > devoe $end
$var wire 1 ? devclrn $end
$var wire 1 @ devpor $end
$var wire 1 A ww_devoe $end
$var wire 1 B ww_devclrn $end
$var wire 1 C ww_devpor $end
$var wire 1 D ww_a [7] $end
$var wire 1 E ww_a [6] $end
$var wire 1 F ww_a [5] $end
$var wire 1 G ww_a [4] $end
$var wire 1 H ww_a [3] $end
$var wire 1 I ww_a [2] $end
$var wire 1 J ww_a [1] $end
$var wire 1 K ww_a [0] $end
$var wire 1 L ww_b [7] $end
$var wire 1 M ww_b [6] $end
$var wire 1 N ww_b [5] $end
$var wire 1 O ww_b [4] $end
$var wire 1 P ww_b [3] $end
$var wire 1 Q ww_b [2] $end
$var wire 1 R ww_b [1] $end
$var wire 1 S ww_b [0] $end
$var wire 1 T ww_c_in $end
$var wire 1 U ww_c_out $end
$var wire 1 V ww_f [7] $end
$var wire 1 W ww_f [6] $end
$var wire 1 X ww_f [5] $end
$var wire 1 Y ww_f [4] $end
$var wire 1 Z ww_f [3] $end
$var wire 1 [ ww_f [2] $end
$var wire 1 \ ww_f [1] $end
$var wire 1 ] ww_f [0] $end
$var wire 1 ^ \~QUARTUS_CREATED_GND~I_combout\ $end
$var wire 1 _ \a[0]~input_o\ $end
$var wire 1 ` \b[0]~input_o\ $end
$var wire 1 a \instancia_0|s~0_combout\ $end
$var wire 1 b \c_in~input_o\ $end
$var wire 1 c \b[1]~input_o\ $end
$var wire 1 d \a[1]~input_o\ $end
$var wire 1 e \instancia_1|s~combout\ $end
$var wire 1 f \b[2]~input_o\ $end
$var wire 1 g \comb~0_combout\ $end
$var wire 1 h \instancia_1|c_out~combout\ $end
$var wire 1 i \a[2]~input_o\ $end
$var wire 1 j \instancia_2|s~combout\ $end
$var wire 1 k \b[3]~input_o\ $end
$var wire 1 l \comb~1_combout\ $end
$var wire 1 m \a[3]~input_o\ $end
$var wire 1 n \instancia_3|s~combout\ $end
$var wire 1 o \a[4]~input_o\ $end
$var wire 1 p \b[4]~input_o\ $end
$var wire 1 q \instancia_4|s~0_combout\ $end
$var wire 1 r \instancia_4|s~combout\ $end
$var wire 1 s \a[5]~input_o\ $end
$var wire 1 t \b[5]~input_o\ $end
$var wire 1 u \comb~3_combout\ $end
$var wire 1 v \instancia_3|c_out~combout\ $end
$var wire 1 w \comb~2_combout\ $end
$var wire 1 x \instancia_5|s~combout\ $end
$var wire 1 y \a[6]~input_o\ $end
$var wire 1 z \b[6]~input_o\ $end
$var wire 1 { \instancia_6|s~0_combout\ $end
$var wire 1 | \instancia_6|s~combout\ $end
$var wire 1 } \instancia_5|c_out~combout\ $end
$var wire 1 ~ \a[7]~input_o\ $end
$var wire 1 !! \b[7]~input_o\ $end
$var wire 1 "! \instancia_7|s~combout\ $end
$var wire 1 #! \ALT_INV_b[7]~input_o\ $end
$var wire 1 $! \ALT_INV_a[7]~input_o\ $end
$var wire 1 %! \ALT_INV_a[6]~input_o\ $end
$var wire 1 &! \ALT_INV_b[6]~input_o\ $end
$var wire 1 '! \ALT_INV_a[5]~input_o\ $end
$var wire 1 (! \ALT_INV_b[5]~input_o\ $end
$var wire 1 )! \ALT_INV_a[4]~input_o\ $end
$var wire 1 *! \ALT_INV_b[4]~input_o\ $end
$var wire 1 +! \ALT_INV_a[3]~input_o\ $end
$var wire 1 ,! \ALT_INV_b[3]~input_o\ $end
$var wire 1 -! \ALT_INV_a[2]~input_o\ $end
$var wire 1 .! \ALT_INV_b[2]~input_o\ $end
$var wire 1 /! \ALT_INV_a[1]~input_o\ $end
$var wire 1 0! \ALT_INV_c_in~input_o\ $end
$var wire 1 1! \ALT_INV_b[1]~input_o\ $end
$var wire 1 2! \ALT_INV_b[0]~input_o\ $end
$var wire 1 3! \ALT_INV_a[0]~input_o\ $end
$var wire 1 4! \instancia_5|ALT_INV_c_out~combout\ $end
$var wire 1 5! \instancia_6|ALT_INV_s~0_combout\ $end
$var wire 1 6! \ALT_INV_comb~3_combout\ $end
$var wire 1 7! \ALT_INV_comb~2_combout\ $end
$var wire 1 8! \instancia_3|ALT_INV_c_out~combout\ $end
$var wire 1 9! \instancia_4|ALT_INV_s~0_combout\ $end
$var wire 1 :! \ALT_INV_comb~1_combout\ $end
$var wire 1 ;! \ALT_INV_comb~0_combout\ $end
$var wire 1 <! \instancia_1|ALT_INV_c_out~combout\ $end
$upscope $end
$upscope $end
$enddefinitions $end
#0
$dumpvars
01
02
0;
1<
x=
1>
1?
1@
1A
1B
1C
0T
0U
x^
0_
0`
0a
0b
0c
0d
0e
0f
0g
0h
0i
0j
0k
0l
0m
0n
0o
0p
0q
0r
0s
0t
0u
0v
0w
0x
0y
0z
0{
0|
0}
0~
0!!
0"!
1#!
1$!
1%!
1&!
1'!
1(!
1)!
1*!
1+!
1,!
1-!
1.!
1/!
10!
11!
12!
13!
14!
15!
16!
17!
18!
19!
1:!
1;!
1<!
0!
0"
0#
0$
0%
0&
0'
0(
0)
0*
0+
0,
0-
0.
0/
00
0D
0E
0F
0G
0H
0I
0J
0K
0L
0M
0N
0O
0P
0Q
0R
0S
0V
0W
0X
0Y
0Z
0[
0\
0]
03
04
05
06
07
08
09
0:
$end
#2000
1(
10
1K
1S
1`
1_
03!
02!
1e
1\
19
#4000
0(
00
1'
1/
0K
1J
0S
1R
1c
0`
1d
0_
13!
0/!
12!
01!
0e
1h
0<!
1j
0\
09
1[
18
#6000
1(
10
1K
1S
1`
1_
03!
02!
1e
1\
19
#8000
0(
00
0'
0/
1&
1.
0K
0J
1I
0S
0R
1Q
1f
0c
0`
1i
0d
0_
13!
1/!
0-!
12!
11!
0.!
1g
0j
1n
0e
0h
1<!
0;!
0\
1Z
0[
09
08
17
#10000
1(
10
1K
1S
1`
1_
03!
02!
1e
1\
19
#12000
0(
00
1'
1/
0K
1J
0S
1R
1c
0`
1d
0_
13!
0/!
12!
01!
0e
1h
0<!
1j
0\
09
1[
18
#14000
1(
10
1K
1S
1`
1_
03!
02!
1e
1\
19
#16000
0(
00
0'
0/
0&
0.
1%
1-
0K
0J
0I
1H
0S
0R
0Q
1P
1k
0f
0c
0`
1m
0i
0d
0_
13!
1/!
1-!
0+!
12!
11!
1.!
0,!
1l
0g
0j
0n
1r
1v
0e
0h
1<!
08!
1;!
0:!
0\
1Y
0Z
0[
09
08
07
16
#18000
1(
10
1K
1S
1`
1_
03!
02!
1e
1\
19
#20000
0(
00
1'
1/
0K
1J
0S
1R
1c
0`
1d
0_
13!
0/!
12!
01!
0e
1h
0<!
1j
0\
09
1[
18
#22000
1(
10
1K
1S
1`
1_
03!
02!
1e
1\
19
#24000
0(
00
0'
0/
1&
1.
0K
0J
1I
0S
0R
1Q
1f
0c
0`
1i
0d
0_
13!
1/!
0-!
12!
11!
0.!
1g
0j
1n
0e
0h
1<!
0;!
0\
1Z
0[
09
08
17
#26000
1(
10
1K
1S
1`
1_
03!
02!
1e
1\
19
#28000
0(
00
1'
1/
0K
1J
0S
1R
1c
0`
1d
0_
13!
0/!
12!
01!
0e
1h
0<!
1j
0\
09
1[
18
#30000
1(
10
1K
1S
1`
1_
03!
02!
1e
1\
19
#32000
0(
00
0'
0/
0&
0.
0%
0-
1$
1,
0K
0J
0I
0H
1G
0S
0R
0Q
0P
1O
1p
0k
0f
0c
0`
1o
0m
0i
0d
0_
13!
1/!
1-!
1+!
0)!
12!
11!
1.!
1,!
0*!
1w
0l
0g
1x
0j
0n
0e
0h
1<!
1;!
1:!
07!
0r
0v
18!
0\
0Z
0[
1X
09
08
07
15
0Y
06
#34000
1(
10
1K
1S
1`
1_
03!
02!
1e
1\
19
#36000
0(
00
1'
1/
0K
1J
0S
1R
1c
0`
1d
0_
13!
0/!
12!
01!
0e
1h
0<!
1j
0\
09
1[
18
#38000
1(
10
1K
1S
1`
1_
03!
02!
1e
1\
19
#40000
0(
00
0'
0/
1&
1.
0K
0J
1I
0S
0R
1Q
1f
0c
0`
1i
0d
0_
13!
1/!
0-!
12!
11!
0.!
1g
0j
1n
0e
0h
1<!
0;!
0\
1Z
0[
09
08
17
#42000
1(
10
1K
1S
1`
1_
03!
02!
1e
1\
19
#44000
0(
00
1'
1/
0K
1J
0S
1R
1c
0`
1d
0_
13!
0/!
12!
01!
0e
1h
0<!
1j
0\
09
1[
18
#46000
1(
10
1K
1S
1`
1_
03!
02!
1e
1\
19
#48000
0(
00
0'
0/
0&
0.
1%
1-
0K
0J
0I
1H
0S
0R
0Q
1P
1k
0f
0c
0`
1m
0i
0d
0_
13!
1/!
1-!
0+!
12!
11!
1.!
0,!
1l
0g
0j
0n
1r
1v
0e
0h
1<!
08!
1;!
0:!
0\
1Y
0Z
0[
09
08
07
16
#50000
1(
10
1K
1S
1`
1_
03!
02!
1e
1\
19
#52000
0(
00
1'
1/
0K
1J
0S
1R
1c
0`
1d
0_
13!
0/!
12!
01!
0e
1h
0<!
1j
0\
09
1[
18
#54000
1(
10
1K
1S
1`
1_
03!
02!
1e
1\
19
#56000
0(
00
0'
0/
1&
1.
0K
0J
1I
0S
0R
1Q
1f
0c
0`
1i
0d
0_
13!
1/!
0-!
12!
11!
0.!
1g
0j
1n
0e
0h
1<!
0;!
0\
1Z
0[
09
08
17
#58000
1(
10
1K
1S
1`
1_
03!
02!
1e
1\
19
#60000
0(
00
1'
1/
0K
1J
0S
1R
1c
0`
1d
0_
13!
0/!
12!
01!
0e
1h
0<!
1j
0\
09
1[
18
#62000
1(
10
1K
1S
1`
1_
03!
02!
1e
1\
19
#64000
0(
00
0'
0/
0&
0.
0%
0-
0$
0,
1#
1+
0K
0J
0I
0H
0G
1F
0S
0R
0Q
0P
0O
1N
1t
0p
0k
0f
0c
0`
1s
0o
0m
0i
0d
0_
13!
1/!
1-!
1+!
1)!
0'!
12!
11!
1.!
1,!
1*!
0(!
1u
0w
0l
0g
0x
1|
1}
0j
0n
0e
0h
1<!
04!
1;!
1:!
17!
06!
0r
0v
18!
0\
0Z
0[
1W
0X
09
08
07
05
14
0Y
06
#66000
1(
10
1K
1S
1`
1_
03!
02!
1e
1\
19
#68000
0(
00
1'
1/
0K
1J
0S
1R
1c
0`
1d
0_
13!
0/!
12!
01!
0e
1h
0<!
1j
0\
09
1[
18
#70000
1(
10
1K
1S
1`
1_
03!
02!
1e
1\
19
#72000
0(
00
0'
0/
1&
1.
0K
0J
1I
0S
0R
1Q
1f
0c
0`
1i
0d
0_
13!
1/!
0-!
12!
11!
0.!
1g
0j
1n
0e
0h
1<!
0;!
0\
1Z
0[
09
08
17
#74000
1(
10
1K
1S
1`
1_
03!
02!
1e
1\
19
#76000
0(
00
1'
1/
0K
1J
0S
1R
1c
0`
1d
0_
13!
0/!
12!
01!
0e
1h
0<!
1j
0\
09
1[
18
#78000
1(
10
1K
1S
1`
1_
03!
02!
1e
1\
19
#80000
0(
00
0'
0/
0&
0.
1%
1-
0K
0J
0I
1H
0S
0R
0Q
1P
1k
0f
0c
0`
1m
0i
0d
0_
13!
1/!
1-!
0+!
12!
11!
1.!
0,!
1l
0g
0j
0n
1r
1v
0e
0h
1<!
08!
1;!
0:!
0\
1Y
0Z
0[
09
08
07
16
#82000
1(
10
1K
1S
1`
1_
03!
02!
1e
1\
19
#84000
0(
00
1'
1/
0K
1J
0S
1R
1c
0`
1d
0_
13!
0/!
12!
01!
0e
1h
0<!
1j
0\
09
1[
18
#86000
1(
10
1K
1S
1`
1_
03!
02!
1e
1\
19
#88000
0(
00
0'
0/
1&
1.
0K
0J
1I
0S
0R
1Q
1f
0c
0`
1i
0d
0_
13!
1/!
0-!
12!
11!
0.!
1g
0j
1n
0e
0h
1<!
0;!
0\
1Z
0[
09
08
17
#90000
1(
10
1K
1S
1`
1_
03!
02!
1e
1\
19
#92000
0(
00
1'
1/
0K
1J
0S
1R
1c
0`
1d
0_
13!
0/!
12!
01!
0e
1h
0<!
1j
0\
09
1[
18
#94000
1(
10
1K
1S
1`
1_
03!
02!
1e
1\
19
#96000
0(
00
0'
0/
0&
0.
0%
0-
1$
1,
0K
0J
0I
0H
1G
0S
0R
0Q
0P
1O
1p
0k
0f
0c
0`
1o
0m
0i
0d
0_
13!
1/!
1-!
1+!
0)!
12!
11!
1.!
1,!
0*!
1w
0l
0g
1x
0j
0n
0e
0h
1<!
1;!
1:!
07!
0r
0v
18!
0\
0Z
0[
1X
09
08
07
15
0Y
06
#98000
1(
10
1K
1S
1`
1_
03!
02!
1e
1\
19
#100000
0(
00
1'
1/
0K
1J
0S
1R
1c
0`
1d
0_
13!
0/!
12!
01!
0e
1h
0<!
1j
0\
09
1[
18
#102000
1(
10
1K
1S
1`
1_
03!
02!
1e
1\
19
#104000
0(
00
0'
0/
1&
1.
0K
0J
1I
0S
0R
1Q
1f
0c
0`
1i
0d
0_
13!
1/!
0-!
12!
11!
0.!
1g
0j
1n
0e
0h
1<!
0;!
0\
1Z
0[
09
08
17
#106000
1(
10
1K
1S
1`
1_
03!
02!
1e
1\
19
#108000
0(
00
1'
1/
0K
1J
0S
1R
1c
0`
1d
0_
13!
0/!
12!
01!
0e
1h
0<!
1j
0\
09
1[
18
#110000
1(
10
1K
1S
1`
1_
03!
02!
1e
1\
19
#112000
0(
00
0'
0/
0&
0.
1%
1-
0K
0J
0I
1H
0S
0R
0Q
1P
1k
0f
0c
0`
1m
0i
0d
0_
13!
1/!
1-!
0+!
12!
11!
1.!
0,!
1l
0g
0j
0n
1r
1v
0e
0h
1<!
08!
1;!
0:!
0\
1Y
0Z
0[
09
08
07
16
#114000
1(
10
1K
1S
1`
1_
03!
02!
1e
1\
19
#116000
0(
00
1'
1/
0K
1J
0S
1R
1c
0`
1d
0_
13!
0/!
12!
01!
0e
1h
0<!
1j
0\
09
1[
18
#118000
1(
10
1K
1S
1`
1_
03!
02!
1e
1\
19
#120000
0(
00
0'
0/
1&
1.
0K
0J
1I
0S
0R
1Q
1f
0c
0`
1i
0d
0_
13!
1/!
0-!
12!
11!
0.!
1g
0j
1n
0e
0h
1<!
0;!
0\
1Z
0[
09
08
17
#122000
1(
10
1K
1S
1`
1_
03!
02!
1e
1\
19
#124000
0(
00
1'
1/
0K
1J
0S
1R
1c
0`
1d
0_
13!
0/!
12!
01!
0e
1h
0<!
1j
0\
09
1[
18
#126000
1(
10
1K
1S
1`
1_
03!
02!
1e
1\
19
#128000
0(
00
0'
0/
0&
0.
0%
0-
0$
0,
0#
0+
1"
1*
0K
0J
0I
0H
0G
0F
1E
0S
0R
0Q
0P
0O
0N
1M
1z
0t
0p
0k
0f
0c
0`
1y
0s
0o
0m
0i
0d
0_
13!
1/!
1-!
1+!
1)!
1'!
0%!
12!
11!
1.!
1,!
1*!
1(!
0&!
0u
0w
0l
0g
1"!
0x
0j
0n
0e
0h
1<!
1;!
1:!
17!
16!
0|
0}
0r
0v
18!
14!
0\
0Z
0[
0X
1V
09
08
07
05
13
0Y
0W
06
04
#130000
1(
10
1K
1S
1`
1_
03!
02!
1e
1\
19
#132000
0(
00
1'
1/
0K
1J
0S
1R
1c
0`
1d
0_
13!
0/!
12!
01!
0e
1h
0<!
1j
0\
09
1[
18
#134000
1(
10
1K
1S
1`
1_
03!
02!
1e
1\
19
#136000
0(
00
0'
0/
1&
1.
0K
0J
1I
0S
0R
1Q
1f
0c
0`
1i
0d
0_
13!
1/!
0-!
12!
11!
0.!
1g
0j
1n
0e
0h
1<!
0;!
0\
1Z
0[
09
08
17
#138000
1(
10
1K
1S
1`
1_
03!
02!
1e
1\
19
#140000
0(
00
1'
1/
0K
1J
0S
1R
1c
0`
1d
0_
13!
0/!
12!
01!
0e
1h
0<!
1j
0\
09
1[
18
#142000
1(
10
1K
1S
1`
1_
03!
02!
1e
1\
19
#144000
0(
00
0'
0/
0&
0.
1%
1-
0K
0J
0I
1H
0S
0R
0Q
1P
1k
0f
0c
0`
1m
0i
0d
0_
13!
1/!
1-!
0+!
12!
11!
1.!
0,!
1l
0g
0j
0n
1r
1v
0e
0h
1<!
08!
1;!
0:!
0\
1Y
0Z
0[
09
08
07
16
#146000
1(
10
1K
1S
1`
1_
03!
02!
1e
1\
19
#148000
0(
00
1'
1/
0K
1J
0S
1R
1c
0`
1d
0_
13!
0/!
12!
01!
0e
1h
0<!
1j
0\
09
1[
18
#150000
1(
10
1K
1S
1`
1_
03!
02!
1e
1\
19
#152000
0(
00
0'
0/
1&
1.
0K
0J
1I
0S
0R
1Q
1f
0c
0`
1i
0d
0_
13!
1/!
0-!
12!
11!
0.!
1g
0j
1n
0e
0h
1<!
0;!
0\
1Z
0[
09
08
17
#154000
1(
10
1K
1S
1`
1_
03!
02!
1e
1\
19
#156000
0(
00
1'
1/
0K
1J
0S
1R
1c
0`
1d
0_
13!
0/!
12!
01!
0e
1h
0<!
1j
0\
09
1[
18
#158000
1(
10
1K
1S
1`
1_
03!
02!
1e
1\
19
#160000
0(
00
0'
0/
0&
0.
0%
0-
1$
1,
0K
0J
0I
0H
1G
0S
0R
0Q
0P
1O
1p
0k
0f
0c
0`
1o
0m
0i
0d
0_
13!
1/!
1-!
1+!
0)!
12!
11!
1.!
1,!
0*!
1w
0l
0g
1x
0j
0n
0e
0h
1<!
1;!
1:!
07!
0r
0v
18!
0\
0Z
0[
1X
09
08
07
15
0Y
06
#162000
1(
10
1K
1S
1`
1_
03!
02!
1e
1\
19
#164000
0(
00
1'
1/
0K
1J
0S
1R
1c
0`
1d
0_
13!
0/!
12!
01!
0e
1h
0<!
1j
0\
09
1[
18
#166000
1(
10
1K
1S
1`
1_
03!
02!
1e
1\
19
#168000
0(
00
0'
0/
1&
1.
0K
0J
1I
0S
0R
1Q
1f
0c
0`
1i
0d
0_
13!
1/!
0-!
12!
11!
0.!
1g
0j
1n
0e
0h
1<!
0;!
0\
1Z
0[
09
08
17
#170000
1(
10
1K
1S
1`
1_
03!
02!
1e
1\
19
#172000
0(
00
1'
1/
0K
1J
0S
1R
1c
0`
1d
0_
13!
0/!
12!
01!
0e
1h
0<!
1j
0\
09
1[
18
#174000
1(
10
1K
1S
1`
1_
03!
02!
1e
1\
19
#176000
0(
00
0'
0/
0&
0.
1%
1-
0K
0J
0I
1H
0S
0R
0Q
1P
1k
0f
0c
0`
1m
0i
0d
0_
13!
1/!
1-!
0+!
12!
11!
1.!
0,!
1l
0g
0j
0n
1r
1v
0e
0h
1<!
08!
1;!
0:!
0\
1Y
0Z
0[
09
08
07
16
#178000
1(
10
1K
1S
1`
1_
03!
02!
1e
1\
19
#180000
0(
00
1'
1/
0K
1J
0S
1R
1c
0`
1d
0_
13!
0/!
12!
01!
0e
1h
0<!
1j
0\
09
1[
18
#182000
1(
10
1K
1S
1`
1_
03!
02!
1e
1\
19
#184000
0(
00
0'
0/
1&
1.
0K
0J
1I
0S
0R
1Q
1f
0c
0`
1i
0d
0_
13!
1/!
0-!
12!
11!
0.!
1g
0j
1n
0e
0h
1<!
0;!
0\
1Z
0[
09
08
17
#186000
1(
10
1K
1S
1`
1_
03!
02!
1e
1\
19
#188000
0(
00
1'
1/
0K
1J
0S
1R
1c
0`
1d
0_
13!
0/!
12!
01!
0e
1h
0<!
1j
0\
09
1[
18
#190000
1(
10
1K
1S
1`
1_
03!
02!
1e
1\
19
#192000
0(
00
0'
0/
0&
0.
0%
0-
0$
0,
1#
1+
0K
0J
0I
0H
0G
1F
0S
0R
0Q
0P
0O
1N
1t
0p
0k
0f
0c
0`
1s
0o
0m
0i
0d
0_
13!
1/!
1-!
1+!
1)!
0'!
12!
11!
1.!
1,!
1*!
0(!
1u
0w
0l
0g
0x
1|
1}
0j
0n
0e
0h
1<!
04!
1;!
1:!
17!
06!
0r
0v
18!
0\
0Z
0[
1W
0X
09
08
07
05
14
0Y
06
#194000
1(
10
1K
1S
1`
1_
03!
02!
1e
1\
19
#196000
0(
00
1'
1/
0K
1J
0S
1R
1c
0`
1d
0_
13!
0/!
12!
01!
0e
1h
0<!
1j
0\
09
1[
18
#198000
1(
10
1K
1S
1`
1_
03!
02!
1e
1\
19
#200000
0(
00
0'
0/
1&
1.
0K
0J
1I
0S
0R
1Q
1f
0c
0`
1i
0d
0_
13!
1/!
0-!
12!
11!
0.!
1g
0j
1n
0e
0h
1<!
0;!
0\
1Z
0[
09
08
17
#202000
1(
10
1K
1S
1`
1_
03!
02!
1e
1\
19
#204000
0(
00
1'
1/
0K
1J
0S
1R
1c
0`
1d
0_
13!
0/!
12!
01!
0e
1h
0<!
1j
0\
09
1[
18
#206000
1(
10
1K
1S
1`
1_
03!
02!
1e
1\
19
#208000
0(
00
0'
0/
0&
0.
1%
1-
0K
0J
0I
1H
0S
0R
0Q
1P
1k
0f
0c
0`
1m
0i
0d
0_
13!
1/!
1-!
0+!
12!
11!
1.!
0,!
1l
0g
0j
0n
1r
1v
0e
0h
1<!
08!
1;!
0:!
0\
1Y
0Z
0[
09
08
07
16
#210000
1(
10
1K
1S
1`
1_
03!
02!
1e
1\
19
#212000
0(
00
1'
1/
0K
1J
0S
1R
1c
0`
1d
0_
13!
0/!
12!
01!
0e
1h
0<!
1j
0\
09
1[
18
#214000
1(
10
1K
1S
1`
1_
03!
02!
1e
1\
19
#216000
0(
00
0'
0/
1&
1.
0K
0J
1I
0S
0R
1Q
1f
0c
0`
1i
0d
0_
13!
1/!
0-!
12!
11!
0.!
1g
0j
1n
0e
0h
1<!
0;!
0\
1Z
0[
09
08
17
#218000
1(
10
1K
1S
1`
1_
03!
02!
1e
1\
19
#220000
0(
00
1'
1/
0K
1J
0S
1R
1c
0`
1d
0_
13!
0/!
12!
01!
0e
1h
0<!
1j
0\
09
1[
18
#222000
1(
10
1K
1S
1`
1_
03!
02!
1e
1\
19
#224000
0(
00
0'
0/
0&
0.
0%
0-
1$
1,
0K
0J
0I
0H
1G
0S
0R
0Q
0P
1O
1p
0k
0f
0c
0`
1o
0m
0i
0d
0_
13!
1/!
1-!
1+!
0)!
12!
11!
1.!
1,!
0*!
1w
0l
0g
1x
0j
0n
0e
0h
1<!
1;!
1:!
07!
0r
0v
18!
0\
0Z
0[
1X
09
08
07
15
0Y
06
#226000
1(
10
1K
1S
1`
1_
03!
02!
1e
1\
19
#228000
0(
00
1'
1/
0K
1J
0S
1R
1c
0`
1d
0_
13!
0/!
12!
01!
0e
1h
0<!
1j
0\
09
1[
18
#230000
1(
10
1K
1S
1`
1_
03!
02!
1e
1\
19
#232000
0(
00
0'
0/
1&
1.
0K
0J
1I
0S
0R
1Q
1f
0c
0`
1i
0d
0_
13!
1/!
0-!
12!
11!
0.!
1g
0j
1n
0e
0h
1<!
0;!
0\
1Z
0[
09
08
17
#234000
1(
10
1K
1S
1`
1_
03!
02!
1e
1\
19
#236000
0(
00
1'
1/
0K
1J
0S
1R
1c
0`
1d
0_
13!
0/!
12!
01!
0e
1h
0<!
1j
0\
09
1[
18
#238000
1(
10
1K
1S
1`
1_
03!
02!
1e
1\
19
#240000
0(
00
0'
0/
0&
0.
1%
1-
0K
0J
0I
1H
0S
0R
0Q
1P
1k
0f
0c
0`
1m
0i
0d
0_
13!
1/!
1-!
0+!
12!
11!
1.!
0,!
1l
0g
0j
0n
1r
1v
0e
0h
1<!
08!
1;!
0:!
0\
1Y
0Z
0[
09
08
07
16
#242000
1(
10
1K
1S
1`
1_
03!
02!
1e
1\
19
#244000
0(
00
1'
1/
0K
1J
0S
1R
1c
0`
1d
0_
13!
0/!
12!
01!
0e
1h
0<!
1j
0\
09
1[
18
#246000
1(
10
1K
1S
1`
1_
03!
02!
1e
1\
19
#248000
0(
00
0'
0/
1&
1.
0K
0J
1I
0S
0R
1Q
1f
0c
0`
1i
0d
0_
13!
1/!
0-!
12!
11!
0.!
1g
0j
1n
0e
0h
1<!
0;!
0\
1Z
0[
09
08
17
#250000
1(
10
1K
1S
1`
1_
03!
02!
1e
1\
19
#252000
0(
00
1'
1/
0K
1J
0S
1R
1c
0`
1d
0_
13!
0/!
12!
01!
0e
1h
0<!
1j
0\
09
1[
18
#254000
1(
10
1K
1S
1`
1_
03!
02!
1e
1\
19
#256000
0(
00
0'
0/
0&
0.
0%
0-
0$
0,
0#
0+
0"
0*
1!
1)
0K
0J
0I
0H
0G
0F
0E
1D
0S
0R
0Q
0P
0O
0N
0M
1L
1!!
0z
0t
0p
0k
0f
0c
0`
1~
0y
0s
0o
0m
0i
0d
0_
13!
1/!
1-!
1+!
1)!
1'!
1%!
0$!
12!
11!
1.!
1,!
1*!
1(!
1&!
0#!
0u
0w
0l
0g
0"!
0x
0j
0n
0e
0h
1<!
1;!
1:!
17!
16!
0|
0}
0r
0v
18!
14!
0\
0Z
0[
0X
0V
09
08
07
05
03
0Y
0W
06
04
#258000
1(
10
1K
1S
1`
1_
03!
02!
1e
1\
19
#260000
0(
00
1'
1/
0K
1J
0S
1R
1c
0`
1d
0_
13!
0/!
12!
01!
0e
1h
0<!
1j
0\
09
1[
18
#262000
1(
10
1K
1S
1`
1_
03!
02!
1e
1\
19
#264000
0(
00
0'
0/
1&
1.
0K
0J
1I
0S
0R
1Q
1f
0c
0`
1i
0d
0_
13!
1/!
0-!
12!
11!
0.!
1g
0j
1n
0e
0h
1<!
0;!
0\
1Z
0[
09
08
17
#266000
1(
10
1K
1S
1`
1_
03!
02!
1e
1\
19
#268000
0(
00
1'
1/
0K
1J
0S
1R
1c
0`
1d
0_
13!
0/!
12!
01!
0e
1h
0<!
1j
0\
09
1[
18
#270000
1(
10
1K
1S
1`
1_
03!
02!
1e
1\
19
#272000
0(
00
0'
0/
0&
0.
1%
1-
0K
0J
0I
1H
0S
0R
0Q
1P
1k
0f
0c
0`
1m
0i
0d
0_
13!
1/!
1-!
0+!
12!
11!
1.!
0,!
1l
0g
0j
0n
1r
1v
0e
0h
1<!
08!
1;!
0:!
0\
1Y
0Z
0[
09
08
07
16
#274000
1(
10
1K
1S
1`
1_
03!
02!
1e
1\
19
#276000
0(
00
1'
1/
0K
1J
0S
1R
1c
0`
1d
0_
13!
0/!
12!
01!
0e
1h
0<!
1j
0\
09
1[
18
#278000
1(
10
1K
1S
1`
1_
03!
02!
1e
1\
19
#280000
0(
00
0'
0/
1&
1.
0K
0J
1I
0S
0R
1Q
1f
0c
0`
1i
0d
0_
13!
1/!
0-!
12!
11!
0.!
1g
0j
1n
0e
0h
1<!
0;!
0\
1Z
0[
09
08
17
#282000
1(
10
1K
1S
1`
1_
03!
02!
1e
1\
19
#284000
0(
00
1'
1/
0K
1J
0S
1R
1c
0`
1d
0_
13!
0/!
12!
01!
0e
1h
0<!
1j
0\
09
1[
18
#286000
1(
10
1K
1S
1`
1_
03!
02!
1e
1\
19
#288000
0(
00
0'
0/
0&
0.
0%
0-
1$
1,
0K
0J
0I
0H
1G
0S
0R
0Q
0P
1O
1p
0k
0f
0c
0`
1o
0m
0i
0d
0_
13!
1/!
1-!
1+!
0)!
12!
11!
1.!
1,!
0*!
1w
0l
0g
1x
0j
0n
0e
0h
1<!
1;!
1:!
07!
0r
0v
18!
0\
0Z
0[
1X
09
08
07
15
0Y
06
#290000
1(
10
1K
1S
1`
1_
03!
02!
1e
1\
19
#292000
0(
00
1'
1/
0K
1J
0S
1R
1c
0`
1d
0_
13!
0/!
12!
01!
0e
1h
0<!
1j
0\
09
1[
18
#294000
1(
10
1K
1S
1`
1_
03!
02!
1e
1\
19
#296000
0(
00
0'
0/
1&
1.
0K
0J
1I
0S
0R
1Q
1f
0c
0`
1i
0d
0_
13!
1/!
0-!
12!
11!
0.!
1g
0j
1n
0e
0h
1<!
0;!
0\
1Z
0[
09
08
17
#298000
1(
10
1K
1S
1`
1_
03!
02!
1e
1\
19
#300000
0(
00
1'
1/
0K
1J
0S
1R
1c
0`
1d
0_
13!
0/!
12!
01!
0e
1h
0<!
1j
0\
09
1[
18
#302000
1(
10
1K
1S
1`
1_
03!
02!
1e
1\
19
#304000
0(
00
0'
0/
0&
0.
1%
1-
0K
0J
0I
1H
0S
0R
0Q
1P
1k
0f
0c
0`
1m
0i
0d
0_
13!
1/!
1-!
0+!
12!
11!
1.!
0,!
1l
0g
0j
0n
1r
1v
0e
0h
1<!
08!
1;!
0:!
0\
1Y
0Z
0[
09
08
07
16
#306000
1(
10
1K
1S
1`
1_
03!
02!
1e
1\
19
#308000
0(
00
1'
1/
0K
1J
0S
1R
1c
0`
1d
0_
13!
0/!
12!
01!
0e
1h
0<!
1j
0\
09
1[
18
#310000
1(
10
1K
1S
1`
1_
03!
02!
1e
1\
19
