atividade_1_1/questao_3/simulation/qsim/questao_3.msim.vcd
$comment
	File created using the following command:
		vcd file questao_3.msim.vcd -direction
$end
$date
	Tue May 10 14:06:54 2022
$end
$version
	ModelSim Version 2020.1
$end
$timescale
	1ps
$end

$scope module questao_3_vlg_vec_tst $end
$var reg 1 ! a $end
$var reg 1 " b $end
$var wire 1 # s $end

$scope module i1 $end
$var wire 1 $ gnd $end
$var wire 1 % vcc $end
$var wire 1 & unknown $end
$var tri1 1 ' devclrn $end
$var tri1 1 ( devpor $end
$var tri1 1 ) devoe $end
$var wire 1 * ~QUARTUS_CREATED_GND~I_combout $end
$var wire 1 + b~input_o $end
$var wire 1 , a~input_o $end
$var wire 1 - s~0_combout $end
$upscope $end
$upscope $end
$enddefinitions $end
#0
$dumpvars
0!
0"
1#
0$
1%
x&
1'
1(
1)
0*
0+
0,
0-
$end
#1000
1"
1+
#2000
1!
0"
1,
0+
#3000
1"
1+
1-
0#
#4000
0!
0"
0,
0+
0-
1#
#5000
1"
1+
#6000
1!
0"
1,
0+
#7000
1"
1+
1-
0#
#8000
0!
0"
0,
0+
0-
1#
#9000
1"
1+
#10000
1!
0"
1,
0+
#11000
1"
1+
1-
0#
#12000
0!
0"
0,
0+
0-
1#
#13000
1"
1+
#14000
1!
0"
1,
0+
#15000
1"
1+
1-
0#
#16000
0!
0"
0,
0+
0-
1#
#17000
1"
1+
#18000
1!
0"
1,
0+
#19000
1"
1+
1-
0#
#20000
0!
0"
0,
0+
0-
1#
#21000
1"
1+
#22000
1!
0"
1,
0+
#23000
1"
1+
1-
0#
#24000
0!
0"
0,
0+
0-
1#
#25000
1"
1+
#26000
1!
0"
1,
0+
#27000
1"
1+
1-
0#
#28000
0!
0"
0,
0+
0-
1#
#29000
1"
1+
#30000
1!
0"
1,
0+
#31000
1"
1+
1-
0#
#32000
0!
0"
0,
0+
0-
1#
#33000
1"
1+
#34000
1!
0"
1,
0+
#35000
1"
1+
1-
0#
#36000
0!
0"
0,
0+
0-
1#
#37000
1"
1+
#38000
1!
0"
1,
0+
#39000
1"
1+
1-
0#
#40000
0!
0"
0,
0+
0-
1#
#41000
1"
1+
#42000
1!
0"
1,
0+
#43000
1"
1+
1-
0#
#44000
0!
0"
0,
0+
0-
1#
#45000
1"
1+
#46000
1!
0"
1,
0+
#47000
1"
1+
1-
0#
#48000
0!
0"
0,
0+
0-
1#
#49000
1"
1+
#50000
1!
0"
1,
0+
#51000
1"
1+
1-
0#
#52000
0!
0"
0,
0+
0-
1#
#53000
1"
1+
#54000
1!
0"
1,
0+
#55000
1"
1+
1-
0#
#56000
0!
0"
0,
0+
0-
1#
#57000
1"
1+
#58000
1!
0"
1,
0+
#59000
1"
1+
1-
0#
#60000
0!
0"
0,
0+
0-
1#
#61000
1"
1+
#62000
1!
0"
1,
0+
#63000
1"
1+
1-
0#
#64000
0!
0"
0,
0+
0-
1#
#65000
1"
1+
#66000
1!
0"
1,
0+
#67000
1"
1+
1-
0#
#68000
0!
0"
0,
0+
0-
1#
#69000
1"
1+
#70000
1!
0"
1,
0+
#71000
1"
1+
1-
0#
#72000
0!
0"
0,
0+
0-
1#
#73000
1"
1+
#74000
1!
0"
1,
0+
#75000
1"
1+
1-
0#
#76000
0!
0"
0,
0+
0-
1#
#77000
1"
1+
#78000
1!
0"
1,
0+
#79000
1"
1+
1-
0#
#80000
0!
0"
0,
0+
0-
1#
#81000
1"
1+
#82000
1!
0"
1,
0+
#83000
1"
1+
1-
0#
#84000
0!
0"
0,
0+
0-
1#
#85000
1"
1+
#86000
1!
0"
1,
0+
#87000
1"
1+
1-
0#
#88000
0!
0"
0,
0+
0-
1#
#89000
1"
1+
#90000
1!
0"
1,
0+
#91000
1"
1+
1-
0#
#92000
0!
0"
0,
0+
0-
1#
#93000
1"
1+
#94000
1!
0"
1,
0+
#95000
1"
1+
1-
0#
#96000
0!
0"
0,
0+
0-
1#
#97000
1"
1+
#98000
1!
0"
1,
0+
#99000
1"
1+
1-
0#
#100000
0!
0"
0,
0+
0-
1#
#101000
1"
1+
#102000
1!
0"
1,
0+
#103000
1"
1+
1-
0#
#104000
0!
0"
0,
0+
0-
1#
#105000
1"
1+
#106000
1!
0"
1,
0+
#107000
1"
1+
1-
0#
#108000
0!
0"
0,
0+
0-
1#
#109000
1"
1+
#110000
1!
0"
1,
0+
#111000
1"
1+
1-
0#
#112000
0!
0"
0,
0+
0-
1#
#113000
1"
1+
#114000
1!
0"
1,
0+
#115000
1"
1+
1-
0#
#116000
0!
0"
0,
0+
0-
1#
#117000
1"
1+
#118000
1!
0"
1,
0+
#119000
1"
1+
1-
0#
#120000
0!
0"
0,
0+
0-
1#
#121000
1"
1+
#122000
1!
0"
1,
0+
#123000
1"
1+
1-
0#
#124000
0!
0"
0,
0+
0-
1#
#125000
1"
1+
#126000
1!
0"
1,
0+
#127000
1"
1+
1-
0#
#128000
0!
0"
0,
0+
0-
1#
#129000
1"
1+
#130000
1!
0"
1,
0+
#131000
1"
1+
1-
0#
#132000
0!
0"
0,
0+
0-
1#
#133000
1"
1+
#134000
1!
0"
1,
0+
#135000
1"
1+
1-
0#
#136000
0!
0"
0,
0+
0-
1#
#137000
1"
1+
#138000
1!
0"
1,
0+
#139000
1"
1+
1-
0#
#140000
0!
0"
0,
0+
0-
1#
#141000
1"
1+
#142000
1!
0"
1,
0+
#143000
1"
1+
1-
0#
#144000
0!
0"
0,
0+
0-
1#
#145000
1"
1+
#146000
1!
0"
1,
0+
#147000
1"
1+
1-
0#
#148000
0!
0"
0,
0+
0-
1#
#149000
1"
1+
#150000
1!
0"
1,
0+
#151000
1"
1+
1-
0#
#152000
0!
0"
0,
0+
0-
1#
#153000
1"
1+
#154000
1!
0"
1,
0+
#155000
1"
1+
1-
0#
#156000
0!
0"
0,
0+
0-
1#
#157000
1"
1+
#158000
1!
0"
1,
0+
#159000
1"
1+
1-
0#
#160000
0!
0"
0,
0+
0-
1#
#161000
1"
1+
#162000
1!
0"
1,
0+
#163000
1"
1+
1-
0#
#164000
0!
0"
0,
0+
0-
1#
#165000
1"
1+
#166000
1!
0"
1,
0+
#167000
1"
1+
1-
0#
#168000
0!
0"
0,
0+
0-
1#
#169000
1"
1+
#170000
1!
0"
1,
0+
#171000
1"
1+
1-
0#
#172000
0!
0"
0,
0+
0-
1#
#173000
1"
1+
#174000
1!
0"
1,
0+
#175000
1"
1+
1-
0#
#176000
0!
0"
0,
0+
0-
1#
#177000
1"
1+
#178000
1!
0"
1,
0+
#179000
1"
1+
1-
0#
#180000
0!
0"
0,
0+
0-
1#
#181000
1"
1+
#182000
1!
0"
1,
0+
#183000
1"
1+
1-
0#
#184000
0!
0"
0,
0+
0-
1#
#185000
1"
1+
#186000
1!
0"
1,
0+
#187000
1"
1+
1-
0#
#188000
0!
0"
0,
0+
0-
1#
#189000
1"
1+
#190000
1!
0"
1,
0+
#191000
1"
1+
1-
0#
#192000
0!
0"
0,
0+
0-
1#
#193000
1"
1+
#194000
1!
0"
1,
0+
#195000
1"
1+
1-
0#
#196000
0!
0"
0,
0+
0-
1#
#197000
1"
1+
#198000
1!
0"
1,
0+
#199000
1"
1+
1-
0#
#200000
0!
0"
0,
0+
0-
1#
#201000
1"
1+
#202000
1!
0"
1,
0+
#203000
1"
1+
1-
0#
#204000
0!
0"
0,
0+
0-
1#
#205000
1"
1+
#206000
1!
0"
1,
0+
#207000
1"
1+
1-
0#
#208000
0!
0"
0,
0+
0-
1#
#209000
1"
1+
#210000
1!
0"
1,
0+
#211000
1"
1+
1-
0#
#212000
0!
0"
0,
0+
0-
1#
#213000
1"
1+
#214000
1!
0"
1,
0+
#215000
1"
1+
1-
0#
#216000
0!
0"
0,
0+
0-
1#
#217000
1"
1+
#218000
1!
0"
1,
0+
#219000
1"
1+
1-
0#
#220000
0!
0"
0,
0+
0-
1#
#221000
1"
1+
#222000
1!
0"
1,
0+
#223000
1"
1+
1-
0#
#224000
0!
0"
0,
0+
0-
1#
#225000
1"
1+
#226000
1!
0"
1,
0+
#227000
1"
1+
1-
0#
#228000
0!
0"
0,
0+
0-
1#
#229000
1"
1+
#230000
1!
0"
1,
0+
#231000
1"
1+
1-
0#
#232000
0!
0"
0,
0+
0-
1#
#233000
1"
1+
#234000
1!
0"
1,
0+
#235000
1"
1+
1-
0#
#236000
0!
0"
0,
0+
0-
1#
#237000
1"
1+
#238000
1!
0"
1,
0+
#239000
1"
1+
1-
0#
#240000
0!
0"
0,
0+
0-
1#
#241000
1"
1+
#242000
1!
0"
1,
0+
#243000
1"
1+
1-
0#
#244000
0!
0"
0,
0+
0-
1#
#245000
1"
1+
#246000
1!
0"
1,
0+
#247000
1"
1+
1-
0#
#248000
0!
0"
0,
0+
0-
1#
#249000
1"
1+
#250000
1!
0"
1,
0+
#251000
1"
1+
1-
0#
#252000
0!
0"
0,
0+
0-
1#
#253000
1"
1+
#254000
1!
0"
1,
0+
#255000
1"
1+
1-
0#
#256000
0!
0"
0,
0+
0-
1#
#257000
1"
1+
#258000
1!
0"
1,
0+
#259000
1"
1+
1-
0#
#260000
0!
0"
0,
0+
0-
1#
#261000
1"
1+
#262000
1!
0"
1,
0+
#263000
1"
1+
1-
0#
#264000
0!
0"
0,
0+
0-
1#
#265000
1"
1+
#266000
1!
0"
1,
0+
#267000
1"
1+
1-
0#
#268000
0!
0"
0,
0+
0-
1#
#269000
1"
1+
#270000
1!
0"
1,
0+
#271000
1"
1+
1-
0#
#272000
0!
0"
0,
0+
0-
1#
#273000
1"
1+
#274000
1!
0"
1,
0+
#275000
1"
1+
1-
0#
#276000
0!
0"
0,
0+
0-
1#
#277000
1"
1+
#278000
1!
0"
1,
0+
#279000
1"
1+
1-
0#
#280000
0!
0"
0,
0+
0-
1#
#281000
1"
1+
#282000
1!
0"
1,
0+
#283000
1"
1+
1-
0#
#284000
0!
0"
0,
0+
0-
1#
#285000
1"
1+
#286000
1!
0"
1,
0+
#287000
1"
1+
1-
0#
#288000
0!
0"
0,
0+
0-
1#
#289000
1"
1+
#290000
1!
0"
1,
0+
#291000
1"
1+
1-
0#
#292000
0!
0"
0,
0+
0-
1#
#293000
1"
1+
#294000
1!
0"
1,
0+
#295000
1"
1+
1-
0#
#296000
0!
0"
0,
0+
0-
1#
#297000
1"
1+
#298000
1!
0"
1,
0+
#299000
1"
1+
1-
0#
#300000
0!
0"
0,
0+
0-
1#
#301000
1"
1+
#302000
1!
0"
1,
0+
#303000
1"
1+
1-
0#
#304000
0!
0"
0,
0+
0-
1#
#305000
1"
1+
#306000
1!
0"
1,
0+
#307000
1"
1+
1-
0#
#308000
0!
0"
0,
0+
0-
1#
#309000
1"
1+
#310000
1!
0"
1,
0+
#311000
1"
1+
1-
0#
#312000
0!
0"
0,
0+
0-
1#
#313000
1"
1+
#314000
1!
0"
1,
0+
#315000
1"
1+
1-
0#
#316000
0!
0"
0,
0+
0-
1#
#317000
1"
1+
#318000
1!
0"
1,
0+
#319000
1"
1+
1-
0#
#320000
0!
0"
0,
0+
0-
1#
#321000
1"
1+
#322000
1!
0"
1,
0+
#323000
1"
1+
1-
0#
#324000
0!
0"
0,
0+
0-
1#
#325000
1"
1+
#326000
1!
0"
1,
0+
#327000
1"
1+
1-
0#
#328000
0!
0"
0,
0+
0-
1#
#329000
1"
1+
#330000
1!
0"
1,
0+
#331000
1"
1+
1-
0#
#332000
0!
0"
0,
0+
0-
1#
#333000
1"
1+
#334000
1!
0"
1,
0+
#335000
1"
1+
1-
0#
#336000
0!
0"
0,
0+
0-
1#
#337000
1"
1+
#338000
1!
0"
1,
0+
#339000
1"
1+
1-
0#
#340000
0!
0"
0,
0+
0-
1#
#341000
1"
1+
#342000
1!
0"
1,
0+
#343000
1"
1+
1-
0#
#344000
0!
0"
0,
0+
0-
1#
#345000
1"
1+
#346000
1!
0"
1,
0+
#347000
1"
1+
1-
0#
#348000
0!
0"
0,
0+
0-
1#
#349000
1"
1+
#350000
1!
0"
1,
0+
#351000
1"
1+
1-
0#
#352000
0!
0"
0,
0+
0-
1#
#353000
1"
1+
#354000
1!
0"
1,
0+
#355000
1"
1+
1-
0#
#356000
0!
0"
0,
0+
0-
1#
#357000
1"
1+
#358000
1!
0"
1,
0+
#359000
1"
1+
1-
0#
#360000
0!
0"
0,
0+
0-
1#
#361000
1"
1+
#362000
1!
0"
1,
0+
#363000
1"
1+
1-
0#
#364000
0!
0"
0,
0+
0-
1#
#365000
1"
1+
#366000
1!
0"
1,
0+
#367000
1"
1+
1-
0#
#368000
0!
0"
0,
0+
0-
1#
#369000
1"
1+
#370000
1!
0"
1,
0+
#371000
1"
1+
1-
0#
#372000
0!
0"
0,
0+
0-
1#
#373000
1"
1+
#374000
1!
0"
1,
0+
#375000
1"
1+
1-
0#
#376000
0!
0"
0,
0+
0-
1#
#377000
1"
1+
#378000
1!
0"
1,
0+
#379000
1"
1+
1-
0#
#380000
0!
0"
0,
0+
0-
1#
#381000
1"
1+
#382000
1!
0"
1,
0+
#383000
1"
1+
1-
0#
#384000
0!
0"
0,
0+
0-
1#
#385000
1"
1+
#386000
1!
0"
1,
0+
#387000
1"
1+
1-
0#
#388000
0!
0"
0,
0+
0-
1#
#389000
1"
1+
#390000
1!
0"
1,
0+
#391000
1"
1+
1-
0#
#392000
0!
0"
0,
0+
0-
1#
#393000
1"
1+
#394000
1!
0"
1,
0+
#395000
1"
1+
1-
0#
#396000
0!
0"
0,
0+
0-
1#
#397000
1"
1+
#398000
1!
0"
1,
0+
#399000
1"
1+
1-
0#
#400000
0!
0"
0,
0+
0-
1#
#401000
1"
1+
#402000
1!
0"
1,
0+
#403000
1"
1+
1-
0#
#404000
0!
0"
0,
0+
0-
1#
#405000
1"
1+
#406000
1!
0"
1,
0+
#407000
1"
1+
1-
0#
#408000
0!
0"
0,
0+
0-
1#
#409000
1"
1+
#410000
1!
0"
1,
0+
#411000
1"
1+
1-
0#
#412000
0!
0"
0,
0+
0-
1#
#413000
1"
1+
#414000
1!
0"
1,
0+
#415000
1"
1+
1-
0#
#416000
0!
0"
0,
0+
0-
1#
#417000
1"
1+
#418000
1!
0"
1,
0+
#419000
1"
1+
1-
0#
#420000
0!
0"
0,
0+
0-
1#
#421000
1"
1+
#422000
1!
0"
1,
0+
#423000
1"
1+
1-
0#
#424000
0!
0"
0,
0+
0-
1#
#425000
1"
1+
#426000
1!
0"
1,
0+
#427000
1"
1+
1-
0#
#428000
0!
0"
0,
0+
0-
1#
#429000
1"
1+
#430000
1!
0"
1,
0+
#431000
1"
1+
1-
0#
#432000
0!
0"
0,
0+
0-
1#
#433000
1"
1+
#434000
1!
0"
1,
0+
#435000
1"
1+
1-
0#
#436000
0!
0"
0,
0+
0-
1#
#437000
1"
1+
#438000
1!
0"
1,
0+
#439000
1"
1+
1-
0#
#440000
0!
0"
0,
0+
0-
1#
#441000
1"
1+
#442000
1!
0"
1,
0+
#443000
1"
1+
1-
0#
#444000
0!
0"
0,
0+
0-
1#
#445000
1"
1+
#446000
1!
0"
1,
0+
#447000
1"
1+
1-
0#
#448000
0!
0"
0,
0+
0-
1#
#449000
1"
1+
#450000
1!
0"
1,
0+
#451000
1"
1+
1-
0#
#452000
0!
0"
0,
0+
0-
1#
#453000
1"
1+
#454000
1!
0"
1,
0+
#455000
1"
1+
1-
0#
#456000
0!
0"
0,
0+
0-
1#
#457000
1"
1+
#458000
1!
0"
1,
0+
#459000
1"
1+
1-
0#
#460000
0!
0"
0,
0+
0-
1#
#461000
1"
1+
#462000
1!
0"
1,
0+
#463000
1"
1+
1-
0#
#464000
0!
0"
0,
0+
0-
1#
#465000
1"
1+
#466000
1!
0"
1,
0+
#467000
1"
1+
1-
0#
#468000
0!
0"
0,
0+
0-
1#
#469000
1"
1+
#470000
1!
0"
1,
0+
#471000
1"
1+
1-
0#
#472000
0!
0"
0,
0+
0-
1#
#473000
1"
1+
#474000
1!
0"
1,
0+
#475000
1"
1+
1-
0#
#476000
0!
0"
0,
0+
0-
1#
#477000
1"
1+
#478000
1!
0"
1,
0+
#479000
1"
1+
1-
0#
#480000
0!
0"
0,
0+
0-
1#
#481000
1"
1+
#482000
1!
0"
1,
0+
#483000
1"
1+
1-
0#
#484000
0!
0"
0,
0+
0-
1#
#485000
1"
1+
#486000
1!
0"
1,
0+
#487000
1"
1+
1-
0#
#488000
0!
0"
0,
0+
0-
1#
#489000
1"
1+
#490000
1!
0"
1,
0+
#491000
1"
1+
1-
0#
#492000
0!
0"
0,
0+
0-
1#
#493000
1"
1+
#494000
1!
0"
1,
0+
#495000
1"
1+
1-
0#
#496000
0!
0"
0,
0+
0-
1#
#497000
1"
1+
#498000
1!
0"
1,
0+
#499000
1"
1+
1-
0#
#500000
0!
0"
0,
0+
0-
1#
#501000
1"
1+
#502000
1!
0"
1,
0+
#503000
1"
1+
1-
0#
#504000
0!
0"
0,
0+
0-
1#
#505000
1"
1+
#506000
1!
0"
1,
0+
#507000
1"
1+
1-
0#
#508000
0!
0"
0,
0+
0-
1#
#509000
1"
1+
#510000
1!
0"
1,
0+
#511000
1"
1+
1-
0#
#512000
0!
0"
0,
0+
0-
1#
#513000
1"
1+
#514000
1!
0"
1,
0+
#515000
1"
1+
1-
0#
#516000
0!
0"
0,
0+
0-
1#
#517000
1"
1+
#518000
1!
0"
1,
0+
#519000
1"
1+
1-
0#
#520000
0!
0"
0,
0+
0-
1#
#521000
1"
1+
#522000
1!
0"
1,
0+
#523000
1"
1+
1-
0#
#524000
0!
0"
0,
0+
0-
1#
#525000
1"
1+
#526000
1!
0"
1,
0+
#527000
1"
1+
1-
0#
#528000
0!
0"
0,
0+
0-
1#
#529000
1"
1+
#530000
1!
0"
1,
0+
#531000
1"
1+
1-
0#
#532000
0!
0"
0,
0+
0-
1#
#533000
1"
1+
#534000
1!
0"
1,
0+
#535000
1"
1+
1-
0#
#536000
0!
0"
0,
0+
0-
1#
#537000
1"
1+
#538000
1!
0"
1,
0+
#539000
1"
1+
1-
0#
#540000
0!
0"
0,
0+
0-
1#
#541000
1"
1+
#542000
1!
0"
1,
0+
#543000
1"
1+
1-
0#
#544000
0!
0"
0,
0+
0-
1#
#545000
1"
1+
#546000
1!
0"
1,
0+
#547000
1"
1+
1-
0#
#548000
0!
0"
0,
0+
0-
1#
#549000
1"
1+
#550000
1!
0"
1,
0+
#551000
1"
1+
1-
0#
#552000
0!
0"
0,
0+
0-
1#
#553000
1"
1+
#554000
1!
0"
1,
0+
#555000
1"
1+
1-
0#
#556000
0!
0"
0,
0+
0-
1#
#557000
1"
1+
#558000
1!
0"
1,
0+
#559000
1"
1+
1-
0#
#560000
0!
0"
0,
0+
0-
1#
#561000
1"
1+
#562000
1!
0"
1,
0+
#563000
1"
1+
1-
0#
#564000
0!
0"
0,
0+
0-
1#
#565000
1"
1+
#566000
1!
0"
1,
0+
#567000
1"
1+
1-
0#
#568000
0!
0"
0,
0+
0-
1#
#569000
1"
1+
#570000
1!
0"
1,
0+
#571000
1"
1+
1-
0#
#572000
0!
0"
0,
0+
0-
1#
#573000
1"
1+
#574000
1!
0"
1,
0+
#575000
1"
1+
1-
0#
#576000
0!
0"
0,
0+
0-
1#
#577000
1"
1+
#578000
1!
0"
1,
0+
#579000
1"
1+
1-
0#
#580000
0!
0"
0,
0+
0-
1#
#581000
1"
1+
#582000
1!
0"
1,
0+
#583000
1"
1+
1-
0#
#584000
0!
0"
0,
0+
0-
1#
#585000
1"
1+
#586000
1!
0"
1,
0+
#587000
1"
1+
1-
0#
#588000
0!
0"
0,
0+
0-
1#
#589000
1"
1+
#590000
1!
0"
1,
0+
#591000
1"
1+
1-
0#
#592000
0!
0"
0,
0+
0-
1#
#593000
1"
1+
#594000
1!
0"
1,
0+
#595000
1"
1+
1-
0#
#596000
0!
0"
0,
0+
0-
1#
#597000
1"
1+
#598000
1!
0"
1,
0+
#599000
1"
1+
1-
0#
#600000
0!
0"
0,
0+
0-
1#
#601000
1"
1+
#602000
1!
0"
1,
0+
#603000
1"
1+
1-
0#
#604000
0!
0"
0,
0+
0-
1#
#605000
1"
1+
#606000
1!
0"
1,
0+
#607000
1"
1+
1-
0#
#608000
0!
0"
0,
0+
0-
1#
#609000
1"
1+
#610000
1!
0"
1,
0+
#611000
1"
1+
1-
0#
#612000
0!
0"
0,
0+
0-
1#
#613000
1"
1+
#614000
1!
0"
1,
0+
#615000
1"
1+
1-
0#
#616000
0!
0"
0,
0+
0-
1#
#617000
1"
1+
#618000
1!
0"
1,
0+
#619000
1"
1+
1-
0#
#620000
0!
0"
0,
0+
0-
1#
#621000
1"
1+
#622000
1!
0"
1,
0+
#623000
1"
1+
1-
0#
#624000
0!
0"
0,
0+
0-
1#
#625000
1"
1+
#626000
1!
0"
1,
0+
#627000
1"
1+
1-
0#
#628000
0!
0"
0,
0+
0-
1#
#629000
1"
1+
#630000
1!
0"
1,
0+
#631000
1"
1+
1-
0#
#632000
0!
0"
0,
0+
0-
1#
#633000
1"
1+
#634000
1!
0"
1,
0+
#635000
1"
1+
1-
0#
#636000
0!
0"
0,
0+
0-
1#
#637000
1"
1+
#638000
1!
0"
1,
0+
#639000
1"
1+
1-
0#
#640000
0!
0"
0,
0+
0-
1#
#641000
1"
1+
#642000
1!
0"
1,
0+
#643000
1"
1+
1-
0#
#644000
0!
0"
0,
0+
0-
1#
#645000
1"
1+
#646000
1!
0"
1,
0+
#647000
1"
1+
1-
0#
#648000
0!
0"
0,
0+
0-
1#
#649000
1"
1+
#650000
1!
0"
1,
0+
#651000
1"
1+
1-
0#
#652000
0!
0"
0,
0+
0-
1#
#653000
1"
1+
#654000
1!
0"
1,
0+
#655000
1"
1+
1-
0#
#656000
0!
0"
0,
0+
0-
1#
#657000
1"
1+
#658000
1!
0"
1,
0+
#659000
1"
1+
1-
0#
#660000
0!
0"
0,
0+
0-
1#
#661000
1"
1+
#662000
1!
0"
1,
0+
#663000
1"
1+
1-
0#
#664000
0!
0"
0,
0+
0-
1#
#665000
1"
1+
#666000
1!
0"
1,
0+
#667000
1"
1+
1-
0#
#668000
0!
0"
0,
0+
0-
1#
#669000
1"
1+
#670000
1!
0"
1,
0+
#671000
1"
1+
1-
0#
#672000
0!
0"
0,
0+
0-
1#
#673000
1"
1+
#674000
1!
0"
1,
0+
#675000
1"
1+
1-
0#
#676000
0!
0"
0,
0+
0-
1#
#677000
1"
1+
#678000
1!
0"
1,
0+
#679000
1"
1+
1-
0#
#680000
0!
0"
0,
0+
0-
1#
#681000
1"
1+
#682000
1!
0"
1,
0+
#683000
1"
1+
1-
0#
#684000
0!
0"
0,
0+
0-
1#
#685000
1"
1+
#686000
1!
0"
1,
0+
#687000
1"
1+
1-
0#
#688000
0!
0"
0,
0+
0-
1#
#689000
1"
1+
#690000
1!
0"
1,
0+
#691000
1"
1+
1-
0#
#692000
0!
0"
0,
0+
0-
1#
#693000
1"
1+
#694000
1!
0"
1,
0+
#695000
1"
1+
1-
0#
#696000
0!
0"
0,
0+
0-
1#
#697000
1"
1+
#698000
1!
0"
1,
0+
#699000
1"
1+
1-
0#
#700000
0!
0"
0,
0+
0-
1#
#701000
1"
1+
#702000
1!
0"
1,
0+
#703000
1"
1+
1-
0#
#704000
0!
0"
0,
0+
0-
1#
#705000
1"
1+
#706000
1!
0"
1,
0+
#707000
1"
1+
1-
0#
#708000
0!
0"
0,
0+
0-
1#
#709000
1"
1+
#710000
1!
0"
1,
0+
#711000
1"
1+
1-
0#
#712000
0!
0"
0,
0+
0-
1#
#713000
1"
1+
#714000
1!
0"
1,
0+
#715000
1"
1+
1-
0#
#716000
0!
0"
0,
0+
0-
1#
#717000
1"
1+
#718000
1!
0"
1,
0+
#719000
1"
1+
1-
0#
#720000
0!
0"
0,
0+
0-
1#
#721000
1"
1+
#722000
1!
0"
1,
0+
#723000
1"
1+
1-
0#
#724000
0!
0"
0,
0+
0-
1#
#725000
1"
1+
#726000
1!
0"
1,
0+
#727000
1"
1+
1-
0#
#728000
0!
0"
0,
0+
0-
1#
#729000
1"
1+
#730000
1!
0"
1,
0+
#731000
1"
1+
1-
0#
#732000
0!
0"
0,
0+
0-
1#
#733000
1"
1+
#734000
1!
0"
1,
0+
#735000
1"
1+
1-
0#
#736000
0!
0"
0,
0+
0-
1#
#737000
1"
1+
#738000
1!
0"
1,
0+
#739000
1"
1+
1-
0#
#740000
0!
0"
0,
0+
0-
1#
#741000
1"
1+
#742000
1!
0"
1,
0+
#743000
1"
1+
1-
0#
#744000
0!
0"
0,
0+
0-
1#
#745000
1"
1+
#746000
1!
0"
1,
0+
#747000
1"
1+
1-
0#
#748000
0!
0"
0,
0+
0-
1#
#749000
1"
1+
#750000
1!
0"
1,
0+
#751000
1"
1+
1-
0#
#752000
0!
0"
0,
0+
0-
1#
#753000
1"
1+
#754000
1!
0"
1,
0+
#755000
1"
1+
1-
0#
#756000
0!
0"
0,
0+
0-
1#
#757000
1"
1+
#758000
1!
0"
1,
0+
#759000
1"
1+
1-
0#
#760000
0!
0"
0,
0+
0-
1#
#761000
1"
1+
#762000
1!
0"
1,
0+
#763000
1"
1+
1-
0#
#764000
0!
0"
0,
0+
0-
1#
#765000
1"
1+
#766000
1!
0"
1,
0+
#767000
1"
1+
1-
0#
#768000
0!
0"
0,
0+
0-
1#
#769000
1"
1+
#770000
1!
0"
1,
0+
#771000
1"
1+
1-
0#
#772000
0!
0"
0,
0+
0-
1#
#773000
1"
1+
#774000
1!
0"
1,
0+
#775000
1"
1+
1-
0#
#776000
0!
0"
0,
0+
0-
1#
#777000
1"
1+
#778000
1!
0"
1,
0+
#779000
1"
1+
1-
0#
#780000
0!
0"
0,
0+
0-
1#
#781000
1"
1+
#782000
1!
0"
1,
0+
#783000
1"
1+
1-
0#
#784000
0!
0"
0,
0+
0-
1#
#785000
1"
1+
#786000
1!
0"
1,
0+
#787000
1"
1+
1-
0#
#788000
0!
0"
0,
0+
0-
1#
#789000
1"
1+
#790000
1!
0"
1,
0+
#791000
1"
1+
1-
0#
#792000
0!
0"
0,
0+
0-
1#
#793000
1"
1+
#794000
1!
0"
1,
0+
#795000
1"
1+
1-
0#
#796000
0!
0"
0,
0+
0-
1#
#797000
1"
1+
#798000
1!
0"
1,
0+
#799000
1"
1+
1-
0#
#800000
0!
0"
0,
0+
0-
1#
#801000
1"
1+
#802000
1!
0"
1,
0+
#803000
1"
1+
1-
0#
#804000
0!
0"
0,
0+
0-
1#
#805000
1"
1+
#806000
1!
0"
1,
0+
#807000
1"
1+
1-
0#
#808000
0!
0"
0,
0+
0-
1#
#809000
1"
1+
#810000
1!
0"
1,
0+
#811000
1"
1+
1-
0#
#812000
0!
0"
0,
0+
0-
1#
#813000
1"
1+
#814000
1!
0"
1,
0+
#815000
1"
1+
1-
0#
#816000
0!
0"
0,
0+
0-
1#
#817000
1"
1+
#818000
1!
0"
1,
0+
#819000
1"
1+
1-
0#
#820000
0!
0"
0,
0+
0-
1#
#821000
1"
1+
#822000
1!
0"
1,
0+
#823000
1"
1+
1-
0#
#824000
0!
0"
0,
0+
0-
1#
#825000
1"
1+
#826000
1!
0"
1,
0+
#827000
1"
1+
1-
0#
#828000
0!
0"
0,
0+
0-
1#
#829000
1"
1+
#830000
1!
0"
1,
0+
#831000
1"
1+
1-
0#
#832000
0!
0"
0,
0+
0-
1#
#833000
1"
1+
#834000
1!
0"
1,
0+
#835000
1"
1+
1-
0#
#836000
0!
0"
0,
0+
0-
1#
#837000
1"
1+
#838000
1!
0"
1,
0+
#839000
1"
1+
1-
0#
#840000
0!
0"
0,
0+
0-
1#
#841000
1"
1+
#842000
1!
0"
1,
0+
#843000
1"
1+
1-
0#
#844000
0!
0"
0,
0+
0-
1#
#845000
1"
1+
#846000
1!
0"
1,
0+
#847000
1"
1+
1-
0#
#848000
0!
0"
0,
0+
0-
1#
#849000
1"
1+
#850000
1!
0"
1,
0+
#851000
1"
1+
1-
0#
#852000
0!
0"
0,
0+
0-
1#
#853000
1"
1+
#854000
1!
0"
1,
0+
#855000
1"
1+
1-
0#
#856000
0!
0"
0,
0+
0-
1#
#857000
1"
1+
#858000
1!
0"
1,
0+
#859000
1"
1+
1-
0#
#860000
0!
0"
0,
0+
0-
1#
#861000
1"
1+
#862000
1!
0"
1,
0+
#863000
1"
1+
1-
0#
#864000
0!
0"
0,
0+
0-
1#
#865000
1"
1+
#866000
1!
0"
1,
0+
#867000
1"
1+
1-
0#
#868000
0!
0"
0,
0+
0-
1#
#869000
1"
1+
#870000
1!
0"
1,
0+
#871000
1"
1+
1-
0#
#872000
0!
0"
0,
0+
0-
1#
#873000
1"
1+
#874000
1!
0"
1,
0+
#875000
1"
1+
1-
0#
#876000
0!
0"
0,
0+
0-
1#
#877000
1"
1+
#878000
1!
0"
1,
0+
#879000
1"
1+
1-
0#
#880000
0!
0"
0,
0+
0-
1#
#881000
1"
1+
#882000
1!
0"
1,
0+
#883000
1"
1+
1-
0#
#884000
0!
0"
0,
0+
0-
1#
#885000
1"
1+
#886000
1!
0"
1,
0+
#887000
1"
1+
1-
0#
#888000
0!
0"
0,
0+
0-
1#
#889000
1"
1+
#890000
1!
0"
1,
0+
#891000
1"
1+
1-
0#
#892000
0!
0"
0,
0+
0-
1#
#893000
1"
1+
#894000
1!
0"
1,
0+
#895000
1"
1+
1-
0#
#896000
0!
0"
0,
0+
0-
1#
#897000
1"
1+
#898000
1!
0"
1,
0+
#899000
1"
1+
1-
0#
#900000
0!
0"
0,
0+
0-
1#
#901000
1"
1+
#902000
1!
0"
1,
0+
#903000
1"
1+
1-
0#
#904000
0!
0"
0,
0+
0-
1#
#905000
1"
1+
#906000
1!
0"
1,
0+
#907000
1"
1+
1-
0#
#908000
0!
0"
0,
0+
0-
1#
#909000
1"
1+
#910000
1!
0"
1,
0+
