atividade_2_1/exercicio_2/simulation/qsim/exercicio_2.msim.vcd
$comment
	File created using the following command:
		vcd file exercicio_2.msim.vcd -direction
$end
$date
	Tue May 24 14:38:14 2022
$end
$version
	ModelSim Version 2020.1
$end
$timescale
	1ps
$end

$scope module exercicio_2_vhd_vec_tst $end
$var wire 1 ! b1 $end
$var wire 1 " b2 $end
$var wire 1 # b3 $end
$var wire 1 $ b4 $end
$var wire 1 % b5 $end
$var wire 1 & b6 $end
$var wire 1 ' b7 $end
$var wire 1 ( b8 $end
$var wire 1 ) c [7] $end
$var wire 1 * c [6] $end
$var wire 1 + c [5] $end
$var wire 1 , c [4] $end
$var wire 1 - c [3] $end
$var wire 1 . c [2] $end
$var wire 1 / c [1] $end
$var wire 1 0 c [0] $end

$scope module i1 $end
$var wire 1 1 gnd $end
$var wire 1 2 vcc $end
$var wire 1 3 unknown $end
$var wire 1 4 devoe $end
$var wire 1 5 devclrn $end
$var wire 1 6 devpor $end
$var wire 1 7 ww_devoe $end
$var wire 1 8 ww_devclrn $end
$var wire 1 9 ww_devpor $end
$var wire 1 : ww_b1 $end
$var wire 1 ; ww_b2 $end
$var wire 1 < ww_b3 $end
$var wire 1 = ww_b4 $end
$var wire 1 > ww_b5 $end
$var wire 1 ? ww_b6 $end
$var wire 1 @ ww_b7 $end
$var wire 1 A ww_b8 $end
$var wire 1 B ww_c [7] $end
$var wire 1 C ww_c [6] $end
$var wire 1 D ww_c [5] $end
$var wire 1 E ww_c [4] $end
$var wire 1 F ww_c [3] $end
$var wire 1 G ww_c [2] $end
$var wire 1 H ww_c [1] $end
$var wire 1 I ww_c [0] $end
$var wire 1 J \~QUARTUS_CREATED_GND~I_combout\ $end
$var wire 1 K \b2~input_o\ $end
$var wire 1 L \b6~input_o\ $end
$var wire 1 M \b4~input_o\ $end
$var wire 1 N \b7~input_o\ $end
$var wire 1 O \b5~input_o\ $end
$var wire 1 P \o[0]~0_combout\ $end
$var wire 1 Q \b8~input_o\ $end
$var wire 1 R \b3~input_o\ $end
$var wire 1 S \o[0]~1_combout\ $end
$var wire 1 T \b1~input_o\ $end
$var wire 1 U \comb~1_combout\ $end
$var wire 1 V \comb~0_combout\ $end
$var wire 1 W \o[1]~2_combout\ $end
$var wire 1 X \comb~2_combout\ $end
$var wire 1 Y \comb~3_combout\ $end
$var wire 1 Z \comb~5_combout\ $end
$var wire 1 [ \comb~4_combout\ $end
$var wire 1 \ \Equal3~0_combout\ $end
$var wire 1 ] o [2] $end
$var wire 1 ^ o [1] $end
$var wire 1 _ o [0] $end
$var wire 1 ` \ALT_INV_b1~input_o\ $end
$var wire 1 a \ALT_INV_b3~input_o\ $end
$var wire 1 b \ALT_INV_b2~input_o\ $end
$var wire 1 c \ALT_INV_b4~input_o\ $end
$var wire 1 d \ALT_INV_b5~input_o\ $end
$var wire 1 e \ALT_INV_b6~input_o\ $end
$var wire 1 f \ALT_INV_b7~input_o\ $end
$var wire 1 g \ALT_INV_b8~input_o\ $end
$var wire 1 h ALT_INV_o [2] $end
$var wire 1 i ALT_INV_o [1] $end
$var wire 1 j ALT_INV_o [0] $end
$var wire 1 k \ALT_INV_comb~5_combout\ $end
$var wire 1 l \ALT_INV_comb~4_combout\ $end
$var wire 1 m \ALT_INV_comb~3_combout\ $end
$var wire 1 n \ALT_INV_comb~2_combout\ $end
$var wire 1 o \ALT_INV_o[1]~2_combout\ $end
$var wire 1 p \ALT_INV_comb~1_combout\ $end
$var wire 1 q \ALT_INV_comb~0_combout\ $end
$var wire 1 r \ALT_INV_o[0]~1_combout\ $end
$var wire 1 s \ALT_INV_o[0]~0_combout\ $end
$upscope $end
$upscope $end
$enddefinitions $end
#0
$dumpvars
1!
0"
0#
0$
0%
0&
0'
0(
01
12
x3
14
15
16
17
18
19
1:
0;
0<
0=
0>
0?
0@
0A
xJ
0K
0L
0M
0N
0O
1P
0Q
0R
0S
1T
1U
0V
0W
1X
0Y
0Z
1[
0\
0`
1a
1b
1c
1d
1e
1f
1g
1k
0l
1m
0n
1o
0p
1q
1r
0s
0B
1C
0D
0E
0F
0G
0H
1I
0]
0^
1_
1h
1i
0j
0)
1*
0+
0,
0-
0.
0/
10
$end
#10000
0!
1"
0:
1;
1K
0T
1`
0b
0U
1V
0X
1Y
0m
1n
0q
1p
0_
1^
0i
1j
1H
0I
00
1/
#20000
0"
1#
0;
1<
1R
0K
1b
0a
1U
0V
1q
0p
1_
0j
1I
10
#30000
0#
1$
0<
1=
1M
0R
1a
0c
0P
0U
0Y
0[
1l
1m
1p
1s
1V
1X
1Z
0k
0n
0q
0_
0^
1]
0h
1i
1j
1G
0H
0I
00
0/
1.
#40000
0$
1%
0=
1>
1O
0M
1c
0d
1S
0r
1U
0V
1q
0p
1_
0j
1I
10
#50000
0%
1&
0>
1?
1L
0O
1d
0e
0S
1W
0o
1r
0U
1V
0X
1Y
0m
1n
0q
1p
0_
1^
0i
1j
1H
0I
00
1/
#60000
0&
1'
0?
1@
1N
0L
1e
0f
1S
0r
1U
0V
1q
0p
1_
0j
1I
10
#70000
0'
1(
0@
1A
1Q
0N
1f
0g
1P
0S
0W
1o
1r
0s
0Z
1[
0U
1V
1X
0Y
1m
0n
0q
1p
0l
1k
0]
0_
0^
1i
1j
1h
1\
0H
0I
0G
00
0/
0.
1F
1-
#80000
0(
0A
0Q
1g
0V
0X
0[
1l
1n
1q
