atividade_1_1/questao_2/simulation/qsim/questao_2.msim.vcd
$comment
	File created using the following command:
		vcd file questao_2.msim.vcd -direction
$end
$date
	Tue May 10 13:52:06 2022
$end
$version
	ModelSim Version 2020.1
$end
$timescale
	1ps
$end

$scope module questao_2_vlg_vec_tst $end
$var reg 4 ! a [0:3] $end
$var reg 4 " b [3:0] $end
$var wire 1 # c [7] $end
$var wire 1 $ c [6] $end
$var wire 1 % c [5] $end
$var wire 1 & c [4] $end
$var wire 1 ' c [3] $end
$var wire 1 ( c [2] $end
$var wire 1 ) c [1] $end
$var wire 1 * c [0] $end

$scope module i1 $end
$var wire 1 + gnd $end
$var wire 1 , vcc $end
$var wire 1 - unknown $end
$var tri1 1 . devclrn $end
$var tri1 1 / devpor $end
$var tri1 1 0 devoe $end
$var wire 1 1 ~QUARTUS_CREATED_GND~I_combout $end
$var wire 1 2 b[0]~input_o $end
$var wire 1 3 b[1]~input_o $end
$var wire 1 4 b[2]~input_o $end
$var wire 1 5 b[3]~input_o $end
$var wire 1 6 a[0]~input_o $end
$var wire 1 7 a[1]~input_o $end
$var wire 1 8 a[2]~input_o $end
$var wire 1 9 a[3]~input_o $end
$upscope $end
$upscope $end
$enddefinitions $end
#0
$dumpvars
b0 !
b0 "
0*
0)
0(
0'
0&
0%
0$
0#
0+
1,
x-
1.
1/
10
01
02
03
04
05
06
07
08
09
$end
#1000
b1 "
12
1*
#2000
b11 "
b10 "
02
13
1)
0*
#3000
b11 "
12
1*
#4000
b111 "
b101 "
b100 "
02
03
14
1(
0)
0*
#5000
b101 "
12
1*
#6000
b111 "
b110 "
02
13
1)
0*
#7000
b111 "
12
1*
#8000
b1111 "
b1011 "
b1001 "
b1000 "
02
03
04
15
1'
0(
0)
0*
#9000
b1001 "
12
1*
#10000
b1011 "
b1010 "
02
13
1)
0*
#11000
b1011 "
12
1*
#12000
b1111 "
b1101 "
b1100 "
02
03
14
1(
0)
0*
#13000
b1101 "
12
1*
#14000
b1111 "
b1110 "
02
13
1)
0*
#15000
b1111 "
12
1*
#16000
b1 !
b111 "
b11 "
b1 "
b0 "
02
03
04
05
19
1#
0'
0(
0)
0*
#17000
b1 "
12
1*
#18000
b11 "
b10 "
02
13
1)
0*
#19000
b11 "
12
1*
#20000
b111 "
b101 "
b100 "
02
03
14
1(
0)
0*
#21000
b101 "
12
1*
#22000
b111 "
b110 "
02
13
1)
0*
#23000
b111 "
12
1*
#24000
b1111 "
b1011 "
b1001 "
b1000 "
02
03
04
15
1'
0(
0)
0*
#25000
b1001 "
12
1*
#26000
b1011 "
b1010 "
02
13
1)
0*
#27000
b1011 "
12
1*
#28000
b1111 "
b1101 "
b1100 "
02
03
14
1(
0)
0*
#29000
b1101 "
12
1*
#30000
b1111 "
b1110 "
02
13
1)
0*
#31000
b1111 "
12
1*
#32000
b11 !
b10 !
b111 "
b11 "
b1 "
b0 "
02
03
04
05
09
18
1$
0#
0'
0(
0)
0*
#33000
b1 "
12
1*
#34000
b11 "
b10 "
02
13
1)
0*
#35000
b11 "
12
1*
#36000
b111 "
b101 "
b100 "
02
03
14
1(
0)
0*
#37000
b101 "
12
1*
#38000
b111 "
b110 "
02
13
1)
0*
#39000
b111 "
12
1*
#40000
b1111 "
b1011 "
b1001 "
b1000 "
02
03
04
15
1'
0(
0)
0*
#41000
b1001 "
12
1*
#42000
b1011 "
b1010 "
02
13
1)
0*
#43000
b1011 "
12
1*
#44000
b1111 "
b1101 "
b1100 "
02
03
14
1(
0)
0*
#45000
b1101 "
12
1*
#46000
b1111 "
b1110 "
02
13
1)
0*
#47000
b1111 "
12
1*
#48000
b11 !
b111 "
b11 "
b1 "
b0 "
02
03
04
05
19
1#
0'
0(
0)
0*
#49000
b1 "
12
1*
#50000
b11 "
b10 "
02
13
1)
0*
#51000
b11 "
12
1*
#52000
b111 "
b101 "
b100 "
02
03
14
1(
0)
0*
#53000
b101 "
12
1*
#54000
b111 "
b110 "
02
13
1)
0*
#55000
b111 "
12
1*
#56000
b1111 "
b1011 "
b1001 "
b1000 "
02
03
04
15
1'
0(
0)
0*
#57000
b1001 "
12
1*
#58000
b1011 "
b1010 "
02
13
1)
0*
#59000
b1011 "
12
1*
#60000
b1111 "
b1101 "
b1100 "
02
03
14
1(
0)
0*
#61000
b1101 "
12
1*
#62000
b1111 "
b1110 "
02
13
1)
0*
#63000
b1111 "
12
1*
#64000
b111 !
b101 !
b100 !
b111 "
b11 "
b1 "
b0 "
02
03
04
05
09
08
17
1%
0$
0#
0'
0(
0)
0*
#65000
b1 "
12
1*
#66000
b11 "
b10 "
02
13
1)
0*
#67000
b11 "
12
1*
#68000
b111 "
b101 "
b100 "
02
03
14
1(
0)
0*
#69000
b101 "
12
1*
#70000
b111 "
b110 "
02
13
1)
0*
#71000
b111 "
12
1*
#72000
b1111 "
b1011 "
b1001 "
b1000 "
02
03
04
15
1'
0(
0)
0*
#73000
b1001 "
12
1*
#74000
b1011 "
b1010 "
02
13
1)
0*
#75000
b1011 "
12
1*
#76000
b1111 "
b1101 "
b1100 "
02
03
14
1(
0)
0*
#77000
b1101 "
12
1*
#78000
b1111 "
b1110 "
02
13
1)
0*
#79000
b1111 "
12
1*
#80000
b101 !
b111 "
b11 "
b1 "
b0 "
02
03
04
05
19
1#
0'
0(
0)
0*
#81000
b1 "
12
1*
#82000
b11 "
b10 "
02
13
1)
0*
#83000
b11 "
12
1*
#84000
b111 "
b101 "
b100 "
02
03
14
1(
0)
0*
#85000
b101 "
12
1*
#86000
b111 "
b110 "
02
13
1)
0*
#87000
b111 "
12
1*
#88000
b1111 "
b1011 "
b1001 "
b1000 "
02
03
04
15
1'
0(
0)
0*
#89000
b1001 "
12
1*
#90000
b1011 "
b1010 "
02
13
1)
0*
#91000
b1011 "
12
1*
#92000
b1111 "
b1101 "
b1100 "
02
03
14
1(
0)
0*
#93000
b1101 "
12
1*
#94000
b1111 "
b1110 "
02
13
1)
0*
#95000
b1111 "
12
1*
#96000
b111 !
b110 !
b111 "
b11 "
b1 "
b0 "
02
03
04
05
09
18
1$
0#
0'
0(
0)
0*
#97000
b1 "
12
1*
#98000
b11 "
b10 "
02
13
1)
0*
#99000
b11 "
12
1*
#100000
b111 "
b101 "
b100 "
02
03
14
1(
0)
0*
#101000
b101 "
12
1*
#102000
b111 "
b110 "
02
13
1)
0*
#103000
b111 "
12
1*
#104000
b1111 "
b1011 "
b1001 "
b1000 "
02
03
04
15
1'
0(
0)
0*
#105000
b1001 "
12
1*
#106000
b1011 "
b1010 "
02
13
1)
0*
#107000
b1011 "
12
1*
#108000
b1111 "
b1101 "
b1100 "
02
03
14
1(
0)
0*
#109000
b1101 "
12
1*
#110000
b1111 "
b1110 "
02
13
1)
0*
#111000
b1111 "
12
1*
#112000
b111 !
b111 "
b11 "
b1 "
b0 "
02
03
04
05
19
1#
0'
0(
0)
0*
#113000
b1 "
12
1*
#114000
b11 "
b10 "
02
13
1)
0*
#115000
b11 "
12
1*
#116000
b111 "
b101 "
b100 "
02
03
14
1(
0)
0*
#117000
b101 "
12
1*
#118000
b111 "
b110 "
02
13
1)
0*
#119000
b111 "
12
1*
#120000
b1111 "
b1011 "
b1001 "
b1000 "
02
03
04
15
1'
0(
0)
0*
#121000
b1001 "
12
1*
#122000
b1011 "
b1010 "
02
13
1)
0*
#123000
b1011 "
12
1*
#124000
b1111 "
b1101 "
b1100 "
02
03
14
1(
0)
0*
#125000
b1101 "
12
1*
#126000
b1111 "
b1110 "
02
13
1)
0*
#127000
b1111 "
12
1*
#128000
b1111 !
b1011 !
b1001 !
b1000 !
b111 "
b11 "
b1 "
b0 "
02
03
04
05
09
08
07
16
1&
0%
0$
0#
0'
0(
0)
0*
#129000
b1 "
12
1*
#130000
b11 "
b10 "
02
13
1)
0*
#131000
b11 "
12
1*
#132000
b111 "
b101 "
b100 "
02
03
14
1(
0)
0*
#133000
b101 "
12
1*
#134000
b111 "
b110 "
02
13
1)
0*
#135000
b111 "
12
1*
#136000
b1111 "
b1011 "
b1001 "
b1000 "
02
03
04
15
1'
0(
0)
0*
#137000
b1001 "
12
1*
#138000
b1011 "
b1010 "
02
13
1)
0*
#139000
b1011 "
12
1*
#140000
b1111 "
b1101 "
b1100 "
02
03
14
1(
0)
0*
#141000
b1101 "
12
1*
#142000
b1111 "
b1110 "
02
13
1)
0*
#143000
b1111 "
12
1*
#144000
b1001 !
b111 "
b11 "
b1 "
b0 "
02
03
04
05
19
1#
0'
0(
0)
0*
#145000
b1 "
12
1*
#146000
b11 "
b10 "
02
13
1)
0*
#147000
b11 "
12
1*
#148000
b111 "
b101 "
b100 "
02
03
14
1(
0)
0*
#149000
b101 "
12
1*
#150000
b111 "
b110 "
02
13
1)
0*
#151000
b111 "
12
1*
#152000
b1111 "
b1011 "
b1001 "
b1000 "
02
03
04
15
1'
0(
0)
0*
#153000
b1001 "
12
1*
#154000
b1011 "
b1010 "
02
13
1)
0*
#155000
b1011 "
12
1*
#156000
b1111 "
b1101 "
b1100 "
02
03
14
1(
0)
0*
#157000
b1101 "
12
1*
#158000
b1111 "
b1110 "
02
13
1)
0*
#159000
b1111 "
12
1*
#160000
b1011 !
b1010 !
b111 "
b11 "
b1 "
b0 "
02
03
04
05
09
18
1$
0#
0'
0(
0)
0*
#161000
b1 "
12
1*
#162000
b11 "
b10 "
02
13
1)
0*
#163000
b11 "
12
1*
#164000
b111 "
b101 "
b100 "
02
03
14
1(
0)
0*
#165000
b101 "
12
1*
#166000
b111 "
b110 "
02
13
1)
0*
#167000
b111 "
12
1*
#168000
b1111 "
b1011 "
b1001 "
b1000 "
02
03
04
15
1'
0(
0)
0*
#169000
b1001 "
12
1*
#170000
b1011 "
b1010 "
02
13
1)
0*
#171000
b1011 "
12
1*
#172000
b1111 "
b1101 "
b1100 "
02
03
14
1(
0)
0*
#173000
b1101 "
12
1*
#174000
b1111 "
b1110 "
02
13
1)
0*
#175000
b1111 "
12
1*
#176000
b1011 !
b111 "
b11 "
b1 "
b0 "
02
03
04
05
19
1#
0'
0(
0)
0*
#177000
b1 "
12
1*
#178000
b11 "
b10 "
02
13
1)
0*
#179000
b11 "
12
1*
#180000
b111 "
b101 "
b100 "
02
03
14
1(
0)
0*
#181000
b101 "
12
1*
#182000
b111 "
b110 "
02
13
1)
0*
#183000
b111 "
12
1*
#184000
b1111 "
b1011 "
b1001 "
b1000 "
02
03
04
15
1'
0(
0)
0*
#185000
b1001 "
12
1*
#186000
b1011 "
b1010 "
02
13
1)
0*
#187000
b1011 "
12
1*
#188000
b1111 "
b1101 "
b1100 "
02
03
14
1(
0)
0*
#189000
b1101 "
12
1*
#190000
b1111 "
b1110 "
02
13
1)
0*
#191000
b1111 "
12
1*
#192000
b1111 !
b1101 !
b1100 !
b111 "
b11 "
b1 "
b0 "
02
03
04
05
09
08
17
1%
0$
0#
0'
0(
0)
0*
#193000
b1 "
12
1*
#194000
b11 "
b10 "
02
13
1)
0*
#195000
b11 "
12
1*
#196000
b111 "
b101 "
b100 "
02
03
14
1(
0)
0*
#197000
b101 "
12
1*
#198000
b111 "
b110 "
02
13
1)
0*
#199000
b111 "
12
1*
#200000
b1111 "
b1011 "
b1001 "
b1000 "
02
03
04
15
1'
0(
0)
0*
#201000
b1001 "
12
1*
#202000
b1011 "
b1010 "
02
13
1)
0*
#203000
b1011 "
12
1*
#204000
b1111 "
b1101 "
b1100 "
02
03
14
1(
0)
0*
#205000
b1101 "
12
1*
#206000
b1111 "
b1110 "
02
13
1)
0*
#207000
b1111 "
12
1*
#208000
b1101 !
b111 "
b11 "
b1 "
b0 "
02
03
04
05
19
1#
0'
0(
0)
0*
#209000
b1 "
12
1*
#210000
b11 "
b10 "
02
13
1)
0*
#211000
b11 "
12
1*
#212000
b111 "
b101 "
b100 "
02
03
14
1(
0)
0*
#213000
b101 "
12
1*
#214000
b111 "
b110 "
02
13
1)
0*
#215000
b111 "
12
1*
#216000
b1111 "
b1011 "
b1001 "
b1000 "
02
03
04
15
1'
0(
0)
0*
#217000
b1001 "
12
1*
#218000
b1011 "
b1010 "
02
13
1)
0*
#219000
b1011 "
12
1*
#220000
b1111 "
b1101 "
b1100 "
02
03
14
1(
0)
0*
#221000
b1101 "
12
1*
#222000
b1111 "
b1110 "
02
13
1)
0*
#223000
b1111 "
12
1*
#224000
b1111 !
b1110 !
b111 "
b11 "
b1 "
b0 "
02
03
04
05
09
18
1$
0#
0'
0(
0)
0*
#225000
b1 "
12
1*
#226000
b11 "
b10 "
02
13
1)
0*
#227000
b11 "
12
1*
#228000
b111 "
b101 "
b100 "
02
03
14
1(
0)
0*
#229000
b101 "
12
1*
#230000
b111 "
b110 "
02
13
1)
0*
#231000
b111 "
12
1*
#232000
b1111 "
b1011 "
b1001 "
b1000 "
02
03
04
15
1'
0(
0)
0*
#233000
b1001 "
12
1*
#234000
b1011 "
b1010 "
02
13
1)
0*
#235000
b1011 "
12
1*
#236000
b1111 "
b1101 "
b1100 "
02
03
14
1(
0)
0*
#237000
b1101 "
12
1*
#238000
b1111 "
b1110 "
02
13
1)
0*
#239000
b1111 "
12
1*
#240000
b1111 !
b111 "
b11 "
b1 "
b0 "
02
03
04
05
19
1#
0'
0(
0)
0*
#241000
b1 "
12
1*
#242000
b11 "
b10 "
02
13
1)
0*
#243000
b11 "
12
1*
#244000
b111 "
b101 "
b100 "
02
03
14
1(
0)
0*
#245000
b101 "
12
1*
#246000
b111 "
b110 "
02
13
1)
0*
#247000
b111 "
12
1*
#248000
b1111 "
b1011 "
b1001 "
b1000 "
02
03
04
15
1'
0(
0)
0*
#249000
b1001 "
12
1*
#250000
b1011 "
b1010 "
02
13
1)
0*
#251000
b1011 "
12
1*
#252000
b1111 "
b1101 "
b1100 "
02
03
14
1(
0)
0*
#253000
b1101 "
12
1*
#254000
b1111 "
b1110 "
02
13
1)
0*
#255000
b1111 "
12
1*
#256000
b111 !
b11 !
b1 !
b0 !
b111 "
b11 "
b1 "
b0 "
02
03
04
05
09
08
07
06
0&
0%
0$
0#
0'
0(
0)
0*
#257000
b1 "
12
1*
#258000
b11 "
b10 "
02
13
1)
0*
#259000
b11 "
12
1*
#260000
b111 "
b101 "
b100 "
02
03
14
1(
0)
0*
#261000
b101 "
12
1*
#262000
b111 "
b110 "
02
13
1)
0*
#263000
b111 "
12
1*
#264000
b1111 "
b1011 "
b1001 "
b1000 "
02
03
04
15
1'
0(
0)
0*
#265000
b1001 "
12
1*
#266000
b1011 "
b1010 "
02
13
1)
0*
#267000
b1011 "
12
1*
#268000
b1111 "
b1101 "
b1100 "
02
03
14
1(
0)
0*
#269000
b1101 "
12
1*
#270000
b1111 "
b1110 "
02
13
1)
0*
#271000
b1111 "
12
1*
#272000
b1 !
b111 "
b11 "
b1 "
b0 "
02
03
04
05
19
1#
0'
0(
0)
0*
#273000
b1 "
12
1*
#274000
b11 "
b10 "
02
13
1)
0*
#275000
b11 "
12
1*
#276000
b111 "
b101 "
b100 "
02
03
14
1(
0)
0*
#277000
b101 "
12
1*
#278000
b111 "
b110 "
02
13
1)
0*
#279000
b111 "
12
1*
#280000
b1111 "
b1011 "
b1001 "
b1000 "
02
03
04
15
1'
0(
0)
0*
#281000
b1001 "
12
1*
#282000
b1011 "
b1010 "
02
13
1)
0*
#283000
b1011 "
12
1*
#284000
b1111 "
b1101 "
b1100 "
02
03
14
1(
0)
0*
#285000
b1101 "
12
1*
#286000
b1111 "
b1110 "
02
13
1)
0*
#287000
b1111 "
12
1*
#288000
b11 !
b10 !
b111 "
b11 "
b1 "
b0 "
02
03
04
05
09
18
1$
0#
0'
0(
0)
0*
#289000
b1 "
12
1*
#290000
b11 "
b10 "
02
13
1)
0*
#291000
b11 "
12
1*
#292000
b111 "
b101 "
b100 "
02
03
14
1(
0)
0*
#293000
b101 "
12
1*
#294000
b111 "
b110 "
02
13
1)
0*
#295000
b111 "
12
1*
#296000
b1111 "
b1011 "
b1001 "
b1000 "
02
03
04
15
1'
0(
0)
0*
#297000
b1001 "
12
1*
#298000
b1011 "
b1010 "
02
13
1)
0*
#299000
b1011 "
12
1*
#300000
b1111 "
b1101 "
b1100 "
02
03
14
1(
0)
0*
#301000
b1101 "
12
1*
#302000
b1111 "
b1110 "
02
13
1)
0*
#303000
b1111 "
12
1*
#304000
b11 !
b111 "
b11 "
b1 "
b0 "
02
03
04
05
19
1#
0'
0(
0)
0*
#305000
b1 "
12
1*
#306000
b11 "
b10 "
02
13
1)
0*
#307000
b11 "
12
1*
#308000
b111 "
b101 "
b100 "
02
03
14
1(
0)
0*
#309000
b101 "
12
1*
#310000
b111 "
b110 "
02
13
1)
0*
#311000
b111 "
12
1*
#312000
b1111 "
b1011 "
b1001 "
b1000 "
02
03
04
15
1'
0(
0)
0*
#313000
b1001 "
12
1*
#314000
b1011 "
b1010 "
02
13
1)
0*
#315000
b1011 "
12
1*
#316000
b1111 "
b1101 "
b1100 "
02
03
14
1(
0)
0*
#317000
b1101 "
12
1*
#318000
b1111 "
b1110 "
02
13
1)
0*
#319000
b1111 "
12
1*
#320000
b111 !
b101 !
b100 !
b111 "
b11 "
b1 "
b0 "
02
03
04
05
09
08
17
1%
0$
0#
0'
0(
0)
0*
#321000
b1 "
12
1*
#322000
b11 "
b10 "
02
13
1)
0*
#323000
b11 "
12
1*
#324000
b111 "
b101 "
b100 "
02
03
14
1(
0)
0*
#325000
b101 "
12
1*
#326000
b111 "
b110 "
02
13
1)
0*
#327000
b111 "
12
1*
#328000
b1111 "
b1011 "
b1001 "
b1000 "
02
03
04
15
1'
0(
0)
0*
#329000
b1001 "
12
1*
#330000
b1011 "
b1010 "
02
13
1)
0*
#331000
b1011 "
12
1*
#332000
b1111 "
b1101 "
b1100 "
02
03
14
1(
0)
0*
#333000
b1101 "
12
1*
#334000
b1111 "
b1110 "
02
13
1)
0*
#335000
b1111 "
12
1*
#336000
b101 !
b111 "
b11 "
b1 "
b0 "
02
03
04
05
19
1#
0'
0(
0)
0*
#337000
b1 "
12
1*
#338000
b11 "
b10 "
02
13
1)
0*
#339000
b11 "
12
1*
#340000
b111 "
b101 "
b100 "
02
03
14
1(
0)
0*
#341000
b101 "
12
1*
#342000
b111 "
b110 "
02
13
1)
0*
#343000
b111 "
12
1*
#344000
b1111 "
b1011 "
b1001 "
b1000 "
02
03
04
15
1'
0(
0)
0*
#345000
b1001 "
12
1*
#346000
b1011 "
b1010 "
02
13
1)
0*
#347000
b1011 "
12
1*
#348000
b1111 "
b1101 "
b1100 "
02
03
14
1(
0)
0*
#349000
b1101 "
12
1*
#350000
b1111 "
b1110 "
02
13
1)
0*
#351000
b1111 "
12
1*
#352000
b111 !
b110 !
b111 "
b11 "
b1 "
b0 "
02
03
04
05
09
18
1$
0#
0'
0(
0)
0*
#353000
b1 "
12
1*
#354000
b11 "
b10 "
02
13
1)
0*
#355000
b11 "
12
1*
#356000
b111 "
b101 "
b100 "
02
03
14
1(
0)
0*
#357000
b101 "
12
1*
#358000
b111 "
b110 "
02
13
1)
0*
#359000
b111 "
12
1*
#360000
b1111 "
b1011 "
b1001 "
b1000 "
02
03
04
15
1'
0(
0)
0*
#361000
b1001 "
12
1*
#362000
b1011 "
b1010 "
02
13
1)
0*
#363000
b1011 "
12
1*
#364000
b1111 "
b1101 "
b1100 "
02
03
14
1(
0)
0*
#365000
b1101 "
12
1*
#366000
b1111 "
b1110 "
02
13
1)
0*
#367000
b1111 "
12
1*
#368000
b111 !
b111 "
b11 "
b1 "
b0 "
02
03
04
05
19
1#
0'
0(
0)
0*
#369000
b1 "
12
1*
#370000
b11 "
b10 "
02
13
1)
0*
#371000
b11 "
12
1*
#372000
b111 "
b101 "
b100 "
02
03
14
1(
0)
0*
#373000
b101 "
12
1*
#374000
b111 "
b110 "
02
13
1)
0*
#375000
b111 "
12
1*
#376000
b1111 "
b1011 "
b1001 "
b1000 "
02
03
04
15
1'
0(
0)
0*
#377000
b1001 "
12
1*
#378000
b1011 "
b1010 "
02
13
1)
0*
#379000
b1011 "
12
1*
#380000
b1111 "
b1101 "
b1100 "
02
03
14
1(
0)
0*
#381000
b1101 "
12
1*
#382000
b1111 "
b1110 "
02
13
1)
0*
#383000
b1111 "
12
1*
#384000
b1111 !
b1011 !
b1001 !
b1000 !
b111 "
b11 "
b1 "
b0 "
02
03
04
05
09
08
07
16
1&
0%
0$
0#
0'
0(
0)
0*
#385000
b1 "
12
1*
#386000
b11 "
b10 "
02
13
1)
0*
#387000
b11 "
12
1*
#388000
b111 "
b101 "
b100 "
02
03
14
1(
0)
0*
#389000
b101 "
12
1*
#390000
b111 "
b110 "
02
13
1)
0*
#391000
b111 "
12
1*
#392000
b1111 "
b1011 "
b1001 "
b1000 "
02
03
04
15
1'
0(
0)
0*
#393000
b1001 "
12
1*
#394000
b1011 "
b1010 "
02
13
1)
0*
#395000
b1011 "
12
1*
#396000
b1111 "
b1101 "
b1100 "
02
03
14
1(
0)
0*
#397000
b1101 "
12
1*
#398000
b1111 "
b1110 "
02
13
1)
0*
#399000
b1111 "
12
1*
#400000
b1001 !
b111 "
b11 "
b1 "
b0 "
02
03
04
05
19
1#
0'
0(
0)
0*
#401000
b1 "
12
1*
#402000
b11 "
b10 "
02
13
1)
0*
#403000
b11 "
12
1*
#404000
b111 "
b101 "
b100 "
02
03
14
1(
0)
0*
#405000
b101 "
12
1*
#406000
b111 "
b110 "
02
13
1)
0*
#407000
b111 "
12
1*
#408000
b1111 "
b1011 "
b1001 "
b1000 "
02
03
04
15
1'
0(
0)
0*
#409000
b1001 "
12
1*
#410000
b1011 "
b1010 "
02
13
1)
0*
#411000
b1011 "
12
1*
#412000
b1111 "
b1101 "
b1100 "
02
03
14
1(
0)
0*
#413000
b1101 "
12
1*
#414000
b1111 "
b1110 "
02
13
1)
0*
#415000
b1111 "
12
1*
#416000
b1011 !
b1010 !
b111 "
b11 "
b1 "
b0 "
02
03
04
05
09
18
1$
0#
0'
0(
0)
0*
#417000
b1 "
12
1*
#418000
b11 "
b10 "
02
13
1)
0*
#419000
b11 "
12
1*
#420000
b111 "
b101 "
b100 "
02
03
14
1(
0)
0*
#421000
b101 "
12
1*
#422000
b111 "
b110 "
02
13
1)
0*
#423000
b111 "
12
1*
#424000
b1111 "
b1011 "
b1001 "
b1000 "
02
03
04
15
1'
0(
0)
0*
#425000
b1001 "
12
1*
#426000
b1011 "
b1010 "
02
13
1)
0*
#427000
b1011 "
12
1*
#428000
b1111 "
b1101 "
b1100 "
02
03
14
1(
0)
0*
#429000
b1101 "
12
1*
#430000
b1111 "
b1110 "
02
13
1)
0*
#431000
b1111 "
12
1*
#432000
b1011 !
b111 "
b11 "
b1 "
b0 "
02
03
04
05
19
1#
0'
0(
0)
0*
#433000
b1 "
12
1*
#434000
b11 "
b10 "
02
13
1)
0*
#435000
b11 "
12
1*
#436000
b111 "
b101 "
b100 "
02
03
14
1(
0)
0*
#437000
b101 "
12
1*
#438000
b111 "
b110 "
02
13
1)
0*
#439000
b111 "
12
1*
#440000
b1111 "
b1011 "
b1001 "
b1000 "
02
03
04
15
1'
0(
0)
0*
#441000
b1001 "
12
1*
#442000
b1011 "
b1010 "
02
13
1)
0*
#443000
b1011 "
12
1*
#444000
b1111 "
b1101 "
b1100 "
02
03
14
1(
0)
0*
#445000
b1101 "
12
1*
#446000
b1111 "
b1110 "
02
13
1)
0*
#447000
b1111 "
12
1*
#448000
b1111 !
b1101 !
b1100 !
b111 "
b11 "
b1 "
b0 "
02
03
04
05
09
08
17
1%
0$
0#
0'
0(
0)
0*
#449000
b1 "
12
1*
#450000
b11 "
b10 "
02
13
1)
0*
#451000
b11 "
12
1*
#452000
b111 "
b101 "
b100 "
02
03
14
1(
0)
0*
#453000
b101 "
12
1*
#454000
b111 "
b110 "
02
13
1)
0*
#455000
b111 "
12
1*
#456000
b1111 "
b1011 "
b1001 "
b1000 "
02
03
04
15
1'
0(
0)
0*
#457000
b1001 "
12
1*
#458000
b1011 "
b1010 "
02
13
1)
0*
#459000
b1011 "
12
1*
#460000
b1111 "
b1101 "
b1100 "
02
03
14
1(
0)
0*
#461000
b1101 "
12
1*
#462000
b1111 "
b1110 "
02
13
1)
0*
#463000
b1111 "
12
1*
#464000
b1101 !
b111 "
b11 "
b1 "
b0 "
02
03
04
05
19
1#
0'
0(
0)
0*
#465000
b1 "
12
1*
#466000
b11 "
b10 "
02
13
1)
0*
#467000
b11 "
12
1*
#468000
b111 "
b101 "
b100 "
02
03
14
1(
0)
0*
#469000
b101 "
12
1*
#470000
b111 "
b110 "
02
13
1)
0*
#471000
b111 "
12
1*
#472000
b1111 "
b1011 "
b1001 "
b1000 "
02
03
04
15
1'
0(
0)
0*
#473000
b1001 "
12
1*
#474000
b1011 "
b1010 "
02
13
1)
0*
#475000
b1011 "
12
1*
#476000
b1111 "
b1101 "
b1100 "
02
03
14
1(
0)
0*
#477000
b1101 "
12
1*
#478000
b1111 "
b1110 "
02
13
1)
0*
#479000
b1111 "
12
1*
#480000
b1111 !
b1110 !
b111 "
b11 "
b1 "
b0 "
02
03
04
05
09
18
1$
0#
0'
0(
0)
0*
#481000
b1 "
12
1*
#482000
b11 "
b10 "
02
13
1)
0*
#483000
b11 "
12
1*
#484000
b111 "
b101 "
b100 "
02
03
14
1(
0)
0*
#485000
b101 "
12
1*
#486000
b111 "
b110 "
02
13
1)
0*
#487000
b111 "
12
1*
#488000
b1111 "
b1011 "
b1001 "
b1000 "
02
03
04
15
1'
0(
0)
0*
#489000
b1001 "
12
1*
#490000
b1011 "
b1010 "
02
13
1)
0*
#491000
b1011 "
12
1*
#492000
b1111 "
b1101 "
b1100 "
02
03
14
1(
0)
0*
#493000
b1101 "
12
1*
#494000
b1111 "
b1110 "
02
13
1)
0*
#495000
b1111 "
12
1*
#496000
b1111 !
b111 "
b11 "
b1 "
b0 "
02
03
04
05
19
1#
0'
0(
0)
0*
#497000
b1 "
12
1*
#498000
b11 "
b10 "
02
13
1)
0*
#499000
b11 "
12
1*
#500000
b111 "
b101 "
b100 "
02
03
14
1(
0)
0*
#501000
b101 "
12
1*
#502000
b111 "
b110 "
02
13
1)
0*
#503000
b111 "
12
1*
#504000
b1111 "
b1011 "
b1001 "
b1000 "
02
03
04
15
1'
0(
0)
0*
#505000
b1001 "
12
1*
#506000
b1011 "
b1010 "
02
13
1)
0*
#507000
b1011 "
12
1*
#508000
b1111 "
b1101 "
b1100 "
02
03
14
1(
0)
0*
#509000
b1101 "
12
1*
#510000
b1111 "
b1110 "
02
13
1)
0*
#511000
b1111 "
12
1*
#512000
b111 !
b11 !
b1 !
b0 !
b111 "
b11 "
b1 "
b0 "
02
03
04
05
09
08
07
06
0&
0%
0$
0#
0'
0(
0)
0*
#513000
b1 "
12
1*
#514000
b11 "
b10 "
02
13
1)
0*
#515000
b11 "
12
1*
#516000
b111 "
b101 "
b100 "
02
03
14
1(
0)
0*
#517000
b101 "
12
1*
#518000
b111 "
b110 "
02
13
1)
0*
#519000
b111 "
12
1*
#520000
b1111 "
b1011 "
b1001 "
b1000 "
02
03
04
15
1'
0(
0)
0*
#521000
b1001 "
12
1*
#522000
b1011 "
b1010 "
02
13
1)
0*
#523000
b1011 "
12
1*
#524000
b1111 "
b1101 "
b1100 "
02
03
14
1(
0)
0*
#525000
b1101 "
12
1*
#526000
b1111 "
b1110 "
02
13
1)
0*
#527000
b1111 "
12
1*
#528000
b1 !
b111 "
b11 "
b1 "
b0 "
02
03
04
05
19
1#
0'
0(
0)
0*
#529000
b1 "
12
1*
#530000
b11 "
b10 "
02
13
1)
0*
#531000
b11 "
12
1*
#532000
b111 "
b101 "
b100 "
02
03
14
1(
0)
0*
#533000
b101 "
12
1*
#534000
b111 "
b110 "
02
13
1)
0*
#535000
b111 "
12
1*
#536000
b1111 "
b1011 "
b1001 "
b1000 "
02
03
04
15
1'
0(
0)
0*
#537000
b1001 "
12
1*
#538000
b1011 "
b1010 "
02
13
1)
0*
#539000
b1011 "
12
1*
#540000
b1111 "
b1101 "
b1100 "
02
03
14
1(
0)
0*
#541000
b1101 "
12
1*
#542000
b1111 "
b1110 "
02
13
1)
0*
#543000
b1111 "
12
1*
#544000
b11 !
b10 !
b111 "
b11 "
b1 "
b0 "
02
03
04
05
09
18
1$
0#
0'
0(
0)
0*
#545000
b1 "
12
1*
#546000
b11 "
b10 "
02
13
1)
0*
#547000
b11 "
12
1*
#548000
b111 "
b101 "
b100 "
02
03
14
1(
0)
0*
#549000
b101 "
12
1*
#550000
b111 "
b110 "
02
13
1)
0*
#551000
b111 "
12
1*
#552000
b1111 "
b1011 "
b1001 "
b1000 "
02
03
04
15
1'
0(
0)
0*
#553000
b1001 "
12
1*
#554000
b1011 "
b1010 "
02
13
1)
0*
#555000
b1011 "
12
1*
#556000
b1111 "
b1101 "
b1100 "
02
03
14
1(
0)
0*
#557000
b1101 "
12
1*
#558000
b1111 "
b1110 "
02
13
1)
0*
#559000
b1111 "
12
1*
#560000
b11 !
b111 "
b11 "
b1 "
b0 "
02
03
04
05
19
1#
0'
0(
0)
0*
#561000
b1 "
12
1*
#562000
b11 "
b10 "
02
13
1)
0*
#563000
b11 "
12
1*
#564000
b111 "
b101 "
b100 "
02
03
14
1(
0)
0*
#565000
b101 "
12
1*
#566000
b111 "
b110 "
02
13
1)
0*
#567000
b111 "
12
1*
#568000
b1111 "
b1011 "
b1001 "
b1000 "
02
03
04
15
1'
0(
0)
0*
#569000
b1001 "
12
1*
#570000
b1011 "
b1010 "
02
13
1)
0*
#571000
b1011 "
12
1*
#572000
b1111 "
b1101 "
b1100 "
02
03
14
1(
0)
0*
#573000
b1101 "
12
1*
#574000
b1111 "
b1110 "
02
13
1)
0*
#575000
b1111 "
12
1*
