atividade_1_2/questao_1_b/simulation/qsim/questao1b.msim.vcd
$comment
	File created using the following command:
		vcd file questao1b.msim.vcd -direction
$end
$date
	Tue May 10 18:43:16 2022
$end
$version
	ModelSim Version 2020.1
$end
$timescale
	1ps
$end

$scope module questao1b_vlg_vec_tst $end
$var reg 1 ! a $end
$var reg 1 " b $end
$var wire 1 # s $end

$scope module i1 $end
$var wire 1 $ gnd $end
$var wire 1 % vcc $end
$var wire 1 & unknown $end
$var tri1 1 ' devclrn $end
$var tri1 1 ( devpor $end
$var tri1 1 ) devoe $end
$var wire 1 * s~output_o $end
$var wire 1 + b~input_o $end
$var wire 1 , a~input_o $end
$var wire 1 - s~0_combout $end
$upscope $end
$upscope $end
$enddefinitions $end
#0
$dumpvars
0!
0"
1#
0$
1%
x&
1'
1(
1)
1*
0+
0,
0-
$end
#100000
1!
1,
#200000
1"
0!
1+
0,
#300000
1!
1,
1-
0*
0#
#400000
0"
0!
0+
0,
0-
1*
1#
#500000
1!
1,
#600000
1"
0!
1+
0,
#700000
1!
1,
1-
0*
0#
#800000
0"
0!
0+
0,
0-
1*
1#
#900000
1!
1,
