atividade_2_1/exercicio_1_c/simulation/qsim/exercicio_1_c.msim.vcd
$comment
	File created using the following command:
		vcd file exercicio_1_c.msim.vcd -direction
$end
$date
	Tue May 24 14:06:14 2022
$end
$version
	ModelSim Version 2020.1
$end
$timescale
	1ps
$end

$scope module exercicio_1_c_vhd_vec_tst $end
$var wire 1 ! a [1] $end
$var wire 1 " a [0] $end
$var wire 1 # b [1] $end
$var wire 1 $ b [0] $end
$var wire 1 % c [1] $end
$var wire 1 & c [0] $end
$var wire 1 ' d [1] $end
$var wire 1 ( d [0] $end
$var wire 1 ) i [1] $end
$var wire 1 * i [0] $end
$var wire 1 + s [1] $end
$var wire 1 , s [0] $end

$scope module i1 $end
$var wire 1 - gnd $end
$var wire 1 . vcc $end
$var wire 1 / unknown $end
$var wire 1 0 devoe $end
$var wire 1 1 devclrn $end
$var wire 1 2 devpor $end
$var wire 1 3 ww_devoe $end
$var wire 1 4 ww_devclrn $end
$var wire 1 5 ww_devpor $end
$var wire 1 6 ww_i [1] $end
$var wire 1 7 ww_i [0] $end
$var wire 1 8 ww_s [1] $end
$var wire 1 9 ww_s [0] $end
$var wire 1 : ww_a [1] $end
$var wire 1 ; ww_a [0] $end
$var wire 1 < ww_b [1] $end
$var wire 1 = ww_b [0] $end
$var wire 1 > ww_c [1] $end
$var wire 1 ? ww_c [0] $end
$var wire 1 @ ww_d [1] $end
$var wire 1 A ww_d [0] $end
$var wire 1 B \~QUARTUS_CREATED_GND~I_combout\ $end
$var wire 1 C \i[0]~input_o\ $end
$var wire 1 D \s[0]~input_o\ $end
$var wire 1 E \s[1]~input_o\ $end
$var wire 1 F \a~0_combout\ $end
$var wire 1 G \i[1]~input_o\ $end
$var wire 1 H \a~1_combout\ $end
$var wire 1 I \b~0_combout\ $end
$var wire 1 J \b~1_combout\ $end
$var wire 1 K \c~0_combout\ $end
$var wire 1 L \c~1_combout\ $end
$var wire 1 M \d~0_combout\ $end
$var wire 1 N \d~1_combout\ $end
$var wire 1 O \ALT_INV_s[0]~input_o\ $end
$var wire 1 P \ALT_INV_i[0]~input_o\ $end
$var wire 1 Q \ALT_INV_s[1]~input_o\ $end
$var wire 1 R \ALT_INV_i[1]~input_o\ $end
$upscope $end
$upscope $end
$enddefinitions $end
#0
$dumpvars
0-
1.
x/
10
11
12
13
14
15
xB
1C
0D
0E
1F
1G
1H
0I
0J
0K
0L
0M
0N
1O
0P
1Q
0R
1)
1*
0+
0,
1!
1"
0#
0$
0%
0&
0'
0(
16
17
08
09
1:
1;
0<
0=
0>
0?
0@
0A
$end
#10000
1,
19
1D
0O
0F
0H
1I
1J
1<
1=
0:
0;
1$
1#
0"
0!
#20000
0,
1+
09
18
1E
0D
1O
0Q
0I
0J
1K
1L
1>
1?
0<
0=
1&
1%
0$
0#
#30000
1,
19
1D
0O
0K
0L
1M
1N
1@
1A
0>
0?
1(
1'
0&
0%
#40000
0,
0+
09
08
0E
0D
1O
1Q
1F
1H
0M
0N
0@
0A
1:
1;
0(
0'
1"
1!
#50000
1,
19
1D
0O
0F
0H
1I
1J
1<
1=
0:
0;
1$
1#
0"
0!
#60000
0,
1+
09
18
1E
0D
1O
0Q
0I
0J
1K
1L
1>
1?
0<
0=
1&
1%
0$
0#
#70000
1,
19
1D
0O
0K
0L
1M
1N
1@
1A
0>
0?
1(
1'
0&
0%
#80000
0,
0+
09
08
0E
0D
1O
1Q
1F
1H
0M
0N
0@
0A
1:
1;
0(
0'
1"
1!
#90000
1,
19
1D
0O
0F
0H
1I
1J
1<
1=
0:
0;
1$
1#
0"
0!
#100000
0,
1+
09
18
1E
0D
1O
0Q
0I
0J
1K
1L
1>
1?
0<
0=
1&
1%
0$
0#
#110000
1,
19
1D
0O
0K
0L
1M
1N
1@
1A
0>
0?
1(
1'
0&
0%
#120000
0,
0+
09
08
0E
0D
1O
1Q
1F
1H
0M
0N
0@
0A
1:
1;
0(
0'
1"
1!
#130000
1,
19
1D
0O
0F
0H
1I
1J
1<
1=
0:
0;
1$
1#
0"
0!
#140000
0,
1+
09
18
1E
0D
1O
0Q
0I
0J
1K
1L
1>
1?
0<
0=
1&
1%
0$
0#
#150000
1,
19
1D
0O
0K
0L
1M
1N
1@
1A
0>
0?
1(
1'
0&
0%
#160000
0,
0+
09
08
0E
0D
1O
1Q
1F
1H
0M
0N
0@
0A
1:
1;
0(
0'
1"
1!
#170000
1,
19
1D
0O
0F
0H
1I
1J
1<
1=
0:
0;
1$
1#
0"
0!
#180000
0,
1+
09
18
1E
0D
1O
0Q
0I
0J
1K
1L
1>
1?
0<
0=
1&
1%
0$
0#
#190000
1,
19
1D
0O
0K
0L
1M
1N
1@
1A
0>
0?
1(
1'
0&
0%
#200000
0,
0+
09
08
0E
0D
1O
1Q
1F
1H
0M
0N
0@
0A
1:
1;
0(
0'
1"
1!
#210000
1,
19
1D
0O
0F
0H
1I
1J
1<
1=
0:
0;
1$
1#
0"
0!
#220000
0,
1+
09
18
1E
0D
1O
0Q
0I
0J
1K
1L
1>
1?
0<
0=
1&
1%
0$
0#
#230000
1,
19
1D
0O
0K
0L
1M
1N
1@
1A
0>
0?
1(
1'
0&
0%
#240000
0,
0+
09
08
0E
0D
1O
1Q
1F
1H
0M
0N
0@
0A
1:
1;
0(
0'
1"
1!
#250000
1,
19
1D
0O
0F
0H
1I
1J
1<
1=
0:
0;
1$
1#
0"
0!
#260000
0,
1+
09
18
1E
0D
1O
0Q
0I
0J
1K
1L
1>
1?
0<
0=
1&
1%
0$
0#
#270000
1,
19
1D
0O
0K
0L
1M
1N
1@
1A
0>
0?
1(
1'
0&
0%
#280000
0,
0+
09
08
0E
0D
1O
1Q
1F
1H
0M
0N
0@
0A
1:
1;
0(
0'
1"
1!
#290000
1,
19
1D
0O
0F
0H
1I
1J
1<
1=
0:
0;
1$
1#
0"
0!
#300000
0,
1+
09
18
1E
0D
1O
0Q
0I
0J
1K
1L
1>
1?
0<
0=
1&
1%
0$
0#
#310000
1,
19
1D
0O
0K
0L
1M
1N
1@
1A
0>
0?
1(
1'
0&
0%
#320000
0,
0+
09
08
0E
0D
1O
1Q
1F
1H
0M
0N
0@
0A
1:
1;
0(
0'
1"
1!
#330000
1,
19
1D
0O
0F
0H
1I
1J
1<
1=
0:
0;
1$
1#
0"
0!
#340000
0,
1+
09
18
1E
0D
1O
0Q
0I
0J
1K
1L
1>
1?
0<
0=
1&
1%
0$
0#
#350000
1,
19
1D
0O
0K
0L
1M
1N
1@
1A
0>
0?
1(
1'
0&
0%
#360000
0,
0+
09
08
0E
0D
1O
1Q
1F
1H
0M
0N
0@
0A
1:
1;
0(
0'
1"
1!
#370000
1,
19
1D
0O
0F
0H
1I
1J
1<
1=
0:
0;
1$
1#
0"
0!
#380000
0,
1+
09
18
1E
0D
1O
0Q
0I
0J
1K
1L
1>
1?
0<
0=
1&
1%
0$
0#
#390000
1,
19
1D
0O
0K
0L
1M
1N
1@
1A
0>
0?
1(
1'
0&
0%
#400000
0,
0+
09
08
0E
0D
1O
1Q
1F
1H
0M
0N
0@
0A
1:
1;
0(
0'
1"
1!
#410000
1,
19
1D
0O
0F
0H
1I
1J
1<
1=
0:
0;
1$
1#
0"
0!
#420000
0,
1+
09
18
1E
0D
1O
0Q
0I
0J
1K
1L
1>
1?
0<
0=
1&
1%
0$
0#
#430000
1,
19
1D
0O
0K
0L
1M
1N
1@
1A
0>
0?
1(
1'
0&
0%
#440000
0,
0+
09
08
0E
0D
1O
1Q
1F
1H
0M
0N
0@
0A
1:
1;
0(
0'
1"
1!
#450000
1,
19
1D
0O
0F
0H
1I
1J
1<
1=
0:
0;
1$
1#
0"
0!
#460000
0,
1+
09
18
1E
0D
1O
0Q
0I
0J
1K
1L
1>
1?
0<
0=
1&
1%
0$
0#
#470000
1,
19
1D
0O
0K
0L
1M
1N
1@
1A
0>
0?
1(
1'
0&
0%
#480000
0,
0+
09
08
0E
0D
1O
1Q
1F
1H
0M
0N
0@
0A
1:
1;
0(
0'
1"
1!
#490000
1,
19
1D
0O
0F
0H
1I
1J
1<
1=
0:
0;
1$
1#
0"
0!
#500000
0,
1+
09
18
1E
0D
1O
0Q
0I
0J
1K
1L
1>
1?
0<
0=
1&
1%
0$
0#
#510000
1,
19
1D
0O
0K
0L
1M
1N
1@
1A
0>
0?
1(
1'
0&
0%
#520000
0,
0+
09
08
0E
0D
1O
1Q
1F
1H
0M
0N
0@
0A
1:
1;
0(
0'
1"
1!
#530000
1,
19
1D
0O
0F
0H
1I
1J
1<
1=
0:
0;
1$
1#
0"
0!
#540000
0,
1+
09
18
1E
0D
1O
0Q
0I
0J
1K
1L
1>
1?
0<
0=
1&
1%
0$
0#
#550000
1,
19
1D
0O
0K
0L
1M
1N
1@
1A
0>
0?
1(
1'
0&
0%
#560000
0,
0+
09
08
0E
0D
1O
1Q
1F
1H
0M
0N
0@
0A
1:
1;
0(
0'
1"
1!
#570000
1,
19
1D
0O
0F
0H
1I
1J
1<
1=
0:
0;
1$
1#
0"
0!
#580000
0,
1+
09
18
1E
0D
1O
0Q
0I
0J
1K
1L
1>
1?
0<
0=
1&
1%
0$
0#
#590000
1,
19
1D
0O
0K
0L
1M
1N
1@
1A
0>
0?
1(
1'
0&
0%
#600000
0,
0+
09
08
0E
0D
1O
1Q
1F
1H
0M
0N
0@
0A
1:
1;
0(
0'
1"
1!
#610000
1,
19
1D
0O
0F
0H
1I
1J
1<
1=
0:
0;
1$
1#
0"
0!
#620000
0,
1+
09
18
1E
0D
1O
0Q
0I
0J
1K
1L
1>
1?
0<
0=
1&
1%
0$
0#
#630000
1,
19
1D
0O
0K
0L
1M
1N
1@
1A
0>
0?
1(
1'
0&
0%
#640000
0,
0+
09
08
0E
0D
1O
1Q
1F
1H
0M
0N
0@
0A
1:
1;
0(
0'
1"
1!
#650000
1,
19
1D
0O
0F
0H
1I
1J
1<
1=
0:
0;
1$
1#
0"
0!
#660000
0,
1+
09
18
1E
0D
1O
0Q
0I
0J
1K
1L
1>
1?
0<
0=
1&
1%
0$
0#
#670000
1,
19
1D
0O
0K
0L
1M
1N
1@
1A
0>
0?
1(
1'
0&
0%
#680000
0,
0+
09
08
0E
0D
1O
1Q
1F
1H
0M
0N
0@
0A
1:
1;
0(
0'
1"
1!
#690000
1,
19
1D
0O
0F
0H
1I
1J
1<
1=
0:
0;
1$
1#
0"
0!
#700000
0,
1+
09
18
1E
0D
1O
0Q
0I
0J
1K
1L
1>
1?
0<
0=
1&
1%
0$
0#
#710000
1,
19
1D
0O
0K
0L
1M
1N
1@
1A
0>
0?
1(
1'
0&
0%
#720000
0,
0+
09
08
0E
0D
1O
1Q
1F
1H
0M
0N
0@
0A
1:
1;
0(
0'
1"
1!
#730000
1,
19
1D
0O
0F
0H
1I
1J
1<
1=
0:
0;
1$
1#
0"
0!
#740000
0,
1+
09
18
1E
0D
1O
0Q
0I
0J
1K
1L
1>
1?
0<
0=
1&
1%
0$
0#
#750000
1,
19
1D
0O
0K
0L
1M
1N
1@
1A
0>
0?
1(
1'
0&
0%
#760000
0,
0+
09
08
0E
0D
1O
1Q
1F
1H
0M
0N
0@
0A
1:
1;
0(
0'
1"
1!
#770000
1,
19
1D
0O
0F
0H
1I
1J
1<
1=
0:
0;
1$
1#
0"
0!
#780000
0,
1+
09
18
1E
0D
1O
0Q
0I
0J
1K
1L
1>
1?
0<
0=
1&
1%
0$
0#
#790000
1,
19
1D
0O
0K
0L
1M
1N
1@
1A
0>
0?
1(
1'
0&
0%
#800000
0,
0+
09
08
0E
0D
1O
1Q
1F
1H
0M
0N
0@
0A
1:
1;
0(
0'
1"
1!
#810000
1,
19
1D
0O
0F
0H
1I
1J
1<
1=
0:
0;
1$
1#
0"
0!
#820000
0,
1+
09
18
1E
0D
1O
0Q
0I
0J
1K
1L
1>
1?
0<
0=
1&
1%
0$
0#
#830000
1,
19
1D
0O
0K
0L
1M
1N
1@
1A
0>
0?
1(
1'
0&
0%
#840000
0,
0+
09
08
0E
0D
1O
1Q
1F
1H
0M
0N
0@
0A
1:
1;
0(
0'
1"
1!
#850000
1,
19
1D
0O
0F
0H
1I
1J
1<
1=
0:
0;
1$
1#
0"
0!
#860000
0,
1+
09
18
1E
0D
1O
0Q
0I
0J
1K
1L
1>
1?
0<
0=
1&
1%
0$
0#
#870000
1,
19
1D
0O
0K
0L
1M
1N
1@
1A
0>
0?
1(
1'
0&
0%
#880000
0,
0+
09
08
0E
0D
1O
1Q
1F
1H
0M
0N
0@
0A
1:
1;
0(
0'
1"
1!
#890000
1,
19
1D
0O
0F
0H
1I
1J
1<
1=
0:
0;
1$
1#
0"
0!
#900000
0,
1+
09
18
1E
0D
1O
0Q
0I
0J
1K
1L
1>
1?
0<
0=
1&
1%
0$
0#
#910000
1,
19
1D
0O
0K
0L
1M
1N
1@
1A
0>
0?
1(
1'
0&
0%
#920000
0,
0+
09
08
0E
0D
1O
1Q
1F
1H
0M
0N
0@
0A
1:
1;
0(
0'
1"
1!
#930000
1,
19
1D
0O
0F
0H
1I
1J
1<
1=
0:
0;
1$
1#
0"
0!
#940000
0,
1+
09
18
1E
0D
1O
0Q
0I
0J
1K
1L
1>
1?
0<
0=
1&
1%
0$
0#
#950000
1,
19
1D
0O
0K
0L
1M
1N
1@
1A
0>
0?
1(
1'
0&
0%
#960000
0,
0+
09
08
0E
0D
1O
1Q
1F
1H
0M
0N
0@
0A
1:
1;
0(
0'
1"
1!
#970000
1,
19
1D
0O
0F
0H
1I
1J
1<
1=
0:
0;
1$
1#
0"
0!
#980000
0,
1+
09
18
1E
0D
1O
0Q
0I
0J
1K
1L
1>
1?
0<
0=
1&
1%
0$
0#
#990000
1,
19
1D
0O
0K
0L
1M
1N
1@
1A
0>
0?
1(
1'
0&
0%
