atividade_1_2/questao_1_a/simulation/qsim/questao_1_a.msim.vcd
$comment
	File created using the following command:
		vcd file questao_1_a.msim.vcd -direction
$end
$date
	Tue May 10 18:33:08 2022
$end
$version
	ModelSim Version 2020.1
$end
$timescale
	1ps
$end

$scope module questao_1_a_vlg_vec_tst $end
$var reg 4 ! a [0:3] $end
$var reg 4 " b [0:3] $end
$var wire 1 # s [0] $end
$var wire 1 $ s [1] $end
$var wire 1 % s [2] $end
$var wire 1 & s [3] $end

$scope module i1 $end
$var wire 1 ' gnd $end
$var wire 1 ( vcc $end
$var wire 1 ) unknown $end
$var tri1 1 * devclrn $end
$var tri1 1 + devpor $end
$var tri1 1 , devoe $end
$var wire 1 - b[2]~input_o $end
$var wire 1 . ~QUARTUS_CREATED_GND~I_combout $end
$var wire 1 / b[3]~input_o $end
$var wire 1 0 a[3]~input_o $end
$var wire 1 1 s~0_combout $end
$var wire 1 2 a[2]~input_o $end
$var wire 1 3 b[0]~input_o $end
$var wire 1 4 s~1_combout $end
$var wire 1 5 a[1]~input_o $end
$var wire 1 6 b[1]~input_o $end
$var wire 1 7 s~2_combout $end
$var wire 1 8 a[0]~input_o $end
$var wire 1 9 s~3_combout $end
$upscope $end
$upscope $end
$enddefinitions $end
#0
$dumpvars
b11 !
b101 "
0&
1%
1$
1#
0'
1(
x)
1*
1+
1,
0-
0.
1/
10
11
12
03
14
05
16
17
08
09
$end
#1000
b10 !
b0 !
b100 !
b1100 !
00
02
15
18
19
01
07
04
0%
0$
1&
0#
#2000
b100 "
b110 "
b10 "
b1010 "
b1101 !
b1111 !
b1011 !
b11 !
10
12
05
08
0/
1-
06
13
#3000
b10 !
b0 !
b100 !
b1100 !
00
02
15
18
#4000
b1011 "
b1001 "
b1101 "
b101 "
b1101 !
b1111 !
b1011 !
b11 !
10
12
05
08
1/
0-
16
03
09
11
14
17
1$
1%
0&
1#
#5000
b10 !
b0 !
b100 !
b1100 !
00
02
15
18
19
01
07
04
0%
0$
1&
0#
#6000
b100 "
b110 "
b10 "
b1010 "
b1101 !
b1111 !
b1011 !
b11 !
10
12
05
08
0/
1-
06
13
#7000
b10 !
b0 !
b100 !
b1100 !
00
02
15
18
#8000
b1011 "
b1001 "
b1101 "
b101 "
b1101 !
b1111 !
b1011 !
b11 !
10
12
05
08
1/
0-
16
03
09
11
14
17
1$
1%
0&
1#
#9000
b10 !
b0 !
b100 !
b1100 !
00
02
15
18
19
01
07
04
0%
0$
1&
0#
#10000
b100 "
b110 "
b10 "
b1010 "
b1101 !
b1111 !
b1011 !
b11 !
10
12
05
08
0/
1-
06
13
#11000
b10 !
b0 !
b100 !
b1100 !
00
02
15
18
#12000
b1011 "
b1001 "
b1101 "
b101 "
b1101 !
b1111 !
b1011 !
b11 !
10
12
05
08
1/
0-
16
03
09
11
14
17
1$
1%
0&
1#
#13000
b10 !
b0 !
b100 !
b1100 !
00
02
15
18
19
01
07
04
0%
0$
1&
0#
#14000
b100 "
b110 "
b10 "
b1010 "
b1101 !
b1111 !
b1011 !
b11 !
10
12
05
08
0/
1-
06
13
#15000
b10 !
b0 !
b100 !
b1100 !
00
02
15
18
#16000
b1011 "
b1001 "
b1101 "
b101 "
b1101 !
b1111 !
b1011 !
b11 !
10
12
05
08
1/
0-
16
03
09
11
14
17
1$
1%
0&
1#
#17000
b10 !
b0 !
b100 !
b1100 !
00
02
15
18
19
01
07
04
0%
0$
1&
0#
#18000
b100 "
b110 "
b10 "
b1010 "
b1101 !
b1111 !
b1011 !
b11 !
10
12
05
08
0/
1-
06
13
#19000
b10 !
b0 !
b100 !
b1100 !
00
02
15
18
#20000
b1011 "
b1001 "
b1101 "
b101 "
b1101 !
b1111 !
b1011 !
b11 !
10
12
05
08
1/
0-
16
03
09
11
14
17
1$
1%
0&
1#
#21000
b10 !
b0 !
b100 !
b1100 !
00
02
15
18
19
01
07
04
0%
0$
1&
0#
#22000
b100 "
b110 "
b10 "
b1010 "
b1101 !
b1111 !
b1011 !
b11 !
10
12
05
08
0/
1-
06
13
#23000
b10 !
b0 !
b100 !
b1100 !
00
02
15
18
#24000
b1011 "
b1001 "
b1101 "
b101 "
b1101 !
b1111 !
b1011 !
b11 !
10
12
05
08
1/
0-
16
03
09
11
14
17
1$
1%
0&
1#
#25000
b10 !
b0 !
b100 !
b1100 !
00
02
15
18
19
01
07
04
0%
0$
1&
0#
#26000
b100 "
b110 "
b10 "
b1010 "
b1101 !
b1111 !
b1011 !
b11 !
10
12
05
08
0/
1-
06
13
#27000
b10 !
b0 !
b100 !
b1100 !
00
02
15
18
#28000
b1011 "
b1001 "
b1101 "
b101 "
b1101 !
b1111 !
b1011 !
b11 !
10
12
05
08
1/
0-
16
03
09
11
14
17
1$
1%
0&
1#
#29000
b10 !
b0 !
b100 !
b1100 !
00
02
15
18
19
01
07
04
0%
0$
1&
0#
#30000
b100 "
b110 "
b10 "
b1010 "
b1101 !
b1111 !
b1011 !
b11 !
10
12
05
08
0/
1-
06
13
#31000
b10 !
b0 !
b100 !
b1100 !
00
02
15
18
#32000
b1011 "
b1001 "
b1101 "
b101 "
b1101 !
b1111 !
b1011 !
b11 !
10
12
05
08
1/
0-
16
03
09
11
14
17
1$
1%
0&
1#
#33000
b10 !
b0 !
b100 !
b1100 !
00
02
15
18
19
01
07
04
0%
0$
1&
0#
#34000
b100 "
b110 "
b10 "
b1010 "
b1101 !
b1111 !
b1011 !
b11 !
10
12
05
08
0/
1-
06
13
#35000
b10 !
b0 !
b100 !
b1100 !
00
02
15
18
#36000
b1011 "
b1001 "
b1101 "
b101 "
b1101 !
b1111 !
b1011 !
b11 !
10
12
05
08
1/
0-
16
03
09
11
14
17
1$
1%
0&
1#
#37000
b10 !
b0 !
b100 !
b1100 !
00
02
15
18
19
01
07
04
0%
0$
1&
0#
#38000
b100 "
b110 "
b10 "
b1010 "
b1101 !
b1111 !
b1011 !
b11 !
10
12
05
08
0/
1-
06
13
#39000
b10 !
b0 !
b100 !
b1100 !
00
02
15
18
#40000
b1011 "
b1001 "
b1101 "
b101 "
b1101 !
b1111 !
b1011 !
b11 !
10
12
05
08
1/
0-
16
03
09
11
14
17
1$
1%
0&
1#
#41000
b10 !
b0 !
b100 !
b1100 !
00
02
15
18
19
01
07
04
0%
0$
1&
0#
#42000
b100 "
b110 "
b10 "
b1010 "
b1101 !
b1111 !
b1011 !
b11 !
10
12
05
08
0/
1-
06
13
#43000
b10 !
b0 !
b100 !
b1100 !
00
02
15
18
#44000
b1011 "
b1001 "
b1101 "
b101 "
b1101 !
b1111 !
b1011 !
b11 !
10
12
05
08
1/
0-
16
03
09
11
14
17
1$
1%
0&
1#
#45000
b10 !
b0 !
b100 !
b1100 !
00
02
15
18
19
01
07
04
0%
0$
1&
0#
#46000
b100 "
b110 "
b10 "
b1010 "
b1101 !
b1111 !
b1011 !
b11 !
10
12
05
08
0/
1-
06
13
#47000
b10 !
b0 !
b100 !
b1100 !
00
02
15
18
#48000
b1011 "
b1001 "
b1101 "
b101 "
b1101 !
b1111 !
b1011 !
b11 !
10
12
05
08
1/
0-
16
03
09
11
14
17
1$
1%
0&
1#
#49000
b10 !
b0 !
b100 !
b1100 !
00
02
15
18
19
01
07
04
0%
0$
1&
0#
#50000
b100 "
b110 "
b10 "
b1010 "
b1101 !
b1111 !
b1011 !
b11 !
10
12
05
08
0/
1-
06
13
#51000
b10 !
b0 !
b100 !
b1100 !
00
02
15
18
#52000
b1011 "
b1001 "
b1101 "
b101 "
b1101 !
b1111 !
b1011 !
b11 !
10
12
05
08
1/
0-
16
03
09
11
14
17
1$
1%
0&
1#
#53000
b10 !
b0 !
b100 !
b1100 !
00
02
15
18
19
01
07
04
0%
0$
1&
0#
#54000
b100 "
b110 "
b10 "
b1010 "
b1101 !
b1111 !
b1011 !
b11 !
10
12
05
08
0/
1-
06
13
#55000
b10 !
b0 !
b100 !
b1100 !
00
02
15
18
#56000
b1011 "
b1001 "
b1101 "
b101 "
b1101 !
b1111 !
b1011 !
b11 !
10
12
05
08
1/
0-
16
03
09
11
14
17
1$
1%
0&
1#
#57000
b10 !
b0 !
b100 !
b1100 !
00
02
15
18
19
01
07
04
0%
0$
1&
0#
#58000
b100 "
b110 "
b10 "
b1010 "
b1101 !
b1111 !
b1011 !
b11 !
10
12
05
08
0/
1-
06
13
#59000
b10 !
b0 !
b100 !
b1100 !
00
02
15
18
#60000
b1011 "
b1001 "
b1101 "
b101 "
b1101 !
b1111 !
b1011 !
b11 !
10
12
05
08
1/
0-
16
03
09
11
14
17
1$
1%
0&
1#
#61000
b10 !
b0 !
b100 !
b1100 !
00
02
15
18
19
01
07
04
0%
0$
1&
0#
#62000
b100 "
b110 "
b10 "
b1010 "
b1101 !
b1111 !
b1011 !
b11 !
10
12
05
08
0/
1-
06
13
#63000
b10 !
b0 !
b100 !
b1100 !
00
02
15
18
#64000
b1011 "
b1001 "
b1101 "
b101 "
b1101 !
b1111 !
b1011 !
b11 !
10
12
05
08
1/
0-
16
03
09
11
14
17
1$
1%
0&
1#
#65000
b10 !
b0 !
b100 !
b1100 !
00
02
15
18
19
01
07
04
0%
0$
1&
0#
#66000
b100 "
b110 "
b10 "
b1010 "
b1101 !
b1111 !
b1011 !
b11 !
10
12
05
08
0/
1-
06
13
#67000
b10 !
b0 !
b100 !
b1100 !
00
02
15
18
#68000
b1011 "
b1001 "
b1101 "
b101 "
b1101 !
b1111 !
b1011 !
b11 !
10
12
05
08
1/
0-
16
03
09
11
14
17
1$
1%
0&
1#
#69000
b10 !
b0 !
b100 !
b1100 !
00
02
15
18
19
01
07
04
0%
0$
1&
0#
#70000
b100 "
b110 "
b10 "
b1010 "
b1101 !
b1111 !
b1011 !
b11 !
10
12
05
08
0/
1-
06
13
#71000
b10 !
b0 !
b100 !
b1100 !
00
02
15
18
#72000
b1011 "
b1001 "
b1101 "
b101 "
b1101 !
b1111 !
b1011 !
b11 !
10
12
05
08
1/
0-
16
03
09
11
14
17
1$
1%
0&
1#
#73000
b10 !
b0 !
b100 !
b1100 !
00
02
15
18
19
01
07
04
0%
0$
1&
0#
#74000
b100 "
b110 "
b10 "
b1010 "
b1101 !
b1111 !
b1011 !
b11 !
10
12
05
08
0/
1-
06
13
#75000
b10 !
b0 !
b100 !
b1100 !
00
02
15
18
#76000
b1011 "
b1001 "
b1101 "
b101 "
b1101 !
b1111 !
b1011 !
b11 !
10
12
05
08
1/
0-
16
03
09
11
14
17
1$
1%
0&
1#
#77000
b10 !
b0 !
b100 !
b1100 !
00
02
15
18
19
01
07
04
0%
0$
1&
0#
#78000
b100 "
b110 "
b10 "
b1010 "
b1101 !
b1111 !
b1011 !
b11 !
10
12
05
08
0/
1-
06
13
#79000
b10 !
b0 !
b100 !
b1100 !
00
02
15
18
#80000
b1011 "
b1001 "
b1101 "
b101 "
b1101 !
b1111 !
b1011 !
b11 !
10
12
05
08
1/
0-
16
03
09
11
14
17
1$
1%
0&
1#
#81000
b10 !
b0 !
b100 !
b1100 !
00
02
15
18
19
01
07
04
0%
0$
1&
0#
#82000
b100 "
b110 "
b10 "
b1010 "
b1101 !
b1111 !
b1011 !
b11 !
10
12
05
08
0/
1-
06
13
#83000
b10 !
b0 !
b100 !
b1100 !
00
02
15
18
#84000
b1011 "
b1001 "
b1101 "
b101 "
b1101 !
b1111 !
b1011 !
b11 !
10
12
05
08
1/
0-
16
03
09
11
14
17
1$
1%
0&
1#
#85000
b10 !
b0 !
b100 !
b1100 !
00
02
15
18
19
01
07
04
0%
0$
1&
0#
#86000
b100 "
b110 "
b10 "
b1010 "
b1101 !
b1111 !
b1011 !
b11 !
10
12
05
08
0/
1-
06
13
#87000
b10 !
b0 !
b100 !
b1100 !
00
02
15
18
#88000
b1011 "
b1001 "
b1101 "
b101 "
b1101 !
b1111 !
b1011 !
b11 !
10
12
05
08
1/
0-
16
03
09
11
14
17
1$
1%
0&
1#
#89000
b10 !
b0 !
b100 !
b1100 !
00
02
15
18
19
01
07
04
0%
0$
1&
0#
#90000
b100 "
b110 "
b10 "
b1010 "
b1101 !
b1111 !
b1011 !
b11 !
10
12
05
08
0/
1-
06
13
#91000
b10 !
b0 !
b100 !
b1100 !
00
02
15
18
#92000
b1011 "
b1001 "
b1101 "
b101 "
b1101 !
b1111 !
b1011 !
b11 !
10
12
05
08
1/
0-
16
03
09
11
14
17
1$
1%
0&
1#
#93000
b10 !
b0 !
b100 !
b1100 !
00
02
15
18
19
01
07
04
0%
0$
1&
0#
#94000
b100 "
b110 "
b10 "
b1010 "
b1101 !
b1111 !
b1011 !
b11 !
10
12
05
08
0/
1-
06
13
#95000
b10 !
b0 !
b100 !
b1100 !
00
02
15
18
#96000
b1011 "
b1001 "
b1101 "
b101 "
b1101 !
b1111 !
b1011 !
b11 !
10
12
05
08
1/
0-
16
03
09
11
14
17
1$
1%
0&
1#
#97000
b10 !
b0 !
b100 !
b1100 !
00
02
15
18
19
01
07
04
0%
0$
1&
0#
#98000
b100 "
b110 "
b10 "
b1010 "
b1101 !
b1111 !
b1011 !
b11 !
10
12
05
08
0/
1-
06
13
#99000
b10 !
b0 !
b100 !
b1100 !
00
02
15
18
#100000
b1011 "
b1001 "
b1101 "
b101 "
b1101 !
b1111 !
b1011 !
b11 !
10
12
05
08
1/
0-
16
03
09
11
14
17
1$
1%
0&
1#
#101000
b10 !
b0 !
b100 !
b1100 !
00
02
15
18
19
01
07
04
0%
0$
1&
0#
#102000
b100 "
b110 "
b10 "
b1010 "
b1101 !
b1111 !
b1011 !
b11 !
10
12
05
08
0/
1-
06
13
#103000
b10 !
b0 !
b100 !
b1100 !
00
02
15
18
#104000
b1011 "
b1001 "
b1101 "
b101 "
b1101 !
b1111 !
b1011 !
b11 !
10
12
05
08
1/
0-
16
03
09
11
14
17
1$
1%
0&
1#
#105000
b10 !
b0 !
b100 !
b1100 !
00
02
15
18
19
01
07
04
0%
0$
1&
0#
#106000
b100 "
b110 "
b10 "
b1010 "
b1101 !
b1111 !
b1011 !
b11 !
10
12
05
08
0/
1-
06
13
#107000
b10 !
b0 !
b100 !
b1100 !
00
02
15
18
#108000
b1011 "
b1001 "
b1101 "
b101 "
b1101 !
b1111 !
b1011 !
b11 !
10
12
05
08
1/
0-
16
03
09
11
14
17
1$
1%
0&
1#
#109000
b10 !
b0 !
b100 !
b1100 !
00
02
15
18
19
01
07
04
0%
0$
1&
0#
#110000
b100 "
b110 "
b10 "
b1010 "
b1101 !
b1111 !
b1011 !
b11 !
10
12
05
08
0/
1-
06
13
#111000
b10 !
b0 !
b100 !
b1100 !
00
02
15
18
#112000
b1011 "
b1001 "
b1101 "
b101 "
b1101 !
b1111 !
b1011 !
b11 !
10
12
05
08
1/
0-
16
03
09
11
14
17
1$
1%
0&
1#
#113000
b10 !
b0 !
b100 !
b1100 !
00
02
15
18
19
01
07
04
0%
0$
1&
0#
#114000
b100 "
b110 "
b10 "
b1010 "
b1101 !
b1111 !
b1011 !
b11 !
10
12
05
08
0/
1-
06
13
#115000
b10 !
b0 !
b100 !
b1100 !
00
02
15
18
#116000
b1011 "
b1001 "
b1101 "
b101 "
b1101 !
b1111 !
b1011 !
b11 !
10
12
05
08
1/
0-
16
03
09
11
14
17
1$
1%
0&
1#
#117000
b10 !
b0 !
b100 !
b1100 !
00
02
15
18
19
01
07
04
0%
0$
1&
0#
#118000
b100 "
b110 "
b10 "
b1010 "
b1101 !
b1111 !
b1011 !
b11 !
10
12
05
08
0/
1-
06
13
#119000
b10 !
b0 !
b100 !
b1100 !
00
02
15
18
#120000
b1011 "
b1001 "
b1101 "
b101 "
b1101 !
b1111 !
b1011 !
b11 !
10
12
05
08
1/
0-
16
03
09
11
14
17
1$
1%
0&
1#
#121000
b10 !
b0 !
b100 !
b1100 !
00
02
15
18
19
01
07
04
0%
0$
1&
0#
#122000
b100 "
b110 "
b10 "
b1010 "
b1101 !
b1111 !
b1011 !
b11 !
10
12
05
08
0/
1-
06
13
#123000
b10 !
b0 !
b100 !
b1100 !
00
02
15
18
#124000
b1011 "
b1001 "
b1101 "
b101 "
b1101 !
b1111 !
b1011 !
b11 !
10
12
05
08
1/
0-
16
03
09
11
14
17
1$
1%
0&
1#
#125000
b10 !
b0 !
b100 !
b1100 !
00
02
15
18
19
01
07
04
0%
0$
1&
0#
#126000
b100 "
b110 "
b10 "
b1010 "
b1101 !
b1111 !
b1011 !
b11 !
10
12
05
08
0/
1-
06
13
#127000
b10 !
b0 !
b100 !
b1100 !
00
02
15
18
#128000
b1011 "
b1001 "
b1101 "
b101 "
b1101 !
b1111 !
b1011 !
b11 !
10
12
05
08
1/
0-
16
03
09
11
14
17
1$
1%
0&
1#
#129000
b10 !
b0 !
b100 !
b1100 !
00
02
15
18
19
01
07
04
0%
0$
1&
0#
#130000
b100 "
b110 "
b10 "
b1010 "
b1101 !
b1111 !
b1011 !
b11 !
10
12
05
08
0/
1-
06
13
#131000
b10 !
b0 !
b100 !
b1100 !
00
02
15
18
#132000
b1011 "
b1001 "
b1101 "
b101 "
b1101 !
b1111 !
b1011 !
b11 !
10
12
05
08
1/
0-
16
03
09
11
14
17
1$
1%
0&
1#
#133000
b10 !
b0 !
b100 !
b1100 !
00
02
15
18
19
01
07
04
0%
0$
1&
0#
#134000
b100 "
b110 "
b10 "
b1010 "
b1101 !
b1111 !
b1011 !
b11 !
10
12
05
08
0/
1-
06
13
#135000
b10 !
b0 !
b100 !
b1100 !
00
02
15
18
#136000
b1011 "
b1001 "
b1101 "
b101 "
b1101 !
b1111 !
b1011 !
b11 !
10
12
05
08
1/
0-
16
03
09
11
14
17
1$
1%
0&
1#
#137000
b10 !
b0 !
b100 !
b1100 !
00
02
15
18
19
01
07
04
0%
0$
1&
0#
#138000
b100 "
b110 "
b10 "
b1010 "
b1101 !
b1111 !
b1011 !
b11 !
10
12
05
08
0/
1-
06
13
#139000
b10 !
b0 !
b100 !
b1100 !
00
02
15
18
#140000
b1011 "
b1001 "
b1101 "
b101 "
b1101 !
b1111 !
b1011 !
b11 !
10
12
05
08
1/
0-
16
03
09
11
14
17
1$
1%
0&
1#
#141000
b10 !
b0 !
b100 !
b1100 !
00
02
15
18
19
01
07
04
0%
0$
1&
0#
#142000
b100 "
b110 "
b10 "
b1010 "
b1101 !
b1111 !
b1011 !
b11 !
10
12
05
08
0/
1-
06
13
#143000
b10 !
b0 !
b100 !
b1100 !
00
02
15
18
#144000
b1011 "
b1001 "
b1101 "
b101 "
b1101 !
b1111 !
b1011 !
b11 !
10
12
05
08
1/
0-
16
03
09
11
14
17
1$
1%
0&
1#
#145000
b10 !
b0 !
b100 !
b1100 !
00
02
15
18
19
01
07
04
0%
0$
1&
0#
#146000
b100 "
b110 "
b10 "
b1010 "
b1101 !
b1111 !
b1011 !
b11 !
10
12
05
08
0/
1-
06
13
#147000
b10 !
b0 !
b100 !
b1100 !
00
02
15
18
#148000
b1011 "
b1001 "
b1101 "
b101 "
b1101 !
b1111 !
b1011 !
b11 !
10
12
05
08
1/
0-
16
03
09
11
14
17
1$
1%
0&
1#
#149000
b10 !
b0 !
b100 !
b1100 !
00
02
15
18
19
01
07
04
0%
0$
1&
0#
#150000
b100 "
b110 "
b10 "
b1010 "
b1101 !
b1111 !
b1011 !
b11 !
10
12
05
08
0/
1-
06
13
#151000
b10 !
b0 !
b100 !
b1100 !
00
02
15
18
#152000
b1011 "
b1001 "
b1101 "
b101 "
b1101 !
b1111 !
b1011 !
b11 !
10
12
05
08
1/
0-
16
03
09
11
14
17
1$
1%
0&
1#
#153000
b10 !
b0 !
b100 !
b1100 !
00
02
15
18
19
01
07
04
0%
0$
1&
0#
#154000
b100 "
b110 "
b10 "
b1010 "
b1101 !
b1111 !
b1011 !
b11 !
10
12
05
08
0/
1-
06
13
#155000
b10 !
b0 !
b100 !
b1100 !
00
02
15
18
#156000
b1011 "
b1001 "
b1101 "
b101 "
b1101 !
b1111 !
b1011 !
b11 !
10
12
05
08
1/
0-
16
03
09
11
14
17
1$
1%
0&
1#
#157000
b10 !
b0 !
b100 !
b1100 !
00
02
15
18
19
01
07
04
0%
0$
1&
0#
#158000
b100 "
b110 "
b10 "
b1010 "
b1101 !
b1111 !
b1011 !
b11 !
10
12
05
08
0/
1-
06
13
#159000
b10 !
b0 !
b100 !
b1100 !
00
02
15
18
#160000
b1011 "
b1001 "
b1101 "
b101 "
b1101 !
b1111 !
b1011 !
b11 !
10
12
05
08
1/
0-
16
03
09
11
14
17
1$
1%
0&
1#
#161000
b10 !
b0 !
b100 !
b1100 !
00
02
15
18
19
01
07
04
0%
0$
1&
0#
#162000
b100 "
b110 "
b10 "
b1010 "
b1101 !
b1111 !
b1011 !
b11 !
10
12
05
08
0/
1-
06
13
#163000
b10 !
b0 !
b100 !
b1100 !
00
02
15
18
#164000
b1011 "
b1001 "
b1101 "
b101 "
b1101 !
b1111 !
b1011 !
b11 !
10
12
05
08
1/
0-
16
03
09
11
14
17
1$
1%
0&
1#
#165000
b10 !
b0 !
b100 !
b1100 !
00
02
15
18
19
01
07
04
0%
0$
1&
0#
#166000
b100 "
b110 "
b10 "
b1010 "
b1101 !
b1111 !
b1011 !
b11 !
10
12
05
08
0/
1-
06
13
#167000
b10 !
b0 !
b100 !
b1100 !
00
02
15
18
#168000
b1011 "
b1001 "
b1101 "
b101 "
b1101 !
b1111 !
b1011 !
b11 !
10
12
05
08
1/
0-
16
03
09
11
14
17
1$
1%
0&
1#
#169000
b10 !
b0 !
b100 !
b1100 !
00
02
15
18
19
01
07
04
0%
0$
1&
0#
#170000
b100 "
b110 "
b10 "
b1010 "
b1101 !
b1111 !
b1011 !
b11 !
10
12
05
08
0/
1-
06
13
#171000
b10 !
b0 !
b100 !
b1100 !
00
02
15
18
#172000
b1011 "
b1001 "
b1101 "
b101 "
b1101 !
b1111 !
b1011 !
b11 !
10
12
05
08
1/
0-
16
03
09
11
14
17
1$
1%
0&
1#
#173000
b10 !
b0 !
b100 !
b1100 !
00
02
15
18
19
01
07
04
0%
0$
1&
0#
#174000
b100 "
b110 "
b10 "
b1010 "
b1101 !
b1111 !
b1011 !
b11 !
10
12
05
08
0/
1-
06
13
#175000
b10 !
b0 !
b100 !
b1100 !
00
02
15
18
#176000
b1011 "
b1001 "
b1101 "
b101 "
b1101 !
b1111 !
b1011 !
b11 !
10
12
05
08
1/
0-
16
03
09
11
14
17
1$
1%
0&
1#
#177000
b10 !
b0 !
b100 !
b1100 !
00
02
15
18
19
01
07
04
0%
0$
1&
0#
#178000
b100 "
b110 "
b10 "
b1010 "
b1101 !
b1111 !
b1011 !
b11 !
10
12
05
08
0/
1-
06
13
#179000
b10 !
b0 !
b100 !
b1100 !
00
02
15
18
#180000
b1011 "
b1001 "
b1101 "
b101 "
b1101 !
b1111 !
b1011 !
b11 !
10
12
05
08
1/
0-
16
03
09
11
14
17
1$
1%
0&
1#
#181000
b10 !
b0 !
b100 !
b1100 !
00
02
15
18
19
01
07
04
0%
0$
1&
0#
#182000
b100 "
b110 "
b10 "
b1010 "
b1101 !
b1111 !
b1011 !
b11 !
10
12
05
08
0/
1-
06
13
#183000
b10 !
b0 !
b100 !
b1100 !
00
02
15
18
#184000
b1011 "
b1001 "
b1101 "
b101 "
b1101 !
b1111 !
b1011 !
b11 !
10
12
05
08
1/
0-
16
03
09
11
14
17
1$
1%
0&
1#
#185000
b10 !
b0 !
b100 !
b1100 !
00
02
15
18
19
01
07
04
0%
0$
1&
0#
#186000
b100 "
b110 "
b10 "
b1010 "
b1101 !
b1111 !
b1011 !
b11 !
10
12
05
08
0/
1-
06
13
#187000
b10 !
b0 !
b100 !
b1100 !
00
02
15
18
#188000
b1011 "
b1001 "
b1101 "
b101 "
b1101 !
b1111 !
b1011 !
b11 !
10
12
05
08
1/
0-
16
03
09
11
14
17
1$
1%
0&
1#
#189000
b10 !
b0 !
b100 !
b1100 !
00
02
15
18
19
01
07
04
0%
0$
1&
0#
#190000
b100 "
b110 "
b10 "
b1010 "
b1101 !
b1111 !
b1011 !
b11 !
10
12
05
08
0/
1-
06
13
#191000
b10 !
b0 !
b100 !
b1100 !
00
02
15
18
#192000
b1011 "
b1001 "
b1101 "
b101 "
b1101 !
b1111 !
b1011 !
b11 !
10
12
05
08
1/
0-
16
03
09
11
14
17
1$
1%
0&
1#
#193000
b10 !
b0 !
b100 !
b1100 !
00
02
15
18
19
01
07
04
0%
0$
1&
0#
#194000
b100 "
b110 "
b10 "
b1010 "
b1101 !
b1111 !
b1011 !
b11 !
10
12
05
08
0/
1-
06
13
#195000
b10 !
b0 !
b100 !
b1100 !
00
02
15
18
#196000
b1011 "
b1001 "
b1101 "
b101 "
b1101 !
b1111 !
b1011 !
b11 !
10
12
05
08
1/
0-
16
03
09
11
14
17
1$
1%
0&
1#
#197000
b10 !
b0 !
b100 !
b1100 !
00
02
15
18
19
01
07
04
0%
0$
1&
0#
#198000
b100 "
b110 "
b10 "
b1010 "
b1101 !
b1111 !
b1011 !
b11 !
10
12
05
08
0/
1-
06
13
#199000
b10 !
b0 !
b100 !
b1100 !
00
02
15
18
#200000
b1011 "
b1001 "
b1101 "
b101 "
b1101 !
b1111 !
b1011 !
b11 !
10
12
05
08
1/
0-
16
03
09
11
14
17
1$
1%
0&
1#
#201000
b10 !
b0 !
b100 !
b1100 !
00
02
15
18
19
01
07
04
0%
0$
1&
0#
#202000
b100 "
b110 "
b10 "
b1010 "
b1101 !
b1111 !
b1011 !
b11 !
10
12
05
08
0/
1-
06
13
#203000
b10 !
b0 !
b100 !
b1100 !
00
02
15
18
#204000
b1011 "
b1001 "
b1101 "
b101 "
b1101 !
b1111 !
b1011 !
b11 !
10
12
05
08
1/
0-
16
03
09
11
14
17
1$
1%
0&
1#
#205000
b10 !
b0 !
b100 !
b1100 !
00
02
15
18
19
01
07
04
0%
0$
1&
0#
#206000
b100 "
b110 "
b10 "
b1010 "
b1101 !
b1111 !
b1011 !
b11 !
10
12
05
08
0/
1-
06
13
#207000
b10 !
b0 !
b100 !
b1100 !
00
02
15
18
#208000
b1011 "
b1001 "
b1101 "
b101 "
b1101 !
b1111 !
b1011 !
b11 !
10
12
05
08
1/
0-
16
03
09
11
14
17
1$
1%
0&
1#
#209000
b10 !
b0 !
b100 !
b1100 !
00
02
15
18
19
01
07
04
0%
0$
1&
0#
#210000
b100 "
b110 "
b10 "
b1010 "
b1101 !
b1111 !
b1011 !
b11 !
10
12
05
08
0/
1-
06
13
#211000
b10 !
b0 !
b100 !
b1100 !
00
02
15
18
#212000
b1011 "
b1001 "
b1101 "
b101 "
b1101 !
b1111 !
b1011 !
b11 !
10
12
05
08
1/
0-
16
03
09
11
14
17
1$
1%
0&
1#
#213000
b10 !
b0 !
b100 !
b1100 !
00
02
15
18
19
01
07
04
0%
0$
1&
0#
#214000
b100 "
b110 "
b10 "
b1010 "
b1101 !
b1111 !
b1011 !
b11 !
10
12
05
08
0/
1-
06
13
#215000
b10 !
b0 !
b100 !
b1100 !
00
02
15
18
#216000
b1011 "
b1001 "
b1101 "
b101 "
b1101 !
b1111 !
b1011 !
b11 !
10
12
05
08
1/
0-
16
03
09
11
14
17
1$
1%
0&
1#
#217000
b10 !
b0 !
b100 !
b1100 !
00
02
15
18
19
01
07
04
0%
0$
1&
0#
#218000
b100 "
b110 "
b10 "
b1010 "
b1101 !
b1111 !
b1011 !
b11 !
10
12
05
08
0/
1-
06
13
#219000
b10 !
b0 !
b100 !
b1100 !
00
02
15
18
#220000
b1011 "
b1001 "
b1101 "
b101 "
b1101 !
b1111 !
b1011 !
b11 !
10
12
05
08
1/
0-
16
03
09
11
14
17
1$
1%
0&
1#
#221000
b10 !
b0 !
b100 !
b1100 !
00
02
15
18
19
01
07
04
0%
0$
1&
0#
#222000
b100 "
b110 "
b10 "
b1010 "
b1101 !
b1111 !
b1011 !
b11 !
10
12
05
08
0/
1-
06
13
#223000
b10 !
b0 !
b100 !
b1100 !
00
02
15
18
#224000
b1011 "
b1001 "
b1101 "
b101 "
b1101 !
b1111 !
b1011 !
b11 !
10
12
05
08
1/
0-
16
03
09
11
14
17
1$
1%
0&
1#
#225000
b10 !
b0 !
b100 !
b1100 !
00
02
15
18
19
01
07
04
0%
0$
1&
0#
#226000
b100 "
b110 "
b10 "
b1010 "
b1101 !
b1111 !
b1011 !
b11 !
10
12
05
08
0/
1-
06
13
#227000
b10 !
b0 !
b100 !
b1100 !
00
02
15
18
#228000
b1011 "
b1001 "
b1101 "
b101 "
b1101 !
b1111 !
b1011 !
b11 !
10
12
05
08
1/
0-
16
03
09
11
14
17
1$
1%
0&
1#
#229000
b10 !
b0 !
b100 !
b1100 !
00
02
15
18
19
01
07
04
0%
0$
1&
0#
#230000
b100 "
b110 "
b10 "
b1010 "
b1101 !
b1111 !
b1011 !
b11 !
10
12
05
08
0/
1-
06
13
#231000
b10 !
b0 !
b100 !
b1100 !
00
02
15
18
#232000
b1011 "
b1001 "
b1101 "
b101 "
b1101 !
b1111 !
b1011 !
b11 !
10
12
05
08
1/
0-
16
03
09
11
14
17
1$
1%
0&
1#
#233000
b10 !
b0 !
b100 !
b1100 !
00
02
15
18
19
01
07
04
0%
0$
1&
0#
#234000
b100 "
b110 "
b10 "
b1010 "
b1101 !
b1111 !
b1011 !
b11 !
10
12
05
08
0/
1-
06
13
#235000
b10 !
b0 !
b100 !
b1100 !
00
02
15
18
#236000
b1011 "
b1001 "
b1101 "
b101 "
b1101 !
b1111 !
b1011 !
b11 !
10
12
05
08
1/
0-
16
03
09
11
14
17
1$
1%
0&
1#
#237000
b10 !
b0 !
b100 !
b1100 !
00
02
15
18
19
01
07
04
0%
0$
1&
0#
#238000
b100 "
b110 "
b10 "
b1010 "
b1101 !
b1111 !
b1011 !
b11 !
10
12
05
08
0/
1-
06
13
