atividade_1_2/questao_2_estrutural/simulation/qsim/questao_2_estrutural.msim.vcd
$comment
	File created using the following command:
		vcd file questao_2_estrutural.msim.vcd -direction
$end
$date
	Tue May 10 18:22:24 2022
$end
$version
	ModelSim Version 2020.1
$end
$timescale
	1ps
$end

$scope module questao_2_estrutural_vlg_vec_tst $end
$var reg 1 ! a $end
$var reg 1 " b $end
$var reg 1 # c $end
$var reg 1 $ d $end
$var wire 1 % x $end

$scope module i1 $end
$var wire 1 & gnd $end
$var wire 1 ' vcc $end
$var wire 1 ( unknown $end
$var tri1 1 ) devclrn $end
$var tri1 1 * devpor $end
$var tri1 1 + devoe $end
$var wire 1 , d~input_o $end
$var wire 1 - ~QUARTUS_CREATED_GND~I_combout $end
$var wire 1 . c~input_o $end
$var wire 1 / a~input_o $end
$var wire 1 0 b~input_o $end
$var wire 1 1 instancia_11|s~0_combout $end
$upscope $end
$upscope $end
$enddefinitions $end
#0
$dumpvars
0!
0"
0#
0$
1%
0&
1'
x(
1)
1*
1+
0,
0-
0.
0/
00
11
$end
#1000
1$
1,
#2000
1#
0$
1.
0,
#3000
1$
1,
#4000
1"
0#
0$
10
0.
0,
#5000
1$
1,
#6000
1#
0$
1.
0,
#7000
1$
1,
#8000
1!
0"
0#
0$
1/
00
0.
0,
#9000
1$
1,
#10000
1#
0$
1.
0,
01
0%
#11000
1$
1,
#12000
1"
0#
0$
10
0.
0,
11
1%
#13000
1$
1,
#14000
1#
0$
1.
0,
#15000
1$
1,
#16000
0!
0"
0#
0$
0/
00
0.
0,
#17000
1$
1,
#18000
1#
0$
1.
0,
#19000
1$
1,
#20000
1"
0#
0$
10
0.
0,
#21000
1$
1,
#22000
1#
0$
1.
0,
#23000
1$
1,
#24000
1!
0"
0#
0$
1/
00
0.
0,
#25000
1$
1,
#26000
1#
0$
1.
0,
01
0%
#27000
1$
1,
#28000
1"
0#
0$
10
0.
0,
11
1%
#29000
1$
1,
#30000
1#
0$
1.
0,
#31000
1$
1,
#32000
0!
0"
0#
0$
0/
00
0.
0,
#33000
1$
1,
#34000
1#
0$
1.
0,
#35000
1$
1,
#36000
1"
0#
0$
10
0.
0,
#37000
1$
1,
#38000
1#
0$
1.
0,
#39000
1$
1,
#40000
1!
0"
0#
0$
1/
00
0.
0,
#41000
1$
1,
#42000
1#
0$
1.
0,
01
0%
#43000
1$
1,
#44000
1"
0#
0$
10
0.
0,
11
1%
#45000
1$
1,
#46000
1#
0$
1.
0,
#47000
1$
1,
#48000
0!
0"
0#
0$
0/
00
0.
0,
#49000
1$
1,
#50000
1#
0$
1.
0,
#51000
1$
1,
#52000
1"
0#
0$
10
0.
0,
#53000
1$
1,
#54000
1#
0$
1.
0,
#55000
1$
1,
#56000
1!
0"
0#
0$
1/
00
0.
0,
#57000
1$
1,
#58000
1#
0$
1.
0,
01
0%
#59000
1$
1,
#60000
1"
0#
0$
10
0.
0,
11
1%
#61000
1$
1,
#62000
1#
0$
1.
0,
#63000
1$
1,
#64000
0!
0"
0#
0$
0/
00
0.
0,
#65000
1$
1,
#66000
1#
0$
1.
0,
#67000
1$
1,
#68000
1"
0#
0$
10
0.
0,
#69000
1$
1,
#70000
1#
0$
1.
0,
#71000
1$
1,
#72000
1!
0"
0#
0$
1/
00
0.
0,
#73000
1$
1,
#74000
1#
0$
1.
0,
01
0%
#75000
1$
1,
#76000
1"
0#
0$
10
0.
0,
11
1%
#77000
1$
1,
#78000
1#
0$
1.
0,
#79000
1$
1,
#80000
0!
0"
0#
0$
0/
00
0.
0,
#81000
1$
1,
#82000
1#
0$
1.
0,
#83000
1$
1,
#84000
1"
0#
0$
10
0.
0,
#85000
1$
1,
#86000
1#
0$
1.
0,
#87000
1$
1,
#88000
1!
0"
0#
0$
1/
00
0.
0,
#89000
1$
1,
#90000
1#
0$
1.
0,
01
0%
#91000
1$
1,
#92000
1"
0#
0$
10
0.
0,
11
1%
#93000
1$
1,
#94000
1#
0$
1.
0,
#95000
1$
1,
#96000
0!
0"
0#
0$
0/
00
0.
0,
#97000
1$
1,
#98000
1#
0$
1.
0,
#99000
1$
1,
#100000
1"
0#
0$
10
0.
0,
#101000
1$
1,
#102000
1#
0$
1.
0,
#103000
1$
1,
#104000
1!
0"
0#
0$
1/
00
0.
0,
#105000
1$
1,
#106000
1#
0$
1.
0,
01
0%
#107000
1$
1,
#108000
1"
0#
0$
10
0.
0,
11
1%
#109000
1$
1,
#110000
1#
0$
1.
0,
#111000
1$
1,
#112000
0!
0"
0#
0$
0/
00
0.
0,
#113000
1$
1,
#114000
1#
0$
1.
0,
#115000
1$
1,
#116000
1"
0#
0$
10
0.
0,
#117000
1$
1,
#118000
1#
0$
1.
0,
#119000
1$
1,
#120000
1!
0"
0#
0$
1/
00
0.
0,
#121000
1$
1,
#122000
1#
0$
1.
0,
01
0%
#123000
1$
1,
#124000
1"
0#
0$
10
0.
0,
11
1%
#125000
1$
1,
#126000
1#
0$
1.
0,
#127000
1$
1,
#128000
0!
0"
0#
0$
0/
00
0.
0,
#129000
1$
1,
#130000
1#
0$
1.
0,
#131000
1$
1,
#132000
1"
0#
0$
10
0.
0,
#133000
1$
1,
#134000
1#
0$
1.
0,
#135000
1$
1,
#136000
1!
0"
0#
0$
1/
00
0.
0,
#137000
1$
1,
#138000
1#
0$
1.
0,
01
0%
#139000
1$
1,
#140000
1"
0#
0$
10
0.
0,
11
1%
#141000
1$
1,
#142000
1#
0$
1.
0,
#143000
1$
1,
#144000
0!
0"
0#
0$
0/
00
0.
0,
#145000
1$
1,
#146000
1#
0$
1.
0,
#147000
1$
1,
#148000
1"
0#
0$
10
0.
0,
#149000
1$
1,
#150000
1#
0$
1.
0,
#151000
1$
1,
#152000
1!
0"
0#
0$
1/
00
0.
0,
#153000
1$
1,
#154000
1#
0$
1.
0,
01
0%
#155000
1$
1,
#156000
1"
0#
0$
10
0.
0,
11
1%
#157000
1$
1,
#158000
1#
0$
1.
0,
#159000
1$
1,
#160000
0!
0"
0#
0$
0/
00
0.
0,
#161000
1$
1,
#162000
1#
0$
1.
0,
#163000
1$
1,
#164000
1"
0#
0$
10
0.
0,
#165000
1$
1,
#166000
1#
0$
1.
0,
#167000
1$
1,
#168000
1!
0"
0#
0$
1/
00
0.
0,
#169000
1$
1,
#170000
1#
0$
1.
0,
01
0%
#171000
1$
1,
#172000
1"
0#
0$
10
0.
0,
11
1%
#173000
1$
1,
#174000
1#
0$
1.
0,
#175000
1$
1,
#176000
0!
0"
0#
0$
0/
00
0.
0,
#177000
1$
1,
#178000
1#
0$
1.
0,
#179000
1$
1,
#180000
1"
0#
0$
10
0.
0,
#181000
1$
1,
#182000
1#
0$
1.
0,
#183000
1$
1,
#184000
1!
0"
0#
0$
1/
00
0.
0,
#185000
1$
1,
#186000
1#
0$
1.
0,
01
0%
#187000
1$
1,
#188000
1"
0#
0$
10
0.
0,
11
1%
#189000
1$
1,
#190000
1#
0$
1.
0,
#191000
1$
1,
#192000
0!
0"
0#
0$
0/
00
0.
0,
#193000
1$
1,
#194000
1#
0$
1.
0,
#195000
1$
1,
#196000
1"
0#
0$
10
0.
0,
#197000
1$
1,
#198000
1#
0$
1.
0,
#199000
1$
1,
#200000
1!
0"
0#
0$
1/
00
0.
0,
#201000
1$
1,
#202000
1#
0$
1.
0,
01
0%
#203000
1$
1,
#204000
1"
0#
0$
10
0.
0,
11
1%
#205000
1$
1,
#206000
1#
0$
1.
0,
#207000
1$
1,
#208000
0!
0"
0#
0$
0/
00
0.
0,
#209000
1$
1,
#210000
1#
0$
1.
0,
#211000
1$
1,
#212000
1"
0#
0$
10
0.
0,
#213000
1$
1,
#214000
1#
0$
1.
0,
#215000
1$
1,
#216000
1!
0"
0#
0$
1/
00
0.
0,
#217000
1$
1,
#218000
1#
0$
1.
0,
01
0%
#219000
1$
1,
#220000
1"
0#
0$
10
0.
0,
11
1%
#221000
1$
1,
#222000
1#
0$
1.
0,
#223000
1$
1,
#224000
0!
0"
0#
0$
0/
00
0.
0,
#225000
1$
1,
#226000
1#
0$
1.
0,
#227000
1$
1,
#228000
1"
0#
0$
10
0.
0,
#229000
1$
1,
#230000
1#
0$
1.
0,
#231000
1$
1,
#232000
1!
0"
0#
0$
1/
00
0.
0,
#233000
1$
1,
#234000
1#
0$
1.
0,
01
0%
#235000
1$
1,
#236000
1"
0#
0$
10
0.
0,
11
1%
#237000
1$
1,
#238000
1#
0$
1.
0,
#239000
1$
1,
#240000
0!
0"
0#
0$
0/
00
0.
0,
#241000
1$
1,
#242000
1#
0$
1.
0,
#243000
1$
1,
#244000
1"
0#
0$
10
0.
0,
#245000
1$
1,
#246000
1#
0$
1.
0,
#247000
1$
1,
#248000
1!
0"
0#
0$
1/
00
0.
0,
#249000
1$
1,
#250000
1#
0$
1.
0,
01
0%
#251000
1$
1,
#252000
1"
0#
0$
10
0.
0,
11
1%
#253000
1$
1,
#254000
1#
0$
1.
0,
#255000
1$
1,
#256000
0!
0"
0#
0$
0/
00
0.
0,
#257000
1$
1,
#258000
1#
0$
1.
0,
#259000
1$
1,
#260000
1"
0#
0$
10
0.
0,
#261000
1$
1,
#262000
1#
0$
1.
0,
#263000
1$
1,
#264000
1!
0"
0#
0$
1/
00
0.
0,
#265000
1$
1,
#266000
1#
0$
1.
0,
01
0%
#267000
1$
1,
#268000
1"
0#
0$
10
0.
0,
11
1%
#269000
1$
1,
#270000
1#
0$
1.
0,
#271000
1$
1,
#272000
0!
0"
0#
0$
0/
00
0.
0,
#273000
1$
1,
#274000
1#
0$
1.
0,
#275000
1$
1,
#276000
1"
0#
0$
10
0.
0,
#277000
1$
1,
#278000
1#
0$
1.
0,
#279000
1$
1,
#280000
1!
0"
0#
0$
1/
00
0.
0,
#281000
1$
1,
#282000
1#
0$
1.
0,
01
0%
#283000
1$
1,
#284000
1"
0#
0$
10
0.
0,
11
1%
#285000
1$
1,
#286000
1#
0$
1.
0,
#287000
1$
1,
#288000
0!
0"
0#
0$
0/
00
0.
0,
#289000
1$
1,
#290000
1#
0$
1.
0,
#291000
1$
1,
#292000
1"
0#
0$
10
0.
0,
#293000
1$
1,
#294000
1#
0$
1.
0,
#295000
1$
1,
#296000
1!
0"
0#
0$
1/
00
0.
0,
#297000
1$
1,
#298000
1#
0$
1.
0,
01
0%
#299000
1$
1,
#300000
1"
0#
0$
10
0.
0,
11
1%
#301000
1$
1,
#302000
1#
0$
1.
0,
#303000
1$
1,
#304000
0!
0"
0#
0$
0/
00
0.
0,
#305000
1$
1,
#306000
1#
0$
1.
0,
#307000
1$
1,
#308000
1"
0#
0$
10
0.
0,
#309000
1$
1,
#310000
1#
0$
1.
0,
#311000
1$
1,
#312000
1!
0"
0#
0$
1/
00
0.
0,
#313000
1$
1,
#314000
1#
0$
1.
0,
01
0%
#315000
1$
1,
#316000
1"
0#
0$
10
0.
0,
11
1%
#317000
1$
1,
#318000
1#
0$
1.
0,
#319000
1$
1,
#320000
0!
0"
0#
0$
0/
00
0.
0,
#321000
1$
1,
#322000
1#
0$
1.
0,
#323000
1$
1,
#324000
1"
0#
0$
10
0.
0,
#325000
1$
1,
#326000
1#
0$
1.
0,
#327000
1$
1,
#328000
1!
0"
0#
0$
1/
00
0.
0,
#329000
1$
1,
#330000
1#
0$
1.
0,
01
0%
#331000
1$
1,
#332000
1"
0#
0$
10
0.
0,
11
1%
#333000
1$
1,
#334000
1#
0$
1.
0,
#335000
1$
1,
#336000
0!
0"
0#
0$
0/
00
0.
0,
#337000
1$
1,
#338000
1#
0$
1.
0,
#339000
1$
1,
#340000
1"
0#
0$
10
0.
0,
#341000
1$
1,
#342000
1#
0$
1.
0,
#343000
1$
1,
#344000
1!
0"
0#
0$
1/
00
0.
0,
#345000
1$
1,
#346000
1#
0$
1.
0,
01
0%
#347000
1$
1,
#348000
1"
0#
0$
10
0.
0,
11
1%
#349000
1$
1,
#350000
1#
0$
1.
0,
#351000
1$
1,
#352000
0!
0"
0#
0$
0/
00
0.
0,
#353000
1$
1,
#354000
1#
0$
1.
0,
#355000
1$
1,
#356000
1"
0#
0$
10
0.
0,
#357000
1$
1,
#358000
1#
0$
1.
0,
#359000
1$
1,
#360000
1!
0"
0#
0$
1/
00
0.
0,
#361000
1$
1,
#362000
1#
0$
1.
0,
01
0%
#363000
1$
1,
#364000
1"
0#
0$
10
0.
0,
11
1%
#365000
1$
1,
#366000
1#
0$
1.
0,
#367000
1$
1,
#368000
0!
0"
0#
0$
0/
00
0.
0,
#369000
1$
1,
#370000
1#
0$
1.
0,
#371000
1$
1,
#372000
1"
0#
0$
10
0.
0,
#373000
1$
1,
#374000
1#
0$
1.
0,
#375000
1$
1,
#376000
1!
0"
0#
0$
1/
00
0.
0,
#377000
1$
1,
#378000
1#
0$
1.
0,
01
0%
#379000
1$
1,
#380000
1"
0#
0$
10
0.
0,
11
1%
#381000
1$
1,
#382000
1#
0$
1.
0,
#383000
1$
1,
#384000
0!
0"
0#
0$
0/
00
0.
0,
#385000
1$
1,
#386000
1#
0$
1.
0,
#387000
1$
1,
#388000
1"
0#
0$
10
0.
0,
#389000
1$
1,
#390000
1#
0$
1.
0,
#391000
1$
1,
#392000
1!
0"
0#
0$
1/
00
0.
0,
#393000
1$
1,
#394000
1#
0$
1.
0,
01
0%
#395000
1$
1,
#396000
1"
0#
0$
10
0.
0,
11
1%
#397000
1$
1,
#398000
1#
0$
1.
0,
#399000
1$
1,
#400000
0!
0"
0#
0$
0/
00
0.
0,
#401000
1$
1,
#402000
1#
0$
1.
0,
#403000
1$
1,
#404000
1"
0#
0$
10
0.
0,
#405000
1$
1,
#406000
1#
0$
1.
0,
#407000
1$
1,
#408000
1!
0"
0#
0$
1/
00
0.
0,
#409000
1$
1,
#410000
1#
0$
1.
0,
01
0%
#411000
1$
1,
#412000
1"
0#
0$
10
0.
0,
11
1%
#413000
1$
1,
#414000
1#
0$
1.
0,
#415000
1$
1,
#416000
0!
0"
0#
0$
0/
00
0.
0,
#417000
1$
1,
#418000
1#
0$
1.
0,
#419000
1$
1,
#420000
1"
0#
0$
10
0.
0,
#421000
1$
1,
#422000
1#
0$
1.
0,
#423000
1$
1,
#424000
1!
0"
0#
0$
1/
00
0.
0,
#425000
1$
1,
#426000
1#
0$
1.
0,
01
0%
#427000
1$
1,
#428000
1"
0#
0$
10
0.
0,
11
1%
#429000
1$
1,
#430000
1#
0$
1.
0,
#431000
1$
1,
#432000
0!
0"
0#
0$
0/
00
0.
0,
#433000
1$
1,
#434000
1#
0$
1.
0,
#435000
1$
1,
#436000
1"
0#
0$
10
0.
0,
#437000
1$
1,
#438000
1#
0$
1.
0,
#439000
1$
1,
#440000
1!
0"
0#
0$
1/
00
0.
0,
#441000
1$
1,
#442000
1#
0$
1.
0,
01
0%
#443000
1$
1,
#444000
1"
0#
0$
10
0.
0,
11
1%
#445000
1$
1,
#446000
1#
0$
1.
0,
#447000
1$
1,
#448000
0!
0"
0#
0$
0/
00
0.
0,
#449000
1$
1,
#450000
1#
0$
1.
0,
#451000
1$
1,
#452000
1"
0#
0$
10
0.
0,
#453000
1$
1,
#454000
1#
0$
1.
0,
#455000
1$
1,
#456000
1!
0"
0#
0$
1/
00
0.
0,
#457000
1$
1,
#458000
1#
0$
1.
0,
01
0%
#459000
1$
1,
#460000
1"
0#
0$
10
0.
0,
11
1%
#461000
1$
1,
#462000
1#
0$
1.
0,
#463000
1$
1,
#464000
0!
0"
0#
0$
0/
00
0.
0,
#465000
1$
1,
#466000
1#
0$
1.
0,
#467000
1$
1,
#468000
1"
0#
0$
10
0.
0,
#469000
1$
1,
#470000
1#
0$
1.
0,
#471000
1$
1,
#472000
1!
0"
0#
0$
1/
00
0.
0,
#473000
1$
1,
#474000
1#
0$
1.
0,
01
0%
#475000
1$
1,
#476000
1"
0#
0$
10
0.
0,
11
1%
#477000
1$
1,
#478000
1#
0$
1.
0,
#479000
1$
1,
#480000
0!
0"
0#
0$
0/
00
0.
0,
#481000
1$
1,
#482000
1#
0$
1.
0,
#483000
1$
1,
#484000
1"
0#
0$
10
0.
0,
#485000
1$
1,
#486000
1#
0$
1.
0,
#487000
1$
1,
#488000
1!
0"
0#
0$
1/
00
0.
0,
#489000
1$
1,
#490000
1#
0$
1.
0,
01
0%
#491000
1$
1,
#492000
1"
0#
0$
10
0.
0,
11
1%
#493000
1$
1,
#494000
1#
0$
1.
0,
#495000
1$
1,
#496000
0!
0"
0#
0$
0/
00
0.
0,
#497000
1$
1,
#498000
1#
0$
1.
0,
#499000
1$
1,
#500000
1"
0#
0$
10
0.
0,
#501000
1$
1,
#502000
1#
0$
1.
0,
#503000
1$
1,
#504000
1!
0"
0#
0$
1/
00
0.
0,
#505000
1$
1,
#506000
1#
0$
1.
0,
01
0%
#507000
1$
1,
#508000
1"
0#
0$
10
0.
0,
11
1%
#509000
1$
1,
#510000
1#
0$
1.
0,
#511000
1$
1,
#512000
0!
0"
0#
0$
0/
00
0.
0,
#513000
1$
1,
#514000
1#
0$
1.
0,
#515000
1$
1,
#516000
1"
0#
0$
10
0.
0,
#517000
1$
1,
#518000
1#
0$
1.
0,
#519000
1$
1,
#520000
1!
0"
0#
0$
1/
00
0.
0,
#521000
1$
1,
#522000
1#
0$
1.
0,
01
0%
#523000
1$
1,
#524000
1"
0#
0$
10
0.
0,
11
1%
#525000
1$
1,
#526000
1#
0$
1.
0,
#527000
1$
1,
#528000
0!
0"
0#
0$
0/
00
0.
0,
#529000
1$
1,
#530000
1#
0$
1.
0,
#531000
1$
1,
#532000
1"
0#
0$
10
0.
0,
#533000
1$
1,
#534000
1#
0$
1.
0,
#535000
1$
1,
#536000
1!
0"
0#
0$
1/
00
0.
0,
#537000
1$
1,
#538000
1#
0$
1.
0,
01
0%
#539000
1$
1,
#540000
1"
0#
0$
10
0.
0,
11
1%
#541000
1$
1,
#542000
1#
0$
1.
0,
#543000
1$
1,
#544000
0!
0"
0#
0$
0/
00
0.
0,
#545000
1$
1,
#546000
1#
0$
1.
0,
#547000
1$
1,
#548000
1"
0#
0$
10
0.
0,
#549000
1$
1,
#550000
1#
0$
1.
0,
#551000
1$
1,
#552000
1!
0"
0#
0$
1/
00
0.
0,
#553000
1$
1,
#554000
1#
0$
1.
0,
01
0%
#555000
1$
1,
#556000
1"
0#
0$
10
0.
0,
11
1%
#557000
1$
1,
#558000
1#
0$
1.
0,
#559000
1$
1,
#560000
0!
0"
0#
0$
0/
00
0.
0,
#561000
1$
1,
#562000
1#
0$
1.
0,
#563000
1$
1,
#564000
1"
0#
0$
10
0.
0,
#565000
1$
1,
#566000
1#
0$
1.
0,
#567000
1$
1,
#568000
1!
0"
0#
0$
1/
00
0.
0,
#569000
1$
1,
#570000
1#
0$
1.
0,
01
0%
#571000
1$
1,
#572000
1"
0#
0$
10
0.
0,
11
1%
#573000
1$
1,
#574000
1#
0$
1.
0,
#575000
1$
1,
#576000
0!
0"
0#
0$
0/
00
0.
0,
#577000
1$
1,
#578000
1#
0$
1.
0,
#579000
1$
1,
#580000
1"
0#
0$
10
0.
0,
#581000
1$
1,
#582000
1#
0$
1.
0,
#583000
1$
1,
#584000
1!
0"
0#
0$
1/
00
0.
0,
#585000
1$
1,
#586000
1#
0$
1.
0,
01
0%
#587000
1$
1,
#588000
1"
0#
0$
10
0.
0,
11
1%
#589000
1$
1,
#590000
1#
0$
1.
0,
#591000
1$
1,
#592000
0!
0"
0#
0$
0/
00
0.
0,
#593000
1$
1,
#594000
1#
0$
1.
0,
#595000
1$
1,
#596000
1"
0#
0$
10
0.
0,
#597000
1$
1,
#598000
1#
0$
1.
0,
#599000
1$
1,
#600000
1!
0"
0#
0$
1/
00
0.
0,
#601000
1$
1,
#602000
1#
0$
1.
0,
01
0%
#603000
1$
1,
#604000
1"
0#
0$
10
0.
0,
11
1%
#605000
1$
1,
#606000
1#
0$
1.
0,
#607000
1$
1,
#608000
0!
0"
0#
0$
0/
00
0.
0,
#609000
1$
1,
#610000
1#
0$
1.
0,
#611000
1$
1,
#612000
1"
0#
0$
10
0.
0,
#613000
1$
1,
#614000
1#
0$
1.
0,
#615000
1$
1,
#616000
1!
0"
0#
0$
1/
00
0.
0,
#617000
1$
1,
#618000
1#
0$
1.
0,
01
0%
#619000
1$
1,
#620000
1"
0#
0$
10
0.
0,
11
1%
#621000
1$
1,
#622000
1#
0$
1.
0,
#623000
1$
1,
#624000
0!
0"
0#
0$
0/
00
0.
0,
#625000
1$
1,
#626000
1#
0$
1.
0,
#627000
1$
1,
#628000
1"
0#
0$
10
0.
0,
#629000
1$
1,
#630000
1#
0$
1.
0,
#631000
1$
1,
#632000
1!
0"
0#
0$
1/
00
0.
0,
#633000
1$
1,
#634000
1#
0$
1.
0,
01
0%
#635000
1$
1,
#636000
1"
0#
0$
10
0.
0,
11
1%
#637000
1$
1,
#638000
1#
0$
1.
0,
#639000
1$
1,
#640000
0!
0"
0#
0$
0/
00
0.
0,
#641000
1$
1,
#642000
1#
0$
1.
0,
#643000
1$
1,
#644000
1"
0#
0$
10
0.
0,
#645000
1$
1,
#646000
1#
0$
1.
0,
#647000
1$
1,
#648000
1!
0"
0#
0$
1/
00
0.
0,
#649000
1$
1,
#650000
1#
0$
1.
0,
01
0%
#651000
1$
1,
#652000
1"
0#
0$
10
0.
0,
11
1%
#653000
1$
1,
#654000
1#
0$
1.
0,
#655000
1$
1,
#656000
0!
0"
0#
0$
0/
00
0.
0,
#657000
1$
1,
#658000
1#
0$
1.
0,
#659000
1$
1,
#660000
1"
0#
0$
10
0.
0,
#661000
1$
1,
#662000
1#
0$
1.
0,
#663000
1$
1,
#664000
1!
0"
0#
0$
1/
00
0.
0,
#665000
1$
1,
#666000
1#
0$
1.
0,
01
0%
#667000
1$
1,
#668000
1"
0#
0$
10
0.
0,
11
1%
#669000
1$
1,
#670000
1#
0$
1.
0,
#671000
1$
1,
#672000
0!
0"
0#
0$
0/
00
0.
0,
#673000
1$
1,
#674000
1#
0$
1.
0,
#675000
1$
1,
#676000
1"
0#
0$
10
0.
0,
#677000
1$
1,
#678000
1#
0$
1.
0,
#679000
1$
1,
#680000
1!
0"
0#
0$
1/
00
0.
0,
#681000
1$
1,
#682000
1#
0$
1.
0,
01
0%
#683000
1$
1,
#684000
1"
0#
0$
10
0.
0,
11
1%
#685000
1$
1,
#686000
1#
0$
1.
0,
#687000
1$
1,
#688000
0!
0"
0#
0$
0/
00
0.
0,
#689000
1$
1,
#690000
1#
0$
1.
0,
#691000
1$
1,
#692000
1"
0#
0$
10
0.
0,
#693000
1$
1,
#694000
1#
0$
1.
0,
#695000
1$
1,
#696000
1!
0"
0#
0$
1/
00
0.
0,
#697000
1$
1,
#698000
1#
0$
1.
0,
01
0%
#699000
1$
1,
#700000
1"
0#
0$
10
0.
0,
11
1%
#701000
1$
1,
#702000
1#
0$
1.
0,
#703000
1$
1,
#704000
0!
0"
0#
0$
0/
00
0.
0,
#705000
1$
1,
#706000
1#
0$
1.
0,
#707000
1$
1,
#708000
1"
0#
0$
10
0.
0,
#709000
1$
1,
#710000
1#
0$
1.
0,
#711000
1$
1,
#712000
1!
0"
0#
0$
1/
00
0.
0,
#713000
1$
1,
#714000
1#
0$
1.
0,
01
0%
#715000
1$
1,
#716000
1"
0#
0$
10
0.
0,
11
1%
#717000
1$
1,
#718000
1#
0$
1.
0,
#719000
1$
1,
#720000
0!
0"
0#
0$
0/
00
0.
0,
#721000
1$
1,
#722000
1#
0$
1.
0,
#723000
1$
1,
#724000
1"
0#
0$
10
0.
0,
#725000
1$
1,
#726000
1#
0$
1.
0,
#727000
1$
1,
#728000
1!
0"
0#
0$
1/
00
0.
0,
#729000
1$
1,
#730000
1#
0$
1.
0,
01
0%
#731000
1$
1,
#732000
1"
0#
0$
10
0.
0,
11
1%
#733000
1$
1,
#734000
1#
0$
1.
0,
#735000
1$
1,
#736000
0!
0"
0#
0$
0/
00
0.
0,
#737000
1$
1,
#738000
1#
0$
1.
0,
#739000
1$
1,
#740000
1"
0#
0$
10
0.
0,
#741000
1$
1,
#742000
1#
0$
1.
0,
#743000
1$
1,
#744000
1!
0"
0#
0$
1/
00
0.
0,
#745000
1$
1,
#746000
1#
0$
1.
0,
01
0%
#747000
1$
1,
#748000
1"
0#
0$
10
0.
0,
11
1%
#749000
1$
1,
#750000
1#
0$
1.
0,
#751000
1$
1,
#752000
0!
0"
0#
0$
0/
00
0.
0,
#753000
1$
1,
#754000
1#
0$
1.
0,
#755000
1$
1,
#756000
1"
0#
0$
10
0.
0,
#757000
1$
1,
#758000
1#
0$
1.
0,
#759000
1$
1,
#760000
1!
0"
0#
0$
1/
00
0.
0,
#761000
1$
1,
#762000
1#
0$
1.
0,
01
0%
#763000
1$
1,
#764000
1"
0#
0$
10
0.
0,
11
1%
#765000
1$
1,
#766000
1#
0$
1.
0,
#767000
1$
1,
#768000
0!
0"
0#
0$
0/
00
0.
0,
#769000
1$
1,
#770000
1#
0$
1.
0,
#771000
1$
1,
#772000
1"
0#
0$
10
0.
0,
#773000
1$
1,
#774000
1#
0$
1.
0,
#775000
1$
1,
#776000
1!
0"
0#
0$
1/
00
0.
0,
#777000
1$
1,
#778000
1#
0$
1.
0,
01
0%
#779000
1$
1,
#780000
1"
0#
0$
10
0.
0,
11
1%
#781000
1$
1,
#782000
1#
0$
1.
0,
#783000
1$
1,
#784000
0!
0"
0#
0$
0/
00
0.
0,
#785000
1$
1,
#786000
1#
0$
1.
0,
#787000
1$
1,
#788000
1"
0#
0$
10
0.
0,
#789000
1$
1,
#790000
1#
0$
1.
0,
#791000
1$
1,
#792000
1!
0"
0#
0$
1/
00
0.
0,
#793000
1$
1,
#794000
1#
0$
1.
0,
01
0%
#795000
1$
1,
#796000
1"
0#
0$
10
0.
0,
11
1%
#797000
1$
1,
#798000
1#
0$
1.
0,
#799000
1$
1,
#800000
0!
0"
0#
0$
0/
00
0.
0,
#801000
1$
1,
#802000
1#
0$
1.
0,
#803000
1$
1,
#804000
1"
0#
0$
10
0.
0,
#805000
1$
1,
#806000
1#
0$
1.
0,
#807000
1$
1,
#808000
1!
0"
0#
0$
1/
00
0.
0,
#809000
1$
1,
#810000
1#
0$
1.
0,
01
0%
#811000
1$
1,
#812000
1"
0#
0$
10
0.
0,
11
1%
#813000
1$
1,
#814000
1#
0$
1.
0,
#815000
1$
1,
#816000
0!
0"
0#
0$
0/
00
0.
0,
#817000
1$
1,
#818000
1#
0$
1.
0,
#819000
1$
1,
#820000
1"
0#
0$
10
0.
0,
#821000
1$
1,
#822000
1#
0$
1.
0,
#823000
1$
1,
#824000
1!
0"
0#
0$
1/
00
0.
0,
#825000
1$
1,
#826000
1#
0$
1.
0,
01
0%
#827000
1$
1,
#828000
1"
0#
0$
10
0.
0,
11
1%
#829000
1$
1,
#830000
1#
0$
1.
0,
#831000
1$
1,
#832000
0!
0"
0#
0$
0/
00
0.
0,
#833000
1$
1,
#834000
1#
0$
1.
0,
#835000
1$
1,
#836000
1"
0#
0$
10
0.
0,
#837000
1$
1,
#838000
1#
0$
1.
0,
#839000
1$
1,
#840000
1!
0"
0#
0$
1/
00
0.
0,
#841000
1$
1,
#842000
1#
0$
1.
0,
01
0%
#843000
1$
1,
#844000
1"
0#
0$
10
0.
0,
11
1%
#845000
1$
1,
#846000
1#
0$
1.
0,
#847000
1$
1,
#848000
0!
0"
0#
0$
0/
00
0.
0,
#849000
1$
1,
#850000
1#
0$
1.
0,
#851000
1$
1,
#852000
1"
0#
0$
10
0.
0,
#853000
1$
1,
#854000
1#
0$
1.
0,
#855000
1$
1,
#856000
1!
0"
0#
0$
1/
00
0.
0,
#857000
1$
1,
#858000
1#
0$
1.
0,
01
0%
#859000
1$
1,
#860000
1"
0#
0$
10
0.
0,
11
1%
#861000
1$
1,
#862000
1#
0$
1.
0,
#863000
1$
1,
#864000
0!
0"
0#
0$
0/
00
0.
0,
#865000
1$
1,
#866000
1#
0$
1.
0,
#867000
1$
1,
#868000
1"
0#
0$
10
0.
0,
#869000
1$
1,
#870000
1#
0$
1.
0,
#871000
1$
1,
#872000
1!
0"
0#
0$
1/
00
0.
0,
#873000
1$
1,
#874000
1#
0$
1.
0,
01
0%
#875000
1$
1,
#876000
1"
0#
0$
10
0.
0,
11
1%
#877000
1$
1,
#878000
1#
0$
1.
0,
#879000
1$
1,
#880000
0!
0"
0#
0$
0/
00
0.
0,
#881000
1$
1,
#882000
1#
0$
1.
0,
#883000
1$
1,
#884000
1"
0#
0$
10
0.
0,
#885000
1$
1,
#886000
1#
0$
1.
0,
#887000
1$
1,
#888000
1!
0"
0#
0$
1/
00
0.
0,
#889000
1$
1,
#890000
1#
0$
1.
0,
01
0%
#891000
1$
1,
#892000
1"
0#
0$
10
0.
0,
11
1%
#893000
1$
1,
#894000
1#
0$
1.
0,
#895000
1$
1,
#896000
0!
0"
0#
0$
0/
00
0.
0,
#897000
1$
1,
#898000
1#
0$
1.
0,
#899000
1$
1,
#900000
1"
0#
0$
10
0.
0,
#901000
1$
1,
#902000
1#
0$
1.
0,
#903000
1$
1,
#904000
1!
0"
0#
0$
1/
00
0.
0,
#905000
1$
1,
#906000
1#
0$
1.
0,
01
0%
#907000
1$
1,
#908000
1"
0#
0$
10
0.
0,
11
1%
#909000
1$
1,
#910000
1#
0$
1.
0,
#911000
1$
1,
#912000
0!
0"
0#
0$
0/
00
0.
0,
#913000
1$
1,
#914000
1#
0$
1.
0,
#915000
1$
1,
#916000
1"
0#
0$
10
0.
0,
#917000
1$
1,
#918000
1#
0$
1.
0,
#919000
1$
1,
#920000
1!
0"
0#
0$
1/
00
0.
0,
#921000
1$
1,
#922000
1#
0$
1.
0,
01
0%
#923000
1$
1,
#924000
1"
0#
0$
10
0.
0,
11
1%
#925000
1$
1,
#926000
1#
0$
1.
0,
